{
    "Path":  {
                 "Path":  "\\\\DAEDALUS\\ROOT\\cimv2:Win32_POTSModem",
                 "RelativePath":  "Win32_POTSModem",
                 "Server":  "DAEDALUS",
                 "NamespacePath":  "ROOT\\cimv2",
                 "ClassName":  "Win32_POTSModem",
                 "IsClass":  true,
                 "IsInstance":  false,
                 "IsSingleton":  false
             },
    "Derivation":  [
                       "CIM_PotsModem",
                       "CIM_LogicalDevice",
                       "CIM_LogicalElement",
                       "CIM_ManagedSystemElement"
                   ],
    "Methods":  [
                    {
                        "Name":  "SetPowerState",
                        "InParameters":  "System.Management.ManagementBaseObject",
                        "OutParameters":  "System.Management.ManagementBaseObject",
                        "Origin":  "CIM_LogicalDevice",
                        "Qualifiers":  ""
                    },
                    {
                        "Name":  "Reset",
                        "InParameters":  null,
                        "OutParameters":  "System.Management.ManagementBaseObject",
                        "Origin":  "CIM_LogicalDevice",
                        "Qualifiers":  ""
                    }
                ],
    "Scope":  {
                  "IsConnected":  true,
                  "Options":  {
                                  "Locale":  "",
                                  "Username":  null,
                                  "Authority":  "",
                                  "Impersonation":  3,
                                  "Authentication":  6,
                                  "EnablePrivileges":  false,
                                  "Context":  "",
                                  "Timeout":  "10675199.02:48:05.4775807"
                              },
                  "Path":  {
                               "Path":  "\\\\localhost\\root\\cimv2",
                               "RelativePath":  "",
                               "Server":  "localhost",
                               "NamespacePath":  "root\\cimv2",
                               "ClassName":  "",
                               "IsClass":  false,
                               "IsInstance":  false,
                               "IsSingleton":  false
                           }
              },
    "Options":  {
                    "UseAmendedQualifiers":  false,
                    "Context":  [

                                ],
                    "Timeout":  {
                                    "Ticks":  9223372036854775807,
                                    "Days":  10675199,
                                    "Hours":  2,
                                    "Milliseconds":  477,
                                    "Minutes":  48,
                                    "Seconds":  5,
                                    "TotalDays":  10675199.116730064,
                                    "TotalHours":  256204778.80152154,
                                    "TotalMilliseconds":  922337203685477,
                                    "TotalMinutes":  15372286728.091293,
                                    "TotalSeconds":  922337203685.47754
                                }
                },
    "ClassPath":  {
                      "Path":  "\\\\DAEDALUS\\ROOT\\cimv2:Win32_POTSModem",
                      "RelativePath":  "Win32_POTSModem",
                      "Server":  "DAEDALUS",
                      "NamespacePath":  "ROOT\\cimv2",
                      "ClassName":  "Win32_POTSModem",
                      "IsClass":  true,
                      "IsInstance":  false,
                      "IsSingleton":  false
                  },
    "Properties":  [
                       {
                           "Name":  "AnswerMode",
                           "Value":  null,
                           "Type":  18,
                           "IsLocal":  false,
                           "IsArray":  false,
                           "Origin":  "CIM_PotsModem",
                           "Qualifiers":  "System.Management.QualifierData System.Management.QualifierData"
                       },
                       {
                           "Name":  "AttachedTo",
                           "Value":  null,
                           "Type":  8,
                           "IsLocal":  true,
                           "IsArray":  false,
                           "Origin":  "Win32_POTSModem",
                           "Qualifiers":  "System.Management.QualifierData System.Management.QualifierData System.Management.QualifierData"
                       },
                       {
                           "Name":  "Availability",
                           "Value":  null,
                           "Type":  18,
                           "IsLocal":  false,
                           "IsArray":  false,
                           "Origin":  "CIM_LogicalDevice",
                           "Qualifiers":  "System.Management.QualifierData System.Management.QualifierData System.Management.QualifierData System.Management.QualifierData"
                       },
                       {
                           "Name":  "BlindOff",
                           "Value":  null,
                           "Type":  8,
                           "IsLocal":  true,
                           "IsArray":  false,
                           "Origin":  "Win32_POTSModem",
                           "Qualifiers":  "System.Management.QualifierData System.Management.QualifierData System.Management.QualifierData"
                       },
                       {
                           "Name":  "BlindOn",
                           "Value":  null,
                           "Type":  8,
                           "IsLocal":  true,
                           "IsArray":  false,
                           "Origin":  "Win32_POTSModem",
                           "Qualifiers":  "System.Management.QualifierData System.Management.QualifierData System.Management.QualifierData"
                       },
                       {
                           "Name":  "Caption",
                           "Value":  null,
                           "Type":  8,
                           "IsLocal":  false,
                           "IsArray":  false,
                           "Origin":  "CIM_ManagedSystemElement",
                           "Qualifiers":  "System.Management.QualifierData System.Management.QualifierData System.Management.QualifierData"
                       },
                       {
                           "Name":  "CompatibilityFlags",
                           "Value":  null,
                           "Type":  8,
                           "IsLocal":  true,
                           "IsArray":  false,
                           "Origin":  "Win32_POTSModem",
                           "Qualifiers":  "System.Management.QualifierData System.Management.QualifierData System.Management.QualifierData"
                       },
                       {
                           "Name":  "CompressionInfo",
                           "Value":  null,
                           "Type":  18,
                           "IsLocal":  false,
                           "IsArray":  false,
                           "Origin":  "CIM_PotsModem",
                           "Qualifiers":  "System.Management.QualifierData System.Management.QualifierData"
                       },
                       {
                           "Name":  "CompressionOff",
                           "Value":  null,
                           "Type":  8,
                           "IsLocal":  true,
                           "IsArray":  false,
                           "Origin":  "Win32_POTSModem",
                           "Qualifiers":  "System.Management.QualifierData System.Management.QualifierData System.Management.QualifierData"
                       },
                       {
                           "Name":  "CompressionOn",
                           "Value":  null,
                           "Type":  8,
                           "IsLocal":  true,
                           "IsArray":  false,
                           "Origin":  "Win32_POTSModem",
                           "Qualifiers":  "System.Management.QualifierData System.Management.QualifierData System.Management.QualifierData"
                       },
                       {
                           "Name":  "ConfigManagerErrorCode",
                           "Value":  null,
                           "Type":  19,
                           "IsLocal":  false,
                           "IsArray":  false,
                           "Origin":  "CIM_LogicalDevice",
                           "Qualifiers":  "System.Management.QualifierData System.Management.QualifierData System.Management.QualifierData"
                       },
                       {
                           "Name":  "ConfigManagerUserConfig",
                           "Value":  null,
                           "Type":  11,
                           "IsLocal":  false,
                           "IsArray":  false,
                           "Origin":  "CIM_LogicalDevice",
                           "Qualifiers":  "System.Management.QualifierData System.Management.QualifierData"
                       },
                       {
                           "Name":  "ConfigurationDialog",
                           "Value":  null,
                           "Type":  8,
                           "IsLocal":  true,
                           "IsArray":  false,
                           "Origin":  "Win32_POTSModem",
                           "Qualifiers":  "System.Management.QualifierData System.Management.QualifierData System.Management.QualifierData"
                       },
                       {
                           "Name":  "CountriesSupported",
                           "Value":  null,
                           "Type":  8,
                           "IsLocal":  false,
                           "IsArray":  true,
                           "Origin":  "CIM_PotsModem",
                           "Qualifiers":  "System.Management.QualifierData System.Management.QualifierData"
                       },
                       {
                           "Name":  "CountrySelected",
                           "Value":  null,
                           "Type":  8,
                           "IsLocal":  false,
                           "IsArray":  false,
                           "Origin":  "CIM_PotsModem",
                           "Qualifiers":  "System.Management.QualifierData System.Management.QualifierData"
                       },
                       {
                           "Name":  "CreationClassName",
                           "Value":  null,
                           "Type":  8,
                           "IsLocal":  false,
                           "IsArray":  false,
                           "Origin":  "CIM_LogicalDevice",
                           "Qualifiers":  "System.Management.QualifierData System.Management.QualifierData System.Management.QualifierData"
                       },
                       {
                           "Name":  "CurrentPasswords",
                           "Value":  null,
                           "Type":  8,
                           "IsLocal":  false,
                           "IsArray":  true,
                           "Origin":  "CIM_PotsModem",
                           "Qualifiers":  "System.Management.QualifierData System.Management.QualifierData"
                       },
                       {
                           "Name":  "DCB",
                           "Value":  null,
                           "Type":  17,
                           "IsLocal":  true,
                           "IsArray":  true,
                           "Origin":  "Win32_POTSModem",
                           "Qualifiers":  "System.Management.QualifierData System.Management.QualifierData System.Management.QualifierData"
                       },
                       {
                           "Name":  "Default",
                           "Value":  null,
                           "Type":  17,
                           "IsLocal":  true,
                           "IsArray":  true,
                           "Origin":  "Win32_POTSModem",
                           "Qualifiers":  "System.Management.QualifierData System.Management.QualifierData System.Management.QualifierData"
                       },
                       {
                           "Name":  "Description",
                           "Value":  null,
                           "Type":  8,
                           "IsLocal":  false,
                           "IsArray":  false,
                           "Origin":  "CIM_ManagedSystemElement",
                           "Qualifiers":  "System.Management.QualifierData System.Management.QualifierData"
                       },
                       {
                           "Name":  "DeviceID",
                           "Value":  null,
                           "Type":  8,
                           "IsLocal":  false,
                           "IsArray":  false,
                           "Origin":  "CIM_LogicalDevice",
                           "Qualifiers":  "System.Management.QualifierData System.Management.QualifierData System.Management.QualifierData System.Management.QualifierData System.Management.QualifierData System.Management.QualifierData"
                       },
                       {
                           "Name":  "DeviceLoader",
                           "Value":  null,
                           "Type":  8,
                           "IsLocal":  true,
                           "IsArray":  false,
                           "Origin":  "Win32_POTSModem",
                           "Qualifiers":  "System.Management.QualifierData System.Management.QualifierData System.Management.QualifierData"
                       },
                       {
                           "Name":  "DeviceType",
                           "Value":  null,
                           "Type":  8,
                           "IsLocal":  true,
                           "IsArray":  false,
                           "Origin":  "Win32_POTSModem",
                           "Qualifiers":  "System.Management.QualifierData System.Management.QualifierData System.Management.QualifierData System.Management.QualifierData"
                       },
                       {
                           "Name":  "DialType",
                           "Value":  null,
                           "Type":  18,
                           "IsLocal":  false,
                           "IsArray":  false,
                           "Origin":  "CIM_PotsModem",
                           "Qualifiers":  "System.Management.QualifierData System.Management.QualifierData"
                       },
                       {
                           "Name":  "DriverDate",
                           "Value":  null,
                           "Type":  101,
                           "IsLocal":  true,
                           "IsArray":  false,
                           "Origin":  "Win32_POTSModem",
                           "Qualifiers":  "System.Management.QualifierData System.Management.QualifierData System.Management.QualifierData"
                       },
                       {
                           "Name":  "ErrorCleared",
                           "Value":  null,
                           "Type":  11,
                           "IsLocal":  false,
                           "IsArray":  false,
                           "Origin":  "CIM_LogicalDevice",
                           "Qualifiers":  "System.Management.QualifierData System.Management.QualifierData"
                       },
                       {
                           "Name":  "ErrorControlForced",
                           "Value":  null,
                           "Type":  8,
                           "IsLocal":  true,
                           "IsArray":  false,
                           "Origin":  "Win32_POTSModem",
                           "Qualifiers":  "System.Management.QualifierData System.Management.QualifierData System.Management.QualifierData"
                       },
                       {
                           "Name":  "ErrorControlInfo",
                           "Value":  null,
                           "Type":  18,
                           "IsLocal":  false,
                           "IsArray":  false,
                           "Origin":  "CIM_PotsModem",
                           "Qualifiers":  "System.Management.QualifierData System.Management.QualifierData"
                       },
                       {
                           "Name":  "ErrorControlOff",
                           "Value":  null,
                           "Type":  8,
                           "IsLocal":  true,
                           "IsArray":  false,
                           "Origin":  "Win32_POTSModem",
                           "Qualifiers":  "System.Management.QualifierData System.Management.QualifierData System.Management.QualifierData"
                       },
                       {
                           "Name":  "ErrorControlOn",
                           "Value":  null,
                           "Type":  8,
                           "IsLocal":  true,
                           "IsArray":  false,
                           "Origin":  "Win32_POTSModem",
                           "Qualifiers":  "System.Management.QualifierData System.Management.QualifierData System.Management.QualifierData"
                       },
                       {
                           "Name":  "ErrorDescription",
                           "Value":  null,
                           "Type":  8,
                           "IsLocal":  false,
                           "IsArray":  false,
                           "Origin":  "CIM_LogicalDevice",
                           "Qualifiers":  "System.Management.QualifierData System.Management.QualifierData"
                       },
                       {
                           "Name":  "FlowControlHard",
                           "Value":  null,
                           "Type":  8,
                           "IsLocal":  true,
                           "IsArray":  false,
                           "Origin":  "Win32_POTSModem",
                           "Qualifiers":  "System.Management.QualifierData System.Management.QualifierData System.Management.QualifierData"
                       },
                       {
                           "Name":  "FlowControlOff",
                           "Value":  null,
                           "Type":  8,
                           "IsLocal":  true,
                           "IsArray":  false,
                           "Origin":  "Win32_POTSModem",
                           "Qualifiers":  "System.Management.QualifierData System.Management.QualifierData System.Management.QualifierData"
                       },
                       {
                           "Name":  "FlowControlSoft",
                           "Value":  null,
                           "Type":  8,
                           "IsLocal":  true,
                           "IsArray":  false,
                           "Origin":  "Win32_POTSModem",
                           "Qualifiers":  "System.Management.QualifierData System.Management.QualifierData System.Management.QualifierData"
                       },
                       {
                           "Name":  "InactivityScale",
                           "Value":  null,
                           "Type":  8,
                           "IsLocal":  true,
                           "IsArray":  false,
                           "Origin":  "Win32_POTSModem",
                           "Qualifiers":  "System.Management.QualifierData System.Management.QualifierData System.Management.QualifierData"
                       },
                       {
                           "Name":  "InactivityTimeout",
                           "Value":  null,
                           "Type":  19,
                           "IsLocal":  false,
                           "IsArray":  false,
                           "Origin":  "CIM_PotsModem",
                           "Qualifiers":  "System.Management.QualifierData System.Management.QualifierData"
                       },
                       {
                           "Name":  "Index",
                           "Value":  null,
                           "Type":  19,
                           "IsLocal":  true,
                           "IsArray":  false,
                           "Origin":  "Win32_POTSModem",
                           "Qualifiers":  "System.Management.QualifierData System.Management.QualifierData"
                       },
                       {
                           "Name":  "IndexEx",
                           "Value":  null,
                           "Type":  8,
                           "IsLocal":  true,
                           "IsArray":  false,
                           "Origin":  "Win32_POTSModem",
                           "Qualifiers":  "System.Management.QualifierData System.Management.QualifierData"
                       },
                       {
                           "Name":  "InstallDate",
                           "Value":  null,
                           "Type":  101,
                           "IsLocal":  false,
                           "IsArray":  false,
                           "Origin":  "CIM_ManagedSystemElement",
                           "Qualifiers":  "System.Management.QualifierData System.Management.QualifierData System.Management.QualifierData"
                       },
                       {
                           "Name":  "LastErrorCode",
                           "Value":  null,
                           "Type":  19,
                           "IsLocal":  false,
                           "IsArray":  false,
                           "Origin":  "CIM_LogicalDevice",
                           "Qualifiers":  "System.Management.QualifierData System.Management.QualifierData"
                       },
                       {
                           "Name":  "MaxBaudRateToPhone",
                           "Value":  null,
                           "Type":  19,
                           "IsLocal":  false,
                           "IsArray":  false,
                           "Origin":  "CIM_PotsModem",
                           "Qualifiers":  "System.Management.QualifierData System.Management.QualifierData"
                       },
                       {
                           "Name":  "MaxBaudRateToSerialPort",
                           "Value":  null,
                           "Type":  19,
                           "IsLocal":  false,
                           "IsArray":  false,
                           "Origin":  "CIM_PotsModem",
                           "Qualifiers":  "System.Management.QualifierData System.Management.QualifierData"
                       },
                       {
                           "Name":  "MaxNumberOfPasswords",
                           "Value":  null,
                           "Type":  18,
                           "IsLocal":  false,
                           "IsArray":  false,
                           "Origin":  "CIM_PotsModem",
                           "Qualifiers":  "System.Management.QualifierData System.Management.QualifierData"
                       },
                       {
                           "Name":  "Model",
                           "Value":  null,
                           "Type":  8,
                           "IsLocal":  true,
                           "IsArray":  false,
                           "Origin":  "Win32_POTSModem",
                           "Qualifiers":  "System.Management.QualifierData System.Management.QualifierData System.Management.QualifierData"
                       },
                       {
                           "Name":  "ModemInfPath",
                           "Value":  null,
                           "Type":  8,
                           "IsLocal":  true,
                           "IsArray":  false,
                           "Origin":  "Win32_POTSModem",
                           "Qualifiers":  "System.Management.QualifierData System.Management.QualifierData System.Management.QualifierData"
                       },
                       {
                           "Name":  "ModemInfSection",
                           "Value":  null,
                           "Type":  8,
                           "IsLocal":  true,
                           "IsArray":  false,
                           "Origin":  "Win32_POTSModem",
                           "Qualifiers":  "System.Management.QualifierData System.Management.QualifierData System.Management.QualifierData"
                       },
                       {
                           "Name":  "ModulationBell",
                           "Value":  null,
                           "Type":  8,
                           "IsLocal":  true,
                           "IsArray":  false,
                           "Origin":  "Win32_POTSModem",
                           "Qualifiers":  "System.Management.QualifierData System.Management.QualifierData System.Management.QualifierData"
                       },
                       {
                           "Name":  "ModulationCCITT",
                           "Value":  null,
                           "Type":  8,
                           "IsLocal":  true,
                           "IsArray":  false,
                           "Origin":  "Win32_POTSModem",
                           "Qualifiers":  "System.Management.QualifierData System.Management.QualifierData System.Management.QualifierData"
                       },
                       {
                           "Name":  "ModulationScheme",
                           "Value":  null,
                           "Type":  18,
                           "IsLocal":  false,
                           "IsArray":  false,
                           "Origin":  "CIM_PotsModem",
                           "Qualifiers":  "System.Management.QualifierData System.Management.QualifierData"
                       },
                       {
                           "Name":  "Name",
                           "Value":  null,
                           "Type":  8,
                           "IsLocal":  false,
                           "IsArray":  false,
                           "Origin":  "CIM_ManagedSystemElement",
                           "Qualifiers":  "System.Management.QualifierData System.Management.QualifierData"
                       },
                       {
                           "Name":  "PNPDeviceID",
                           "Value":  null,
                           "Type":  8,
                           "IsLocal":  false,
                           "IsArray":  false,
                           "Origin":  "CIM_LogicalDevice",
                           "Qualifiers":  "System.Management.QualifierData System.Management.QualifierData"
                       },
                       {
                           "Name":  "PortSubClass",
                           "Value":  null,
                           "Type":  8,
                           "IsLocal":  true,
                           "IsArray":  false,
                           "Origin":  "Win32_POTSModem",
                           "Qualifiers":  "System.Management.QualifierData System.Management.QualifierData System.Management.QualifierData System.Management.QualifierData System.Management.QualifierData"
                       },
                       {
                           "Name":  "PowerManagementCapabilities",
                           "Value":  null,
                           "Type":  18,
                           "IsLocal":  false,
                           "IsArray":  true,
                           "Origin":  "CIM_LogicalDevice",
                           "Qualifiers":  "System.Management.QualifierData System.Management.QualifierData"
                       },
                       {
                           "Name":  "PowerManagementSupported",
                           "Value":  null,
                           "Type":  11,
                           "IsLocal":  false,
                           "IsArray":  false,
                           "Origin":  "CIM_LogicalDevice",
                           "Qualifiers":  "System.Management.QualifierData System.Management.QualifierData"
                       },
                       {
                           "Name":  "Prefix",
                           "Value":  null,
                           "Type":  8,
                           "IsLocal":  true,
                           "IsArray":  false,
                           "Origin":  "Win32_POTSModem",
                           "Qualifiers":  "System.Management.QualifierData System.Management.QualifierData System.Management.QualifierData"
                       },
                       {
                           "Name":  "Properties",
                           "Value":  null,
                           "Type":  17,
                           "IsLocal":  true,
                           "IsArray":  true,
                           "Origin":  "Win32_POTSModem",
                           "Qualifiers":  "System.Management.QualifierData System.Management.QualifierData System.Management.QualifierData"
                       },
                       {
                           "Name":  "ProviderName",
                           "Value":  null,
                           "Type":  8,
                           "IsLocal":  true,
                           "IsArray":  false,
                           "Origin":  "Win32_POTSModem",
                           "Qualifiers":  "System.Management.QualifierData System.Management.QualifierData System.Management.QualifierData"
                       },
                       {
                           "Name":  "Pulse",
                           "Value":  null,
                           "Type":  8,
                           "IsLocal":  true,
                           "IsArray":  false,
                           "Origin":  "Win32_POTSModem",
                           "Qualifiers":  "System.Management.QualifierData System.Management.QualifierData System.Management.QualifierData"
                       },
                       {
                           "Name":  "Reset",
                           "Value":  null,
                           "Type":  8,
                           "IsLocal":  true,
                           "IsArray":  false,
                           "Origin":  "Win32_POTSModem",
                           "Qualifiers":  "System.Management.QualifierData System.Management.QualifierData System.Management.QualifierData"
                       },
                       {
                           "Name":  "ResponsesKeyName",
                           "Value":  null,
                           "Type":  8,
                           "IsLocal":  true,
                           "IsArray":  false,
                           "Origin":  "Win32_POTSModem",
                           "Qualifiers":  "System.Management.QualifierData System.Management.QualifierData System.Management.QualifierData"
                       },
                       {
                           "Name":  "RingsBeforeAnswer",
                           "Value":  null,
                           "Type":  17,
                           "IsLocal":  false,
                           "IsArray":  false,
                           "Origin":  "CIM_PotsModem",
                           "Qualifiers":  "System.Management.QualifierData System.Management.QualifierData"
                       },
                       {
                           "Name":  "SpeakerModeDial",
                           "Value":  null,
                           "Type":  8,
                           "IsLocal":  true,
                           "IsArray":  false,
                           "Origin":  "Win32_POTSModem",
                           "Qualifiers":  "System.Management.QualifierData System.Management.QualifierData System.Management.QualifierData"
                       },
                       {
                           "Name":  "SpeakerModeOff",
                           "Value":  null,
                           "Type":  8,
                           "IsLocal":  true,
                           "IsArray":  false,
                           "Origin":  "Win32_POTSModem",
                           "Qualifiers":  "System.Management.QualifierData System.Management.QualifierData System.Management.QualifierData"
                       },
                       {
                           "Name":  "SpeakerModeOn",
                           "Value":  null,
                           "Type":  8,
                           "IsLocal":  true,
                           "IsArray":  false,
                           "Origin":  "Win32_POTSModem",
                           "Qualifiers":  "System.Management.QualifierData System.Management.QualifierData System.Management.QualifierData"
                       },
                       {
                           "Name":  "SpeakerModeSetup",
                           "Value":  null,
                           "Type":  8,
                           "IsLocal":  true,
                           "IsArray":  false,
                           "Origin":  "Win32_POTSModem",
                           "Qualifiers":  "System.Management.QualifierData System.Management.QualifierData System.Management.QualifierData"
                       },
                       {
                           "Name":  "SpeakerVolumeHigh",
                           "Value":  null,
                           "Type":  8,
                           "IsLocal":  true,
                           "IsArray":  false,
                           "Origin":  "Win32_POTSModem",
                           "Qualifiers":  "System.Management.QualifierData System.Management.QualifierData System.Management.QualifierData"
                       },
                       {
                           "Name":  "SpeakerVolumeInfo",
                           "Value":  null,
                           "Type":  18,
                           "IsLocal":  false,
                           "IsArray":  false,
                           "Origin":  "CIM_PotsModem",
                           "Qualifiers":  "System.Management.QualifierData System.Management.QualifierData"
                       },
                       {
                           "Name":  "SpeakerVolumeLow",
                           "Value":  null,
                           "Type":  8,
                           "IsLocal":  true,
                           "IsArray":  false,
                           "Origin":  "Win32_POTSModem",
                           "Qualifiers":  "System.Management.QualifierData System.Management.QualifierData System.Management.QualifierData"
                       },
                       {
                           "Name":  "SpeakerVolumeMed",
                           "Value":  null,
                           "Type":  8,
                           "IsLocal":  true,
                           "IsArray":  false,
                           "Origin":  "Win32_POTSModem",
                           "Qualifiers":  "System.Management.QualifierData System.Management.QualifierData System.Management.QualifierData"
                       },
                       {
                           "Name":  "Status",
                           "Value":  null,
                           "Type":  8,
                           "IsLocal":  false,
                           "IsArray":  false,
                           "Origin":  "CIM_ManagedSystemElement",
                           "Qualifiers":  "System.Management.QualifierData System.Management.QualifierData System.Management.QualifierData System.Management.QualifierData"
                       },
                       {
                           "Name":  "StatusInfo",
                           "Value":  null,
                           "Type":  18,
                           "IsLocal":  false,
                           "IsArray":  false,
                           "Origin":  "CIM_LogicalDevice",
                           "Qualifiers":  "System.Management.QualifierData System.Management.QualifierData System.Management.QualifierData System.Management.QualifierData"
                       },
                       {
                           "Name":  "StringFormat",
                           "Value":  null,
                           "Type":  8,
                           "IsLocal":  true,
                           "IsArray":  false,
                           "Origin":  "Win32_POTSModem",
                           "Qualifiers":  "System.Management.QualifierData System.Management.QualifierData System.Management.QualifierData"
                       },
                       {
                           "Name":  "SupportsCallback",
                           "Value":  null,
                           "Type":  11,
                           "IsLocal":  false,
                           "IsArray":  false,
                           "Origin":  "CIM_PotsModem",
                           "Qualifiers":  "System.Management.QualifierData System.Management.QualifierData"
                       },
                       {
                           "Name":  "SupportsSynchronousConnect",
                           "Value":  null,
                           "Type":  11,
                           "IsLocal":  false,
                           "IsArray":  false,
                           "Origin":  "CIM_PotsModem",
                           "Qualifiers":  "System.Management.QualifierData System.Management.QualifierData"
                       },
                       {
                           "Name":  "SystemCreationClassName",
                           "Value":  null,
                           "Type":  8,
                           "IsLocal":  false,
                           "IsArray":  false,
                           "Origin":  "CIM_LogicalDevice",
                           "Qualifiers":  "System.Management.QualifierData System.Management.QualifierData System.Management.QualifierData System.Management.QualifierData"
                       },
                       {
                           "Name":  "SystemName",
                           "Value":  null,
                           "Type":  8,
                           "IsLocal":  false,
                           "IsArray":  false,
                           "Origin":  "CIM_LogicalDevice",
                           "Qualifiers":  "System.Management.QualifierData System.Management.QualifierData System.Management.QualifierData System.Management.QualifierData"
                       },
                       {
                           "Name":  "Terminator",
                           "Value":  null,
                           "Type":  8,
                           "IsLocal":  true,
                           "IsArray":  false,
                           "Origin":  "Win32_POTSModem",
                           "Qualifiers":  "System.Management.QualifierData System.Management.QualifierData System.Management.QualifierData"
                       },
                       {
                           "Name":  "TimeOfLastReset",
                           "Value":  null,
                           "Type":  101,
                           "IsLocal":  false,
                           "IsArray":  false,
                           "Origin":  "CIM_PotsModem",
                           "Qualifiers":  "System.Management.QualifierData System.Management.QualifierData"
                       },
                       {
                           "Name":  "Tone",
                           "Value":  null,
                           "Type":  8,
                           "IsLocal":  true,
                           "IsArray":  false,
                           "Origin":  "Win32_POTSModem",
                           "Qualifiers":  "System.Management.QualifierData System.Management.QualifierData System.Management.QualifierData"
                       },
                       {
                           "Name":  "VoiceSwitchFeature",
                           "Value":  null,
                           "Type":  8,
                           "IsLocal":  true,
                           "IsArray":  false,
                           "Origin":  "Win32_POTSModem",
                           "Qualifiers":  "System.Management.QualifierData System.Management.QualifierData System.Management.QualifierData"
                       }
                   ],
    "SystemProperties":  [
                             {
                                 "Name":  "__GENUS",
                                 "Value":  1,
                                 "Type":  3,
                                 "IsLocal":  true,
                                 "IsArray":  false,
                                 "Origin":  "___SYSTEM",
                                 "Qualifiers":  ""
                             },
                             {
                                 "Name":  "__CLASS",
                                 "Value":  "Win32_POTSModem",
                                 "Type":  8,
                                 "IsLocal":  true,
                                 "IsArray":  false,
                                 "Origin":  "___SYSTEM",
                                 "Qualifiers":  ""
                             },
                             {
                                 "Name":  "__SUPERCLASS",
                                 "Value":  "CIM_PotsModem",
                                 "Type":  8,
                                 "IsLocal":  true,
                                 "IsArray":  false,
                                 "Origin":  "___SYSTEM",
                                 "Qualifiers":  ""
                             },
                             {
                                 "Name":  "__DYNASTY",
                                 "Value":  "CIM_ManagedSystemElement",
                                 "Type":  8,
                                 "IsLocal":  true,
                                 "IsArray":  false,
                                 "Origin":  "___SYSTEM",
                                 "Qualifiers":  ""
                             },
                             {
                                 "Name":  "__RELPATH",
                                 "Value":  "Win32_POTSModem",
                                 "Type":  8,
                                 "IsLocal":  true,
                                 "IsArray":  false,
                                 "Origin":  "___SYSTEM",
                                 "Qualifiers":  ""
                             },
                             {
                                 "Name":  "__PROPERTY_COUNT",
                                 "Value":  80,
                                 "Type":  3,
                                 "IsLocal":  true,
                                 "IsArray":  false,
                                 "Origin":  "___SYSTEM",
                                 "Qualifiers":  ""
                             },
                             {
                                 "Name":  "__DERIVATION",
                                 "Value":  "CIM_PotsModem CIM_LogicalDevice CIM_LogicalElement CIM_ManagedSystemElement",
                                 "Type":  8,
                                 "IsLocal":  true,
                                 "IsArray":  true,
                                 "Origin":  "___SYSTEM",
                                 "Qualifiers":  ""
                             },
                             {
                                 "Name":  "__SERVER",
                                 "Value":  "DAEDALUS",
                                 "Type":  8,
                                 "IsLocal":  true,
                                 "IsArray":  false,
                                 "Origin":  "___SYSTEM",
                                 "Qualifiers":  ""
                             },
                             {
                                 "Name":  "__NAMESPACE",
                                 "Value":  "ROOT\\cimv2",
                                 "Type":  8,
                                 "IsLocal":  true,
                                 "IsArray":  false,
                                 "Origin":  "___SYSTEM",
                                 "Qualifiers":  ""
                             },
                             {
                                 "Name":  "__PATH",
                                 "Value":  "\\\\DAEDALUS\\ROOT\\cimv2:Win32_POTSModem",
                                 "Type":  8,
                                 "IsLocal":  true,
                                 "IsArray":  false,
                                 "Origin":  "___SYSTEM",
                                 "Qualifiers":  ""
                             }
                         ],
    "Qualifiers":  [
                       {
                           "Name":  "dynamic",
                           "Value":  true,
                           "IsAmended":  false,
                           "IsLocal":  true,
                           "PropagatesToInstance":  true,
                           "PropagatesToSubclass":  false,
                           "IsOverridable":  true
                       },
                       {
                           "Name":  "Locale",
                           "Value":  1033,
                           "IsAmended":  false,
                           "IsLocal":  true,
                           "PropagatesToInstance":  true,
                           "PropagatesToSubclass":  false,
                           "IsOverridable":  true
                       },
                       {
                           "Name":  "provider",
                           "Value":  "CIMWin32",
                           "IsAmended":  false,
                           "IsLocal":  true,
                           "PropagatesToInstance":  true,
                           "PropagatesToSubclass":  false,
                           "IsOverridable":  true
                       },
                       {
                           "Name":  "UUID",
                           "Value":  "{8502C4BE-5FBB-11D2-AAC1-006008C78BC7}",
                           "IsAmended":  false,
                           "IsLocal":  true,
                           "PropagatesToInstance":  true,
                           "PropagatesToSubclass":  false,
                           "IsOverridable":  true
                       }
                   ],
    "Site":  null,
    "Container":  null,
    "PSComputerName":  "DAEDALUS",
    "Name":  "Win32_POTSModem",
    "__GENUS":  1,
    "__CLASS":  "Win32_POTSModem",
    "__SUPERCLASS":  "CIM_PotsModem",
    "__DYNASTY":  "CIM_ManagedSystemElement",
    "__RELPATH":  "Win32_POTSModem",
    "__PROPERTY_COUNT":  80,
    "__DERIVATION":  [
                         "CIM_PotsModem",
                         "CIM_LogicalDevice",
                         "CIM_LogicalElement",
                         "CIM_ManagedSystemElement"
                     ],
    "__SERVER":  "DAEDALUS",
    "__NAMESPACE":  "ROOT\\cimv2",
    "__PATH":  "\\\\DAEDALUS\\ROOT\\cimv2:Win32_POTSModem"
}
