{
    "Path":  {
                 "Path":  "\\\\DAEDALUS\\root\\cimv2:Win32_PerfRawData_Counters_TeredoClient",
                 "RelativePath":  "Win32_PerfRawData_Counters_TeredoClient",
                 "Server":  "DAEDALUS",
                 "NamespacePath":  "root\\cimv2",
                 "ClassName":  "Win32_PerfRawData_Counters_TeredoClient",
                 "IsClass":  true,
                 "IsInstance":  false,
                 "IsSingleton":  false
             },
    "Derivation":  [
                       "Win32_PerfRawData",
                       "Win32_Perf",
                       "CIM_StatisticalInformation"
                   ],
    "Methods":  [

                ],
    "Scope":  {
                  "IsConnected":  true,
                  "Options":  {
                                  "Locale":  "",
                                  "Username":  null,
                                  "Authority":  "",
                                  "Impersonation":  3,
                                  "Authentication":  6,
                                  "EnablePrivileges":  false,
                                  "Context":  "",
                                  "Timeout":  "10675199.02:48:05.4775807"
                              },
                  "Path":  {
                               "Path":  "\\\\localhost\\root\\cimv2",
                               "RelativePath":  "",
                               "Server":  "localhost",
                               "NamespacePath":  "root\\cimv2",
                               "ClassName":  "",
                               "IsClass":  false,
                               "IsInstance":  false,
                               "IsSingleton":  false
                           }
              },
    "Options":  {
                    "UseAmendedQualifiers":  false,
                    "Context":  [

                                ],
                    "Timeout":  {
                                    "Ticks":  9223372036854775807,
                                    "Days":  10675199,
                                    "Hours":  2,
                                    "Milliseconds":  477,
                                    "Minutes":  48,
                                    "Seconds":  5,
                                    "TotalDays":  10675199.116730064,
                                    "TotalHours":  256204778.80152154,
                                    "TotalMilliseconds":  922337203685477,
                                    "TotalMinutes":  15372286728.091293,
                                    "TotalSeconds":  922337203685.47754
                                }
                },
    "ClassPath":  {
                      "Path":  "\\\\DAEDALUS\\root\\cimv2:Win32_PerfRawData_Counters_TeredoClient",
                      "RelativePath":  "Win32_PerfRawData_Counters_TeredoClient",
                      "Server":  "DAEDALUS",
                      "NamespacePath":  "root\\cimv2",
                      "ClassName":  "Win32_PerfRawData_Counters_TeredoClient",
                      "IsClass":  true,
                      "IsInstance":  false,
                      "IsSingleton":  false
                  },
    "Properties":  [
                       {
                           "Name":  "Caption",
                           "Value":  null,
                           "Type":  8,
                           "IsLocal":  false,
                           "IsArray":  false,
                           "Origin":  "CIM_StatisticalInformation",
                           "Qualifiers":  "System.Management.QualifierData System.Management.QualifierData System.Management.QualifierData"
                       },
                       {
                           "Name":  "Description",
                           "Value":  null,
                           "Type":  8,
                           "IsLocal":  false,
                           "IsArray":  false,
                           "Origin":  "CIM_StatisticalInformation",
                           "Qualifiers":  "System.Management.QualifierData System.Management.QualifierData"
                       },
                       {
                           "Name":  "Frequency_Object",
                           "Value":  null,
                           "Type":  21,
                           "IsLocal":  false,
                           "IsArray":  false,
                           "Origin":  "Win32_Perf",
                           "Qualifiers":  "System.Management.QualifierData"
                       },
                       {
                           "Name":  "Frequency_PerfTime",
                           "Value":  null,
                           "Type":  21,
                           "IsLocal":  false,
                           "IsArray":  false,
                           "Origin":  "Win32_Perf",
                           "Qualifiers":  "System.Management.QualifierData"
                       },
                       {
                           "Name":  "Frequency_Sys100NS",
                           "Value":  null,
                           "Type":  21,
                           "IsLocal":  false,
                           "IsArray":  false,
                           "Origin":  "Win32_Perf",
                           "Qualifiers":  "System.Management.QualifierData"
                       },
                       {
                           "Name":  "InTeredoBubble",
                           "Value":  null,
                           "Type":  19,
                           "IsLocal":  true,
                           "IsArray":  false,
                           "Origin":  "Win32_PerfRawData_Counters_TeredoClient",
                           "Qualifiers":  "System.Management.QualifierData System.Management.QualifierData System.Management.QualifierData System.Management.QualifierData System.Management.QualifierData System.Management.QualifierData System.Management.QualifierData System.Management.QualifierData"
                       },
                       {
                           "Name":  "InTeredoData",
                           "Value":  null,
                           "Type":  21,
                           "IsLocal":  true,
                           "IsArray":  false,
                           "Origin":  "Win32_PerfRawData_Counters_TeredoClient",
                           "Qualifiers":  "System.Management.QualifierData System.Management.QualifierData System.Management.QualifierData System.Management.QualifierData System.Management.QualifierData System.Management.QualifierData System.Management.QualifierData System.Management.QualifierData"
                       },
                       {
                           "Name":  "InTeredoDataKernelMode",
                           "Value":  null,
                           "Type":  21,
                           "IsLocal":  true,
                           "IsArray":  false,
                           "Origin":  "Win32_PerfRawData_Counters_TeredoClient",
                           "Qualifiers":  "System.Management.QualifierData System.Management.QualifierData System.Management.QualifierData System.Management.QualifierData System.Management.QualifierData System.Management.QualifierData System.Management.QualifierData System.Management.QualifierData"
                       },
                       {
                           "Name":  "InTeredoDataUserMode",
                           "Value":  null,
                           "Type":  21,
                           "IsLocal":  true,
                           "IsArray":  false,
                           "Origin":  "Win32_PerfRawData_Counters_TeredoClient",
                           "Qualifiers":  "System.Management.QualifierData System.Management.QualifierData System.Management.QualifierData System.Management.QualifierData System.Management.QualifierData System.Management.QualifierData System.Management.QualifierData System.Management.QualifierData"
                       },
                       {
                           "Name":  "InTeredoInvalid",
                           "Value":  null,
                           "Type":  19,
                           "IsLocal":  true,
                           "IsArray":  false,
                           "Origin":  "Win32_PerfRawData_Counters_TeredoClient",
                           "Qualifiers":  "System.Management.QualifierData System.Management.QualifierData System.Management.QualifierData System.Management.QualifierData System.Management.QualifierData System.Management.QualifierData System.Management.QualifierData System.Management.QualifierData"
                       },
                       {
                           "Name":  "InTeredoRouterAdvertisement",
                           "Value":  null,
                           "Type":  19,
                           "IsLocal":  true,
                           "IsArray":  false,
                           "Origin":  "Win32_PerfRawData_Counters_TeredoClient",
                           "Qualifiers":  "System.Management.QualifierData System.Management.QualifierData System.Management.QualifierData System.Management.QualifierData System.Management.QualifierData System.Management.QualifierData System.Management.QualifierData System.Management.QualifierData System.Management.QualifierData"
                       },
                       {
                           "Name":  "Name",
                           "Value":  null,
                           "Type":  8,
                           "IsLocal":  false,
                           "IsArray":  false,
                           "Origin":  "CIM_StatisticalInformation",
                           "Qualifiers":  "System.Management.QualifierData System.Management.QualifierData System.Management.QualifierData System.Management.QualifierData"
                       },
                       {
                           "Name":  "OutTeredoBubble",
                           "Value":  null,
                           "Type":  19,
                           "IsLocal":  true,
                           "IsArray":  false,
                           "Origin":  "Win32_PerfRawData_Counters_TeredoClient",
                           "Qualifiers":  "System.Management.QualifierData System.Management.QualifierData System.Management.QualifierData System.Management.QualifierData System.Management.QualifierData System.Management.QualifierData System.Management.QualifierData System.Management.QualifierData"
                       },
                       {
                           "Name":  "OutTeredoData",
                           "Value":  null,
                           "Type":  21,
                           "IsLocal":  true,
                           "IsArray":  false,
                           "Origin":  "Win32_PerfRawData_Counters_TeredoClient",
                           "Qualifiers":  "System.Management.QualifierData System.Management.QualifierData System.Management.QualifierData System.Management.QualifierData System.Management.QualifierData System.Management.QualifierData System.Management.QualifierData System.Management.QualifierData"
                       },
                       {
                           "Name":  "OutTeredoDataKernelMode",
                           "Value":  null,
                           "Type":  21,
                           "IsLocal":  true,
                           "IsArray":  false,
                           "Origin":  "Win32_PerfRawData_Counters_TeredoClient",
                           "Qualifiers":  "System.Management.QualifierData System.Management.QualifierData System.Management.QualifierData System.Management.QualifierData System.Management.QualifierData System.Management.QualifierData System.Management.QualifierData System.Management.QualifierData"
                       },
                       {
                           "Name":  "OutTeredoDataUserMode",
                           "Value":  null,
                           "Type":  21,
                           "IsLocal":  true,
                           "IsArray":  false,
                           "Origin":  "Win32_PerfRawData_Counters_TeredoClient",
                           "Qualifiers":  "System.Management.QualifierData System.Management.QualifierData System.Management.QualifierData System.Management.QualifierData System.Management.QualifierData System.Management.QualifierData System.Management.QualifierData System.Management.QualifierData"
                       },
                       {
                           "Name":  "OutTeredoRouterSolicitation",
                           "Value":  null,
                           "Type":  19,
                           "IsLocal":  true,
                           "IsArray":  false,
                           "Origin":  "Win32_PerfRawData_Counters_TeredoClient",
                           "Qualifiers":  "System.Management.QualifierData System.Management.QualifierData System.Management.QualifierData System.Management.QualifierData System.Management.QualifierData System.Management.QualifierData System.Management.QualifierData System.Management.QualifierData"
                       },
                       {
                           "Name":  "Timestamp_Object",
                           "Value":  null,
                           "Type":  21,
                           "IsLocal":  false,
                           "IsArray":  false,
                           "Origin":  "Win32_Perf",
                           "Qualifiers":  "System.Management.QualifierData"
                       },
                       {
                           "Name":  "Timestamp_PerfTime",
                           "Value":  null,
                           "Type":  21,
                           "IsLocal":  false,
                           "IsArray":  false,
                           "Origin":  "Win32_Perf",
                           "Qualifiers":  "System.Management.QualifierData"
                       },
                       {
                           "Name":  "Timestamp_Sys100NS",
                           "Value":  null,
                           "Type":  21,
                           "IsLocal":  false,
                           "IsArray":  false,
                           "Origin":  "Win32_Perf",
                           "Qualifiers":  "System.Management.QualifierData"
                       }
                   ],
    "SystemProperties":  [
                             {
                                 "Name":  "__GENUS",
                                 "Value":  1,
                                 "Type":  3,
                                 "IsLocal":  true,
                                 "IsArray":  false,
                                 "Origin":  "___SYSTEM",
                                 "Qualifiers":  ""
                             },
                             {
                                 "Name":  "__CLASS",
                                 "Value":  "Win32_PerfRawData_Counters_TeredoClient",
                                 "Type":  8,
                                 "IsLocal":  true,
                                 "IsArray":  false,
                                 "Origin":  "___SYSTEM",
                                 "Qualifiers":  ""
                             },
                             {
                                 "Name":  "__SUPERCLASS",
                                 "Value":  "Win32_PerfRawData",
                                 "Type":  8,
                                 "IsLocal":  true,
                                 "IsArray":  false,
                                 "Origin":  "___SYSTEM",
                                 "Qualifiers":  ""
                             },
                             {
                                 "Name":  "__DYNASTY",
                                 "Value":  "CIM_StatisticalInformation",
                                 "Type":  8,
                                 "IsLocal":  true,
                                 "IsArray":  false,
                                 "Origin":  "___SYSTEM",
                                 "Qualifiers":  ""
                             },
                             {
                                 "Name":  "__RELPATH",
                                 "Value":  "Win32_PerfRawData_Counters_TeredoClient",
                                 "Type":  8,
                                 "IsLocal":  true,
                                 "IsArray":  false,
                                 "Origin":  "___SYSTEM",
                                 "Qualifiers":  ""
                             },
                             {
                                 "Name":  "__PROPERTY_COUNT",
                                 "Value":  20,
                                 "Type":  3,
                                 "IsLocal":  true,
                                 "IsArray":  false,
                                 "Origin":  "___SYSTEM",
                                 "Qualifiers":  ""
                             },
                             {
                                 "Name":  "__DERIVATION",
                                 "Value":  "Win32_PerfRawData Win32_Perf CIM_StatisticalInformation",
                                 "Type":  8,
                                 "IsLocal":  true,
                                 "IsArray":  true,
                                 "Origin":  "___SYSTEM",
                                 "Qualifiers":  ""
                             },
                             {
                                 "Name":  "__SERVER",
                                 "Value":  "DAEDALUS",
                                 "Type":  8,
                                 "IsLocal":  true,
                                 "IsArray":  false,
                                 "Origin":  "___SYSTEM",
                                 "Qualifiers":  ""
                             },
                             {
                                 "Name":  "__NAMESPACE",
                                 "Value":  "root\\cimv2",
                                 "Type":  8,
                                 "IsLocal":  true,
                                 "IsArray":  false,
                                 "Origin":  "___SYSTEM",
                                 "Qualifiers":  ""
                             },
                             {
                                 "Name":  "__PATH",
                                 "Value":  "\\\\DAEDALUS\\root\\cimv2:Win32_PerfRawData_Counters_TeredoClient",
                                 "Type":  8,
                                 "IsLocal":  true,
                                 "IsArray":  false,
                                 "Origin":  "___SYSTEM",
                                 "Qualifiers":  ""
                             }
                         ],
    "Qualifiers":  [
                       {
                           "Name":  "DetailLevel",
                           "Value":  100,
                           "IsAmended":  false,
                           "IsLocal":  true,
                           "PropagatesToInstance":  true,
                           "PropagatesToSubclass":  false,
                           "IsOverridable":  true
                       },
                       {
                           "Name":  "DisplayName",
                           "Value":  "Teredo Client",
                           "IsAmended":  false,
                           "IsLocal":  true,
                           "PropagatesToInstance":  true,
                           "PropagatesToSubclass":  false,
                           "IsOverridable":  true
                       },
                       {
                           "Name":  "DisplayName009",
                           "Value":  "Teredo Client",
                           "IsAmended":  false,
                           "IsLocal":  true,
                           "PropagatesToInstance":  true,
                           "PropagatesToSubclass":  false,
                           "IsOverridable":  true
                       },
                       {
                           "Name":  "dynamic",
                           "Value":  true,
                           "IsAmended":  false,
                           "IsLocal":  true,
                           "PropagatesToInstance":  true,
                           "PropagatesToSubclass":  false,
                           "IsOverridable":  true
                       },
                       {
                           "Name":  "GenericPerfCtr",
                           "Value":  true,
                           "IsAmended":  false,
                           "IsLocal":  true,
                           "PropagatesToInstance":  true,
                           "PropagatesToSubclass":  false,
                           "IsOverridable":  true
                       },
                       {
                           "Name":  "HelpIndex",
                           "Value":  0,
                           "IsAmended":  false,
                           "IsLocal":  true,
                           "PropagatesToInstance":  true,
                           "PropagatesToSubclass":  false,
                           "IsOverridable":  true
                       },
                       {
                           "Name":  "HiPerf",
                           "Value":  true,
                           "IsAmended":  false,
                           "IsLocal":  true,
                           "PropagatesToInstance":  true,
                           "PropagatesToSubclass":  false,
                           "IsOverridable":  true
                       },
                       {
                           "Name":  "Locale",
                           "Value":  1033,
                           "IsAmended":  false,
                           "IsLocal":  true,
                           "PropagatesToInstance":  true,
                           "PropagatesToSubclass":  false,
                           "IsOverridable":  true
                       },
                       {
                           "Name":  "PerfIndex",
                           "Value":  0,
                           "IsAmended":  false,
                           "IsLocal":  true,
                           "PropagatesToInstance":  true,
                           "PropagatesToSubclass":  false,
                           "IsOverridable":  true
                       },
                       {
                           "Name":  "provider",
                           "Value":  "WmiPerfInst",
                           "IsAmended":  false,
                           "IsLocal":  true,
                           "PropagatesToInstance":  false,
                           "PropagatesToSubclass":  false,
                           "IsOverridable":  true
                       },
                       {
                           "Name":  "RegistryKey",
                           "Value":  "{a3886623-dd46-48fc-a1f9-e3da35125995}",
                           "IsAmended":  false,
                           "IsLocal":  true,
                           "PropagatesToInstance":  true,
                           "PropagatesToSubclass":  false,
                           "IsOverridable":  true
                       }
                   ],
    "Site":  null,
    "Container":  null,
    "PSComputerName":  "DAEDALUS",
    "Name":  "Win32_PerfRawData_Counters_TeredoClient",
    "__GENUS":  1,
    "__CLASS":  "Win32_PerfRawData_Counters_TeredoClient",
    "__SUPERCLASS":  "Win32_PerfRawData",
    "__DYNASTY":  "CIM_StatisticalInformation",
    "__RELPATH":  "Win32_PerfRawData_Counters_TeredoClient",
    "__PROPERTY_COUNT":  20,
    "__DERIVATION":  [
                         "Win32_PerfRawData",
                         "Win32_Perf",
                         "CIM_StatisticalInformation"
                     ],
    "__SERVER":  "DAEDALUS",
    "__NAMESPACE":  "root\\cimv2",
    "__PATH":  "\\\\DAEDALUS\\root\\cimv2:Win32_PerfRawData_Counters_TeredoClient"
}
