{
    "Path":  {
                 "Path":  "\\\\DAEDALUS\\ROOT\\cimv2:Win32_TerminalService",
                 "RelativePath":  "Win32_TerminalService",
                 "Server":  "DAEDALUS",
                 "NamespacePath":  "ROOT\\cimv2",
                 "ClassName":  "Win32_TerminalService",
                 "IsClass":  true,
                 "IsInstance":  false,
                 "IsSingleton":  false
             },
    "Derivation":  [
                       "Win32_Service",
                       "Win32_BaseService",
                       "CIM_Service",
                       "CIM_LogicalElement",
                       "CIM_ManagedSystemElement"
                   ],
    "Methods":  [
                    {
                        "Name":  "StartService",
                        "InParameters":  null,
                        "OutParameters":  "System.Management.ManagementBaseObject",
                        "Origin":  "CIM_Service",
                        "Qualifiers":  "System.Management.QualifierData System.Management.QualifierData System.Management.QualifierData"
                    },
                    {
                        "Name":  "StopService",
                        "InParameters":  null,
                        "OutParameters":  "System.Management.ManagementBaseObject",
                        "Origin":  "CIM_Service",
                        "Qualifiers":  "System.Management.QualifierData System.Management.QualifierData System.Management.QualifierData"
                    },
                    {
                        "Name":  "PauseService",
                        "InParameters":  null,
                        "OutParameters":  "System.Management.ManagementBaseObject",
                        "Origin":  "Win32_BaseService",
                        "Qualifiers":  "System.Management.QualifierData System.Management.QualifierData"
                    },
                    {
                        "Name":  "ResumeService",
                        "InParameters":  null,
                        "OutParameters":  "System.Management.ManagementBaseObject",
                        "Origin":  "Win32_BaseService",
                        "Qualifiers":  "System.Management.QualifierData System.Management.QualifierData"
                    },
                    {
                        "Name":  "InterrogateService",
                        "InParameters":  null,
                        "OutParameters":  "System.Management.ManagementBaseObject",
                        "Origin":  "Win32_BaseService",
                        "Qualifiers":  "System.Management.QualifierData System.Management.QualifierData"
                    },
                    {
                        "Name":  "UserControlService",
                        "InParameters":  "System.Management.ManagementBaseObject",
                        "OutParameters":  "System.Management.ManagementBaseObject",
                        "Origin":  "Win32_BaseService",
                        "Qualifiers":  "System.Management.QualifierData System.Management.QualifierData"
                    },
                    {
                        "Name":  "Create",
                        "InParameters":  "System.Management.ManagementBaseObject",
                        "OutParameters":  "System.Management.ManagementBaseObject",
                        "Origin":  "Win32_BaseService",
                        "Qualifiers":  "System.Management.QualifierData System.Management.QualifierData System.Management.QualifierData"
                    },
                    {
                        "Name":  "Change",
                        "InParameters":  "System.Management.ManagementBaseObject",
                        "OutParameters":  "System.Management.ManagementBaseObject",
                        "Origin":  "Win32_BaseService",
                        "Qualifiers":  "System.Management.QualifierData System.Management.QualifierData"
                    },
                    {
                        "Name":  "ChangeStartMode",
                        "InParameters":  "System.Management.ManagementBaseObject",
                        "OutParameters":  "System.Management.ManagementBaseObject",
                        "Origin":  "Win32_BaseService",
                        "Qualifiers":  "System.Management.QualifierData System.Management.QualifierData"
                    },
                    {
                        "Name":  "Delete",
                        "InParameters":  null,
                        "OutParameters":  "System.Management.ManagementBaseObject",
                        "Origin":  "Win32_BaseService",
                        "Qualifiers":  "System.Management.QualifierData System.Management.QualifierData"
                    },
                    {
                        "Name":  "GetSecurityDescriptor",
                        "InParameters":  null,
                        "OutParameters":  "System.Management.ManagementBaseObject",
                        "Origin":  "Win32_Service",
                        "Qualifiers":  "System.Management.QualifierData System.Management.QualifierData"
                    },
                    {
                        "Name":  "SetSecurityDescriptor",
                        "InParameters":  "System.Management.ManagementBaseObject",
                        "OutParameters":  "System.Management.ManagementBaseObject",
                        "Origin":  "Win32_Service",
                        "Qualifiers":  "System.Management.QualifierData System.Management.QualifierData"
                    }
                ],
    "Scope":  {
                  "IsConnected":  true,
                  "Options":  {
                                  "Locale":  "",
                                  "Username":  null,
                                  "Authority":  "",
                                  "Impersonation":  3,
                                  "Authentication":  6,
                                  "EnablePrivileges":  false,
                                  "Context":  "",
                                  "Timeout":  "10675199.02:48:05.4775807"
                              },
                  "Path":  {
                               "Path":  "\\\\localhost\\root\\cimv2",
                               "RelativePath":  "",
                               "Server":  "localhost",
                               "NamespacePath":  "root\\cimv2",
                               "ClassName":  "",
                               "IsClass":  false,
                               "IsInstance":  false,
                               "IsSingleton":  false
                           }
              },
    "Options":  {
                    "UseAmendedQualifiers":  false,
                    "Context":  [

                                ],
                    "Timeout":  {
                                    "Ticks":  9223372036854775807,
                                    "Days":  10675199,
                                    "Hours":  2,
                                    "Milliseconds":  477,
                                    "Minutes":  48,
                                    "Seconds":  5,
                                    "TotalDays":  10675199.116730064,
                                    "TotalHours":  256204778.80152154,
                                    "TotalMilliseconds":  922337203685477,
                                    "TotalMinutes":  15372286728.091293,
                                    "TotalSeconds":  922337203685.47754
                                }
                },
    "ClassPath":  {
                      "Path":  "\\\\DAEDALUS\\ROOT\\cimv2:Win32_TerminalService",
                      "RelativePath":  "Win32_TerminalService",
                      "Server":  "DAEDALUS",
                      "NamespacePath":  "ROOT\\cimv2",
                      "ClassName":  "Win32_TerminalService",
                      "IsClass":  true,
                      "IsInstance":  false,
                      "IsSingleton":  false
                  },
    "Properties":  [
                       {
                           "Name":  "AcceptPause",
                           "Value":  null,
                           "Type":  11,
                           "IsLocal":  false,
                           "IsArray":  false,
                           "Origin":  "Win32_BaseService",
                           "Qualifiers":  "System.Management.QualifierData System.Management.QualifierData System.Management.QualifierData"
                       },
                       {
                           "Name":  "AcceptStop",
                           "Value":  null,
                           "Type":  11,
                           "IsLocal":  false,
                           "IsArray":  false,
                           "Origin":  "Win32_BaseService",
                           "Qualifiers":  "System.Management.QualifierData System.Management.QualifierData System.Management.QualifierData"
                       },
                       {
                           "Name":  "Caption",
                           "Value":  null,
                           "Type":  8,
                           "IsLocal":  false,
                           "IsArray":  false,
                           "Origin":  "CIM_ManagedSystemElement",
                           "Qualifiers":  "System.Management.QualifierData System.Management.QualifierData System.Management.QualifierData"
                       },
                       {
                           "Name":  "CheckPoint",
                           "Value":  null,
                           "Type":  19,
                           "IsLocal":  false,
                           "IsArray":  false,
                           "Origin":  "Win32_Service",
                           "Qualifiers":  "System.Management.QualifierData System.Management.QualifierData System.Management.QualifierData"
                       },
                       {
                           "Name":  "CreationClassName",
                           "Value":  null,
                           "Type":  8,
                           "IsLocal":  false,
                           "IsArray":  false,
                           "Origin":  "CIM_Service",
                           "Qualifiers":  "System.Management.QualifierData System.Management.QualifierData System.Management.QualifierData"
                       },
                       {
                           "Name":  "DelayedAutoStart",
                           "Value":  null,
                           "Type":  11,
                           "IsLocal":  false,
                           "IsArray":  false,
                           "Origin":  "Win32_Service",
                           "Qualifiers":  "System.Management.QualifierData System.Management.QualifierData System.Management.QualifierData"
                       },
                       {
                           "Name":  "Description",
                           "Value":  null,
                           "Type":  8,
                           "IsLocal":  false,
                           "IsArray":  false,
                           "Origin":  "CIM_ManagedSystemElement",
                           "Qualifiers":  "System.Management.QualifierData System.Management.QualifierData"
                       },
                       {
                           "Name":  "DesktopInteract",
                           "Value":  null,
                           "Type":  11,
                           "IsLocal":  false,
                           "IsArray":  false,
                           "Origin":  "Win32_BaseService",
                           "Qualifiers":  "System.Management.QualifierData System.Management.QualifierData System.Management.QualifierData"
                       },
                       {
                           "Name":  "DisconnectedSessions",
                           "Value":  null,
                           "Type":  19,
                           "IsLocal":  true,
                           "IsArray":  false,
                           "Origin":  "Win32_TerminalService",
                           "Qualifiers":  "System.Management.QualifierData System.Management.QualifierData"
                       },
                       {
                           "Name":  "DisplayName",
                           "Value":  null,
                           "Type":  8,
                           "IsLocal":  false,
                           "IsArray":  false,
                           "Origin":  "Win32_BaseService",
                           "Qualifiers":  "System.Management.QualifierData System.Management.QualifierData System.Management.QualifierData"
                       },
                       {
                           "Name":  "ErrorControl",
                           "Value":  null,
                           "Type":  8,
                           "IsLocal":  false,
                           "IsArray":  false,
                           "Origin":  "Win32_BaseService",
                           "Qualifiers":  "System.Management.QualifierData System.Management.QualifierData System.Management.QualifierData System.Management.QualifierData"
                       },
                       {
                           "Name":  "ExitCode",
                           "Value":  null,
                           "Type":  19,
                           "IsLocal":  false,
                           "IsArray":  false,
                           "Origin":  "Win32_BaseService",
                           "Qualifiers":  "System.Management.QualifierData System.Management.QualifierData System.Management.QualifierData"
                       },
                       {
                           "Name":  "InstallDate",
                           "Value":  null,
                           "Type":  101,
                           "IsLocal":  false,
                           "IsArray":  false,
                           "Origin":  "CIM_ManagedSystemElement",
                           "Qualifiers":  "System.Management.QualifierData System.Management.QualifierData System.Management.QualifierData"
                       },
                       {
                           "Name":  "Name",
                           "Value":  null,
                           "Type":  8,
                           "IsLocal":  false,
                           "IsArray":  false,
                           "Origin":  "CIM_ManagedSystemElement",
                           "Qualifiers":  "System.Management.QualifierData System.Management.QualifierData System.Management.QualifierData"
                       },
                       {
                           "Name":  "PathName",
                           "Value":  null,
                           "Type":  8,
                           "IsLocal":  false,
                           "IsArray":  false,
                           "Origin":  "Win32_BaseService",
                           "Qualifiers":  "System.Management.QualifierData System.Management.QualifierData System.Management.QualifierData"
                       },
                       {
                           "Name":  "ProcessId",
                           "Value":  null,
                           "Type":  19,
                           "IsLocal":  false,
                           "IsArray":  false,
                           "Origin":  "Win32_Service",
                           "Qualifiers":  "System.Management.QualifierData System.Management.QualifierData System.Management.QualifierData"
                       },
                       {
                           "Name":  "ServiceSpecificExitCode",
                           "Value":  null,
                           "Type":  19,
                           "IsLocal":  false,
                           "IsArray":  false,
                           "Origin":  "Win32_BaseService",
                           "Qualifiers":  "System.Management.QualifierData System.Management.QualifierData System.Management.QualifierData"
                       },
                       {
                           "Name":  "ServiceType",
                           "Value":  null,
                           "Type":  8,
                           "IsLocal":  false,
                           "IsArray":  false,
                           "Origin":  "Win32_BaseService",
                           "Qualifiers":  "System.Management.QualifierData System.Management.QualifierData System.Management.QualifierData System.Management.QualifierData"
                       },
                       {
                           "Name":  "Started",
                           "Value":  null,
                           "Type":  11,
                           "IsLocal":  false,
                           "IsArray":  false,
                           "Origin":  "CIM_Service",
                           "Qualifiers":  "System.Management.QualifierData System.Management.QualifierData"
                       },
                       {
                           "Name":  "StartMode",
                           "Value":  null,
                           "Type":  8,
                           "IsLocal":  false,
                           "IsArray":  false,
                           "Origin":  "CIM_Service",
                           "Qualifiers":  "System.Management.QualifierData System.Management.QualifierData System.Management.QualifierData System.Management.QualifierData"
                       },
                       {
                           "Name":  "StartName",
                           "Value":  null,
                           "Type":  8,
                           "IsLocal":  false,
                           "IsArray":  false,
                           "Origin":  "Win32_BaseService",
                           "Qualifiers":  "System.Management.QualifierData System.Management.QualifierData System.Management.QualifierData"
                       },
                       {
                           "Name":  "State",
                           "Value":  null,
                           "Type":  8,
                           "IsLocal":  false,
                           "IsArray":  false,
                           "Origin":  "Win32_BaseService",
                           "Qualifiers":  "System.Management.QualifierData System.Management.QualifierData System.Management.QualifierData System.Management.QualifierData System.Management.QualifierData"
                       },
                       {
                           "Name":  "Status",
                           "Value":  null,
                           "Type":  8,
                           "IsLocal":  false,
                           "IsArray":  false,
                           "Origin":  "CIM_ManagedSystemElement",
                           "Qualifiers":  "System.Management.QualifierData System.Management.QualifierData System.Management.QualifierData System.Management.QualifierData"
                       },
                       {
                           "Name":  "SystemCreationClassName",
                           "Value":  null,
                           "Type":  8,
                           "IsLocal":  false,
                           "IsArray":  false,
                           "Origin":  "CIM_Service",
                           "Qualifiers":  "System.Management.QualifierData System.Management.QualifierData System.Management.QualifierData System.Management.QualifierData"
                       },
                       {
                           "Name":  "SystemName",
                           "Value":  null,
                           "Type":  8,
                           "IsLocal":  false,
                           "IsArray":  false,
                           "Origin":  "CIM_Service",
                           "Qualifiers":  "System.Management.QualifierData System.Management.QualifierData System.Management.QualifierData System.Management.QualifierData"
                       },
                       {
                           "Name":  "TagId",
                           "Value":  null,
                           "Type":  19,
                           "IsLocal":  false,
                           "IsArray":  false,
                           "Origin":  "Win32_BaseService",
                           "Qualifiers":  "System.Management.QualifierData System.Management.QualifierData System.Management.QualifierData"
                       },
                       {
                           "Name":  "TotalSessions",
                           "Value":  null,
                           "Type":  19,
                           "IsLocal":  true,
                           "IsArray":  false,
                           "Origin":  "Win32_TerminalService",
                           "Qualifiers":  "System.Management.QualifierData System.Management.QualifierData"
                       },
                       {
                           "Name":  "WaitHint",
                           "Value":  null,
                           "Type":  19,
                           "IsLocal":  false,
                           "IsArray":  false,
                           "Origin":  "Win32_Service",
                           "Qualifiers":  "System.Management.QualifierData System.Management.QualifierData System.Management.QualifierData"
                       }
                   ],
    "SystemProperties":  [
                             {
                                 "Name":  "__GENUS",
                                 "Value":  1,
                                 "Type":  3,
                                 "IsLocal":  true,
                                 "IsArray":  false,
                                 "Origin":  "___SYSTEM",
                                 "Qualifiers":  ""
                             },
                             {
                                 "Name":  "__CLASS",
                                 "Value":  "Win32_TerminalService",
                                 "Type":  8,
                                 "IsLocal":  true,
                                 "IsArray":  false,
                                 "Origin":  "___SYSTEM",
                                 "Qualifiers":  ""
                             },
                             {
                                 "Name":  "__SUPERCLASS",
                                 "Value":  "Win32_Service",
                                 "Type":  8,
                                 "IsLocal":  true,
                                 "IsArray":  false,
                                 "Origin":  "___SYSTEM",
                                 "Qualifiers":  ""
                             },
                             {
                                 "Name":  "__DYNASTY",
                                 "Value":  "CIM_ManagedSystemElement",
                                 "Type":  8,
                                 "IsLocal":  true,
                                 "IsArray":  false,
                                 "Origin":  "___SYSTEM",
                                 "Qualifiers":  ""
                             },
                             {
                                 "Name":  "__RELPATH",
                                 "Value":  "Win32_TerminalService",
                                 "Type":  8,
                                 "IsLocal":  true,
                                 "IsArray":  false,
                                 "Origin":  "___SYSTEM",
                                 "Qualifiers":  ""
                             },
                             {
                                 "Name":  "__PROPERTY_COUNT",
                                 "Value":  28,
                                 "Type":  3,
                                 "IsLocal":  true,
                                 "IsArray":  false,
                                 "Origin":  "___SYSTEM",
                                 "Qualifiers":  ""
                             },
                             {
                                 "Name":  "__DERIVATION",
                                 "Value":  "Win32_Service Win32_BaseService CIM_Service CIM_LogicalElement CIM_ManagedSystemElement",
                                 "Type":  8,
                                 "IsLocal":  true,
                                 "IsArray":  true,
                                 "Origin":  "___SYSTEM",
                                 "Qualifiers":  ""
                             },
                             {
                                 "Name":  "__SERVER",
                                 "Value":  "DAEDALUS",
                                 "Type":  8,
                                 "IsLocal":  true,
                                 "IsArray":  false,
                                 "Origin":  "___SYSTEM",
                                 "Qualifiers":  ""
                             },
                             {
                                 "Name":  "__NAMESPACE",
                                 "Value":  "ROOT\\cimv2",
                                 "Type":  8,
                                 "IsLocal":  true,
                                 "IsArray":  false,
                                 "Origin":  "___SYSTEM",
                                 "Qualifiers":  ""
                             },
                             {
                                 "Name":  "__PATH",
                                 "Value":  "\\\\DAEDALUS\\ROOT\\cimv2:Win32_TerminalService",
                                 "Type":  8,
                                 "IsLocal":  true,
                                 "IsArray":  false,
                                 "Origin":  "___SYSTEM",
                                 "Qualifiers":  ""
                             }
                         ],
    "Qualifiers":  [
                       {
                           "Name":  "ClassContext",
                           "Value":  "local|hkey_local_machine\\SYSTEM\\CurrentControlSet\\Control\\TerminalServer",
                           "IsAmended":  false,
                           "IsLocal":  true,
                           "PropagatesToInstance":  false,
                           "PropagatesToSubclass":  false,
                           "IsOverridable":  true
                       },
                       {
                           "Name":  "dynamic",
                           "Value":  true,
                           "IsAmended":  false,
                           "IsLocal":  true,
                           "PropagatesToInstance":  true,
                           "PropagatesToSubclass":  false,
                           "IsOverridable":  true
                       },
                       {
                           "Name":  "provider",
                           "Value":  "Win32_WIN32_TERMINALSERVICE_Prov",
                           "IsAmended":  false,
                           "IsLocal":  true,
                           "PropagatesToInstance":  false,
                           "PropagatesToSubclass":  false,
                           "IsOverridable":  true
                       }
                   ],
    "Site":  null,
    "Container":  null,
    "PSComputerName":  "DAEDALUS",
    "Name":  "Win32_TerminalService",
    "__GENUS":  1,
    "__CLASS":  "Win32_TerminalService",
    "__SUPERCLASS":  "Win32_Service",
    "__DYNASTY":  "CIM_ManagedSystemElement",
    "__RELPATH":  "Win32_TerminalService",
    "__PROPERTY_COUNT":  28,
    "__DERIVATION":  [
                         "Win32_Service",
                         "Win32_BaseService",
                         "CIM_Service",
                         "CIM_LogicalElement",
                         "CIM_ManagedSystemElement"
                     ],
    "__SERVER":  "DAEDALUS",
    "__NAMESPACE":  "ROOT\\cimv2",
    "__PATH":  "\\\\DAEDALUS\\ROOT\\cimv2:Win32_TerminalService"
}
