{
    "Path":  {
                 "Path":  "\\\\DAEDALUS\\ROOT\\cimv2:Win32_SystemSlot",
                 "RelativePath":  "Win32_SystemSlot",
                 "Server":  "DAEDALUS",
                 "NamespacePath":  "ROOT\\cimv2",
                 "ClassName":  "Win32_SystemSlot",
                 "IsClass":  true,
                 "IsInstance":  false,
                 "IsSingleton":  false
             },
    "Derivation":  [
                       "CIM_Slot",
                       "CIM_PhysicalConnector",
                       "CIM_PhysicalElement",
                       "CIM_ManagedSystemElement"
                   ],
    "Methods":  [

                ],
    "Scope":  {
                  "IsConnected":  true,
                  "Options":  {
                                  "Locale":  "",
                                  "Username":  null,
                                  "Authority":  "",
                                  "Impersonation":  3,
                                  "Authentication":  6,
                                  "EnablePrivileges":  false,
                                  "Context":  "",
                                  "Timeout":  "10675199.02:48:05.4775807"
                              },
                  "Path":  {
                               "Path":  "\\\\localhost\\root\\cimv2",
                               "RelativePath":  "",
                               "Server":  "localhost",
                               "NamespacePath":  "root\\cimv2",
                               "ClassName":  "",
                               "IsClass":  false,
                               "IsInstance":  false,
                               "IsSingleton":  false
                           }
              },
    "Options":  {
                    "UseAmendedQualifiers":  false,
                    "Context":  [

                                ],
                    "Timeout":  {
                                    "Ticks":  9223372036854775807,
                                    "Days":  10675199,
                                    "Hours":  2,
                                    "Milliseconds":  477,
                                    "Minutes":  48,
                                    "Seconds":  5,
                                    "TotalDays":  10675199.116730064,
                                    "TotalHours":  256204778.80152154,
                                    "TotalMilliseconds":  922337203685477,
                                    "TotalMinutes":  15372286728.091293,
                                    "TotalSeconds":  922337203685.47754
                                }
                },
    "ClassPath":  {
                      "Path":  "\\\\DAEDALUS\\ROOT\\cimv2:Win32_SystemSlot",
                      "RelativePath":  "Win32_SystemSlot",
                      "Server":  "DAEDALUS",
                      "NamespacePath":  "ROOT\\cimv2",
                      "ClassName":  "Win32_SystemSlot",
                      "IsClass":  true,
                      "IsInstance":  false,
                      "IsSingleton":  false
                  },
    "Properties":  [
                       {
                           "Name":  "BusNumber",
                           "Value":  null,
                           "Type":  19,
                           "IsLocal":  true,
                           "IsArray":  false,
                           "Origin":  "Win32_SystemSlot",
                           "Qualifiers":  "System.Management.QualifierData System.Management.QualifierData System.Management.QualifierData"
                       },
                       {
                           "Name":  "Caption",
                           "Value":  null,
                           "Type":  8,
                           "IsLocal":  false,
                           "IsArray":  false,
                           "Origin":  "CIM_ManagedSystemElement",
                           "Qualifiers":  "System.Management.QualifierData System.Management.QualifierData System.Management.QualifierData"
                       },
                       {
                           "Name":  "ConnectorPinout",
                           "Value":  null,
                           "Type":  8,
                           "IsLocal":  false,
                           "IsArray":  false,
                           "Origin":  "CIM_PhysicalConnector",
                           "Qualifiers":  "System.Management.QualifierData System.Management.QualifierData"
                       },
                       {
                           "Name":  "ConnectorType",
                           "Value":  null,
                           "Type":  18,
                           "IsLocal":  false,
                           "IsArray":  true,
                           "Origin":  "CIM_PhysicalConnector",
                           "Qualifiers":  "System.Management.QualifierData System.Management.QualifierData System.Management.QualifierData System.Management.QualifierData"
                       },
                       {
                           "Name":  "CreationClassName",
                           "Value":  null,
                           "Type":  8,
                           "IsLocal":  false,
                           "IsArray":  false,
                           "Origin":  "CIM_PhysicalElement",
                           "Qualifiers":  "System.Management.QualifierData System.Management.QualifierData System.Management.QualifierData System.Management.QualifierData"
                       },
                       {
                           "Name":  "CurrentUsage",
                           "Value":  null,
                           "Type":  18,
                           "IsLocal":  true,
                           "IsArray":  false,
                           "Origin":  "Win32_SystemSlot",
                           "Qualifiers":  "System.Management.QualifierData System.Management.QualifierData System.Management.QualifierData"
                       },
                       {
                           "Name":  "Description",
                           "Value":  null,
                           "Type":  8,
                           "IsLocal":  false,
                           "IsArray":  false,
                           "Origin":  "CIM_ManagedSystemElement",
                           "Qualifiers":  "System.Management.QualifierData System.Management.QualifierData"
                       },
                       {
                           "Name":  "DeviceNumber",
                           "Value":  null,
                           "Type":  19,
                           "IsLocal":  true,
                           "IsArray":  false,
                           "Origin":  "Win32_SystemSlot",
                           "Qualifiers":  "System.Management.QualifierData System.Management.QualifierData System.Management.QualifierData"
                       },
                       {
                           "Name":  "FunctionNumber",
                           "Value":  null,
                           "Type":  19,
                           "IsLocal":  true,
                           "IsArray":  false,
                           "Origin":  "Win32_SystemSlot",
                           "Qualifiers":  "System.Management.QualifierData System.Management.QualifierData System.Management.QualifierData"
                       },
                       {
                           "Name":  "HeightAllowed",
                           "Value":  null,
                           "Type":  4,
                           "IsLocal":  false,
                           "IsArray":  false,
                           "Origin":  "CIM_Slot",
                           "Qualifiers":  "System.Management.QualifierData System.Management.QualifierData"
                       },
                       {
                           "Name":  "InstallDate",
                           "Value":  null,
                           "Type":  101,
                           "IsLocal":  false,
                           "IsArray":  false,
                           "Origin":  "CIM_ManagedSystemElement",
                           "Qualifiers":  "System.Management.QualifierData System.Management.QualifierData System.Management.QualifierData"
                       },
                       {
                           "Name":  "LengthAllowed",
                           "Value":  null,
                           "Type":  4,
                           "IsLocal":  false,
                           "IsArray":  false,
                           "Origin":  "CIM_Slot",
                           "Qualifiers":  "System.Management.QualifierData System.Management.QualifierData"
                       },
                       {
                           "Name":  "Manufacturer",
                           "Value":  null,
                           "Type":  8,
                           "IsLocal":  false,
                           "IsArray":  false,
                           "Origin":  "CIM_PhysicalElement",
                           "Qualifiers":  "System.Management.QualifierData System.Management.QualifierData System.Management.QualifierData"
                       },
                       {
                           "Name":  "MaxDataWidth",
                           "Value":  null,
                           "Type":  18,
                           "IsLocal":  false,
                           "IsArray":  false,
                           "Origin":  "CIM_Slot",
                           "Qualifiers":  "System.Management.QualifierData System.Management.QualifierData System.Management.QualifierData System.Management.QualifierData System.Management.QualifierData"
                       },
                       {
                           "Name":  "Model",
                           "Value":  null,
                           "Type":  8,
                           "IsLocal":  false,
                           "IsArray":  false,
                           "Origin":  "CIM_PhysicalElement",
                           "Qualifiers":  "System.Management.QualifierData System.Management.QualifierData System.Management.QualifierData"
                       },
                       {
                           "Name":  "Name",
                           "Value":  null,
                           "Type":  8,
                           "IsLocal":  false,
                           "IsArray":  false,
                           "Origin":  "CIM_ManagedSystemElement",
                           "Qualifiers":  "System.Management.QualifierData System.Management.QualifierData"
                       },
                       {
                           "Name":  "Number",
                           "Value":  null,
                           "Type":  18,
                           "IsLocal":  false,
                           "IsArray":  false,
                           "Origin":  "CIM_Slot",
                           "Qualifiers":  "System.Management.QualifierData System.Management.QualifierData"
                       },
                       {
                           "Name":  "OtherIdentifyingInfo",
                           "Value":  null,
                           "Type":  8,
                           "IsLocal":  false,
                           "IsArray":  false,
                           "Origin":  "CIM_PhysicalElement",
                           "Qualifiers":  "System.Management.QualifierData System.Management.QualifierData"
                       },
                       {
                           "Name":  "PartNumber",
                           "Value":  null,
                           "Type":  8,
                           "IsLocal":  false,
                           "IsArray":  false,
                           "Origin":  "CIM_PhysicalElement",
                           "Qualifiers":  "System.Management.QualifierData System.Management.QualifierData System.Management.QualifierData"
                       },
                       {
                           "Name":  "PMESignal",
                           "Value":  null,
                           "Type":  11,
                           "IsLocal":  true,
                           "IsArray":  false,
                           "Origin":  "Win32_SystemSlot",
                           "Qualifiers":  "System.Management.QualifierData System.Management.QualifierData System.Management.QualifierData"
                       },
                       {
                           "Name":  "PoweredOn",
                           "Value":  null,
                           "Type":  11,
                           "IsLocal":  false,
                           "IsArray":  false,
                           "Origin":  "CIM_PhysicalElement",
                           "Qualifiers":  "System.Management.QualifierData System.Management.QualifierData"
                       },
                       {
                           "Name":  "PurposeDescription",
                           "Value":  null,
                           "Type":  8,
                           "IsLocal":  false,
                           "IsArray":  false,
                           "Origin":  "CIM_Slot",
                           "Qualifiers":  "System.Management.QualifierData System.Management.QualifierData System.Management.QualifierData"
                       },
                       {
                           "Name":  "SegmentGroupNumber",
                           "Value":  null,
                           "Type":  19,
                           "IsLocal":  true,
                           "IsArray":  false,
                           "Origin":  "Win32_SystemSlot",
                           "Qualifiers":  "System.Management.QualifierData System.Management.QualifierData System.Management.QualifierData"
                       },
                       {
                           "Name":  "SerialNumber",
                           "Value":  null,
                           "Type":  8,
                           "IsLocal":  false,
                           "IsArray":  false,
                           "Origin":  "CIM_PhysicalElement",
                           "Qualifiers":  "System.Management.QualifierData System.Management.QualifierData System.Management.QualifierData"
                       },
                       {
                           "Name":  "Shared",
                           "Value":  null,
                           "Type":  11,
                           "IsLocal":  true,
                           "IsArray":  false,
                           "Origin":  "Win32_SystemSlot",
                           "Qualifiers":  "System.Management.QualifierData System.Management.QualifierData System.Management.QualifierData"
                       },
                       {
                           "Name":  "SKU",
                           "Value":  null,
                           "Type":  8,
                           "IsLocal":  false,
                           "IsArray":  false,
                           "Origin":  "CIM_PhysicalElement",
                           "Qualifiers":  "System.Management.QualifierData System.Management.QualifierData System.Management.QualifierData"
                       },
                       {
                           "Name":  "SlotDesignation",
                           "Value":  null,
                           "Type":  8,
                           "IsLocal":  true,
                           "IsArray":  false,
                           "Origin":  "Win32_SystemSlot",
                           "Qualifiers":  "System.Management.QualifierData System.Management.QualifierData System.Management.QualifierData"
                       },
                       {
                           "Name":  "SpecialPurpose",
                           "Value":  null,
                           "Type":  11,
                           "IsLocal":  false,
                           "IsArray":  false,
                           "Origin":  "CIM_Slot",
                           "Qualifiers":  "System.Management.QualifierData System.Management.QualifierData System.Management.QualifierData"
                       },
                       {
                           "Name":  "Status",
                           "Value":  null,
                           "Type":  8,
                           "IsLocal":  false,
                           "IsArray":  false,
                           "Origin":  "CIM_ManagedSystemElement",
                           "Qualifiers":  "System.Management.QualifierData System.Management.QualifierData System.Management.QualifierData System.Management.QualifierData"
                       },
                       {
                           "Name":  "SupportsHotPlug",
                           "Value":  null,
                           "Type":  11,
                           "IsLocal":  false,
                           "IsArray":  false,
                           "Origin":  "CIM_Slot",
                           "Qualifiers":  "System.Management.QualifierData System.Management.QualifierData"
                       },
                       {
                           "Name":  "Tag",
                           "Value":  null,
                           "Type":  8,
                           "IsLocal":  false,
                           "IsArray":  false,
                           "Origin":  "CIM_PhysicalElement",
                           "Qualifiers":  "System.Management.QualifierData System.Management.QualifierData System.Management.QualifierData System.Management.QualifierData System.Management.QualifierData System.Management.QualifierData System.Management.QualifierData"
                       },
                       {
                           "Name":  "ThermalRating",
                           "Value":  null,
                           "Type":  19,
                           "IsLocal":  false,
                           "IsArray":  false,
                           "Origin":  "CIM_Slot",
                           "Qualifiers":  "System.Management.QualifierData System.Management.QualifierData System.Management.QualifierData"
                       },
                       {
                           "Name":  "VccMixedVoltageSupport",
                           "Value":  null,
                           "Type":  18,
                           "IsLocal":  false,
                           "IsArray":  true,
                           "Origin":  "CIM_Slot",
                           "Qualifiers":  "System.Management.QualifierData System.Management.QualifierData System.Management.QualifierData"
                       },
                       {
                           "Name":  "Version",
                           "Value":  null,
                           "Type":  8,
                           "IsLocal":  false,
                           "IsArray":  false,
                           "Origin":  "CIM_PhysicalElement",
                           "Qualifiers":  "System.Management.QualifierData System.Management.QualifierData System.Management.QualifierData"
                       },
                       {
                           "Name":  "VppMixedVoltageSupport",
                           "Value":  null,
                           "Type":  18,
                           "IsLocal":  false,
                           "IsArray":  true,
                           "Origin":  "CIM_Slot",
                           "Qualifiers":  "System.Management.QualifierData System.Management.QualifierData System.Management.QualifierData"
                       }
                   ],
    "SystemProperties":  [
                             {
                                 "Name":  "__GENUS",
                                 "Value":  1,
                                 "Type":  3,
                                 "IsLocal":  true,
                                 "IsArray":  false,
                                 "Origin":  "___SYSTEM",
                                 "Qualifiers":  ""
                             },
                             {
                                 "Name":  "__CLASS",
                                 "Value":  "Win32_SystemSlot",
                                 "Type":  8,
                                 "IsLocal":  true,
                                 "IsArray":  false,
                                 "Origin":  "___SYSTEM",
                                 "Qualifiers":  ""
                             },
                             {
                                 "Name":  "__SUPERCLASS",
                                 "Value":  "CIM_Slot",
                                 "Type":  8,
                                 "IsLocal":  true,
                                 "IsArray":  false,
                                 "Origin":  "___SYSTEM",
                                 "Qualifiers":  ""
                             },
                             {
                                 "Name":  "__DYNASTY",
                                 "Value":  "CIM_ManagedSystemElement",
                                 "Type":  8,
                                 "IsLocal":  true,
                                 "IsArray":  false,
                                 "Origin":  "___SYSTEM",
                                 "Qualifiers":  ""
                             },
                             {
                                 "Name":  "__RELPATH",
                                 "Value":  "Win32_SystemSlot",
                                 "Type":  8,
                                 "IsLocal":  true,
                                 "IsArray":  false,
                                 "Origin":  "___SYSTEM",
                                 "Qualifiers":  ""
                             },
                             {
                                 "Name":  "__PROPERTY_COUNT",
                                 "Value":  35,
                                 "Type":  3,
                                 "IsLocal":  true,
                                 "IsArray":  false,
                                 "Origin":  "___SYSTEM",
                                 "Qualifiers":  ""
                             },
                             {
                                 "Name":  "__DERIVATION",
                                 "Value":  "CIM_Slot CIM_PhysicalConnector CIM_PhysicalElement CIM_ManagedSystemElement",
                                 "Type":  8,
                                 "IsLocal":  true,
                                 "IsArray":  true,
                                 "Origin":  "___SYSTEM",
                                 "Qualifiers":  ""
                             },
                             {
                                 "Name":  "__SERVER",
                                 "Value":  "DAEDALUS",
                                 "Type":  8,
                                 "IsLocal":  true,
                                 "IsArray":  false,
                                 "Origin":  "___SYSTEM",
                                 "Qualifiers":  ""
                             },
                             {
                                 "Name":  "__NAMESPACE",
                                 "Value":  "ROOT\\cimv2",
                                 "Type":  8,
                                 "IsLocal":  true,
                                 "IsArray":  false,
                                 "Origin":  "___SYSTEM",
                                 "Qualifiers":  ""
                             },
                             {
                                 "Name":  "__PATH",
                                 "Value":  "\\\\DAEDALUS\\ROOT\\cimv2:Win32_SystemSlot",
                                 "Type":  8,
                                 "IsLocal":  true,
                                 "IsArray":  false,
                                 "Origin":  "___SYSTEM",
                                 "Qualifiers":  ""
                             }
                         ],
    "Qualifiers":  [
                       {
                           "Name":  "dynamic",
                           "Value":  true,
                           "IsAmended":  false,
                           "IsLocal":  true,
                           "PropagatesToInstance":  true,
                           "PropagatesToSubclass":  false,
                           "IsOverridable":  true
                       },
                       {
                           "Name":  "Locale",
                           "Value":  1033,
                           "IsAmended":  false,
                           "IsLocal":  true,
                           "PropagatesToInstance":  true,
                           "PropagatesToSubclass":  false,
                           "IsOverridable":  true
                       },
                       {
                           "Name":  "provider",
                           "Value":  "CIMWin32",
                           "IsAmended":  false,
                           "IsLocal":  true,
                           "PropagatesToInstance":  true,
                           "PropagatesToSubclass":  false,
                           "IsOverridable":  true
                       },
                       {
                           "Name":  "UUID",
                           "Value":  "{FAF76B91-798C-11D2-AAD1-006008C78BC7}",
                           "IsAmended":  false,
                           "IsLocal":  true,
                           "PropagatesToInstance":  true,
                           "PropagatesToSubclass":  false,
                           "IsOverridable":  true
                       }
                   ],
    "Site":  null,
    "Container":  null,
    "PSComputerName":  "DAEDALUS",
    "Name":  "Win32_SystemSlot",
    "__GENUS":  1,
    "__CLASS":  "Win32_SystemSlot",
    "__SUPERCLASS":  "CIM_Slot",
    "__DYNASTY":  "CIM_ManagedSystemElement",
    "__RELPATH":  "Win32_SystemSlot",
    "__PROPERTY_COUNT":  35,
    "__DERIVATION":  [
                         "CIM_Slot",
                         "CIM_PhysicalConnector",
                         "CIM_PhysicalElement",
                         "CIM_ManagedSystemElement"
                     ],
    "__SERVER":  "DAEDALUS",
    "__NAMESPACE":  "ROOT\\cimv2",
    "__PATH":  "\\\\DAEDALUS\\ROOT\\cimv2:Win32_SystemSlot"
}
