{
    "Path":  {
                 "Path":  "\\\\DAEDALUS\\ROOT\\cimv2:Win32_UserProfile",
                 "RelativePath":  "Win32_UserProfile",
                 "Server":  "DAEDALUS",
                 "NamespacePath":  "ROOT\\cimv2",
                 "ClassName":  "Win32_UserProfile",
                 "IsClass":  true,
                 "IsInstance":  false,
                 "IsSingleton":  false
             },
    "Derivation":  [

                   ],
    "Methods":  [
                    {
                        "Name":  "ChangeOwner",
                        "InParameters":  "System.Management.ManagementBaseObject",
                        "OutParameters":  "System.Management.ManagementBaseObject",
                        "Origin":  "Win32_UserProfile",
                        "Qualifiers":  "System.Management.QualifierData"
                    }
                ],
    "Scope":  {
                  "IsConnected":  true,
                  "Options":  {
                                  "Locale":  "",
                                  "Username":  null,
                                  "Authority":  "",
                                  "Impersonation":  3,
                                  "Authentication":  6,
                                  "EnablePrivileges":  false,
                                  "Context":  "",
                                  "Timeout":  "10675199.02:48:05.4775807"
                              },
                  "Path":  {
                               "Path":  "\\\\localhost\\root\\cimv2",
                               "RelativePath":  "",
                               "Server":  "localhost",
                               "NamespacePath":  "root\\cimv2",
                               "ClassName":  "",
                               "IsClass":  false,
                               "IsInstance":  false,
                               "IsSingleton":  false
                           }
              },
    "Options":  {
                    "UseAmendedQualifiers":  false,
                    "Context":  [

                                ],
                    "Timeout":  {
                                    "Ticks":  9223372036854775807,
                                    "Days":  10675199,
                                    "Hours":  2,
                                    "Milliseconds":  477,
                                    "Minutes":  48,
                                    "Seconds":  5,
                                    "TotalDays":  10675199.116730064,
                                    "TotalHours":  256204778.80152154,
                                    "TotalMilliseconds":  922337203685477,
                                    "TotalMinutes":  15372286728.091293,
                                    "TotalSeconds":  922337203685.47754
                                }
                },
    "ClassPath":  {
                      "Path":  "\\\\DAEDALUS\\ROOT\\cimv2:Win32_UserProfile",
                      "RelativePath":  "Win32_UserProfile",
                      "Server":  "DAEDALUS",
                      "NamespacePath":  "ROOT\\cimv2",
                      "ClassName":  "Win32_UserProfile",
                      "IsClass":  true,
                      "IsInstance":  false,
                      "IsSingleton":  false
                  },
    "Properties":  [
                       {
                           "Name":  "AppDataRoaming",
                           "Value":  null,
                           "Type":  13,
                           "IsLocal":  true,
                           "IsArray":  false,
                           "Origin":  "Win32_UserProfile",
                           "Qualifiers":  "System.Management.QualifierData System.Management.QualifierData System.Management.QualifierData"
                       },
                       {
                           "Name":  "Contacts",
                           "Value":  null,
                           "Type":  13,
                           "IsLocal":  true,
                           "IsArray":  false,
                           "Origin":  "Win32_UserProfile",
                           "Qualifiers":  "System.Management.QualifierData System.Management.QualifierData System.Management.QualifierData"
                       },
                       {
                           "Name":  "Desktop",
                           "Value":  null,
                           "Type":  13,
                           "IsLocal":  true,
                           "IsArray":  false,
                           "Origin":  "Win32_UserProfile",
                           "Qualifiers":  "System.Management.QualifierData System.Management.QualifierData System.Management.QualifierData"
                       },
                       {
                           "Name":  "Documents",
                           "Value":  null,
                           "Type":  13,
                           "IsLocal":  true,
                           "IsArray":  false,
                           "Origin":  "Win32_UserProfile",
                           "Qualifiers":  "System.Management.QualifierData System.Management.QualifierData System.Management.QualifierData"
                       },
                       {
                           "Name":  "Downloads",
                           "Value":  null,
                           "Type":  13,
                           "IsLocal":  true,
                           "IsArray":  false,
                           "Origin":  "Win32_UserProfile",
                           "Qualifiers":  "System.Management.QualifierData System.Management.QualifierData System.Management.QualifierData"
                       },
                       {
                           "Name":  "Favorites",
                           "Value":  null,
                           "Type":  13,
                           "IsLocal":  true,
                           "IsArray":  false,
                           "Origin":  "Win32_UserProfile",
                           "Qualifiers":  "System.Management.QualifierData System.Management.QualifierData System.Management.QualifierData"
                       },
                       {
                           "Name":  "HealthStatus",
                           "Value":  null,
                           "Type":  17,
                           "IsLocal":  true,
                           "IsArray":  false,
                           "Origin":  "Win32_UserProfile",
                           "Qualifiers":  "System.Management.QualifierData System.Management.QualifierData System.Management.QualifierData System.Management.QualifierData System.Management.QualifierData"
                       },
                       {
                           "Name":  "LastAttemptedProfileDownloadTime",
                           "Value":  null,
                           "Type":  101,
                           "IsLocal":  true,
                           "IsArray":  false,
                           "Origin":  "Win32_UserProfile",
                           "Qualifiers":  "System.Management.QualifierData System.Management.QualifierData System.Management.QualifierData"
                       },
                       {
                           "Name":  "LastAttemptedProfileUploadTime",
                           "Value":  null,
                           "Type":  101,
                           "IsLocal":  true,
                           "IsArray":  false,
                           "Origin":  "Win32_UserProfile",
                           "Qualifiers":  "System.Management.QualifierData System.Management.QualifierData System.Management.QualifierData"
                       },
                       {
                           "Name":  "LastBackgroundRegistryUploadTime",
                           "Value":  null,
                           "Type":  101,
                           "IsLocal":  true,
                           "IsArray":  false,
                           "Origin":  "Win32_UserProfile",
                           "Qualifiers":  "System.Management.QualifierData System.Management.QualifierData System.Management.QualifierData"
                       },
                       {
                           "Name":  "LastDownloadTime",
                           "Value":  null,
                           "Type":  101,
                           "IsLocal":  true,
                           "IsArray":  false,
                           "Origin":  "Win32_UserProfile",
                           "Qualifiers":  "System.Management.QualifierData System.Management.QualifierData"
                       },
                       {
                           "Name":  "LastUploadTime",
                           "Value":  null,
                           "Type":  101,
                           "IsLocal":  true,
                           "IsArray":  false,
                           "Origin":  "Win32_UserProfile",
                           "Qualifiers":  "System.Management.QualifierData System.Management.QualifierData"
                       },
                       {
                           "Name":  "LastUseTime",
                           "Value":  null,
                           "Type":  101,
                           "IsLocal":  true,
                           "IsArray":  false,
                           "Origin":  "Win32_UserProfile",
                           "Qualifiers":  "System.Management.QualifierData System.Management.QualifierData"
                       },
                       {
                           "Name":  "Links",
                           "Value":  null,
                           "Type":  13,
                           "IsLocal":  true,
                           "IsArray":  false,
                           "Origin":  "Win32_UserProfile",
                           "Qualifiers":  "System.Management.QualifierData System.Management.QualifierData System.Management.QualifierData"
                       },
                       {
                           "Name":  "Loaded",
                           "Value":  null,
                           "Type":  11,
                           "IsLocal":  true,
                           "IsArray":  false,
                           "Origin":  "Win32_UserProfile",
                           "Qualifiers":  "System.Management.QualifierData System.Management.QualifierData"
                       },
                       {
                           "Name":  "LocalPath",
                           "Value":  null,
                           "Type":  8,
                           "IsLocal":  true,
                           "IsArray":  false,
                           "Origin":  "Win32_UserProfile",
                           "Qualifiers":  "System.Management.QualifierData System.Management.QualifierData"
                       },
                       {
                           "Name":  "Music",
                           "Value":  null,
                           "Type":  13,
                           "IsLocal":  true,
                           "IsArray":  false,
                           "Origin":  "Win32_UserProfile",
                           "Qualifiers":  "System.Management.QualifierData System.Management.QualifierData System.Management.QualifierData"
                       },
                       {
                           "Name":  "Pictures",
                           "Value":  null,
                           "Type":  13,
                           "IsLocal":  true,
                           "IsArray":  false,
                           "Origin":  "Win32_UserProfile",
                           "Qualifiers":  "System.Management.QualifierData System.Management.QualifierData System.Management.QualifierData"
                       },
                       {
                           "Name":  "RefCount",
                           "Value":  null,
                           "Type":  19,
                           "IsLocal":  true,
                           "IsArray":  false,
                           "Origin":  "Win32_UserProfile",
                           "Qualifiers":  "System.Management.QualifierData System.Management.QualifierData"
                       },
                       {
                           "Name":  "RoamingConfigured",
                           "Value":  null,
                           "Type":  11,
                           "IsLocal":  true,
                           "IsArray":  false,
                           "Origin":  "Win32_UserProfile",
                           "Qualifiers":  "System.Management.QualifierData System.Management.QualifierData"
                       },
                       {
                           "Name":  "RoamingPath",
                           "Value":  null,
                           "Type":  8,
                           "IsLocal":  true,
                           "IsArray":  false,
                           "Origin":  "Win32_UserProfile",
                           "Qualifiers":  "System.Management.QualifierData System.Management.QualifierData"
                       },
                       {
                           "Name":  "RoamingPreference",
                           "Value":  null,
                           "Type":  11,
                           "IsLocal":  true,
                           "IsArray":  false,
                           "Origin":  "Win32_UserProfile",
                           "Qualifiers":  "System.Management.QualifierData System.Management.QualifierData System.Management.QualifierData"
                       },
                       {
                           "Name":  "SavedGames",
                           "Value":  null,
                           "Type":  13,
                           "IsLocal":  true,
                           "IsArray":  false,
                           "Origin":  "Win32_UserProfile",
                           "Qualifiers":  "System.Management.QualifierData System.Management.QualifierData System.Management.QualifierData"
                       },
                       {
                           "Name":  "Searches",
                           "Value":  null,
                           "Type":  13,
                           "IsLocal":  true,
                           "IsArray":  false,
                           "Origin":  "Win32_UserProfile",
                           "Qualifiers":  "System.Management.QualifierData System.Management.QualifierData System.Management.QualifierData"
                       },
                       {
                           "Name":  "SID",
                           "Value":  null,
                           "Type":  8,
                           "IsLocal":  true,
                           "IsArray":  false,
                           "Origin":  "Win32_UserProfile",
                           "Qualifiers":  "System.Management.QualifierData System.Management.QualifierData System.Management.QualifierData"
                       },
                       {
                           "Name":  "Special",
                           "Value":  null,
                           "Type":  11,
                           "IsLocal":  true,
                           "IsArray":  false,
                           "Origin":  "Win32_UserProfile",
                           "Qualifiers":  "System.Management.QualifierData System.Management.QualifierData"
                       },
                       {
                           "Name":  "StartMenu",
                           "Value":  null,
                           "Type":  13,
                           "IsLocal":  true,
                           "IsArray":  false,
                           "Origin":  "Win32_UserProfile",
                           "Qualifiers":  "System.Management.QualifierData System.Management.QualifierData System.Management.QualifierData"
                       },
                       {
                           "Name":  "Status",
                           "Value":  null,
                           "Type":  19,
                           "IsLocal":  true,
                           "IsArray":  false,
                           "Origin":  "Win32_UserProfile",
                           "Qualifiers":  "System.Management.QualifierData System.Management.QualifierData System.Management.QualifierData System.Management.QualifierData"
                       },
                       {
                           "Name":  "Videos",
                           "Value":  null,
                           "Type":  13,
                           "IsLocal":  true,
                           "IsArray":  false,
                           "Origin":  "Win32_UserProfile",
                           "Qualifiers":  "System.Management.QualifierData System.Management.QualifierData System.Management.QualifierData"
                       }
                   ],
    "SystemProperties":  [
                             {
                                 "Name":  "__GENUS",
                                 "Value":  1,
                                 "Type":  3,
                                 "IsLocal":  true,
                                 "IsArray":  false,
                                 "Origin":  "___SYSTEM",
                                 "Qualifiers":  ""
                             },
                             {
                                 "Name":  "__CLASS",
                                 "Value":  "Win32_UserProfile",
                                 "Type":  8,
                                 "IsLocal":  true,
                                 "IsArray":  false,
                                 "Origin":  "___SYSTEM",
                                 "Qualifiers":  ""
                             },
                             {
                                 "Name":  "__SUPERCLASS",
                                 "Value":  null,
                                 "Type":  8,
                                 "IsLocal":  true,
                                 "IsArray":  false,
                                 "Origin":  "___SYSTEM",
                                 "Qualifiers":  ""
                             },
                             {
                                 "Name":  "__DYNASTY",
                                 "Value":  "Win32_UserProfile",
                                 "Type":  8,
                                 "IsLocal":  true,
                                 "IsArray":  false,
                                 "Origin":  "___SYSTEM",
                                 "Qualifiers":  ""
                             },
                             {
                                 "Name":  "__RELPATH",
                                 "Value":  "Win32_UserProfile",
                                 "Type":  8,
                                 "IsLocal":  true,
                                 "IsArray":  false,
                                 "Origin":  "___SYSTEM",
                                 "Qualifiers":  ""
                             },
                             {
                                 "Name":  "__PROPERTY_COUNT",
                                 "Value":  29,
                                 "Type":  3,
                                 "IsLocal":  true,
                                 "IsArray":  false,
                                 "Origin":  "___SYSTEM",
                                 "Qualifiers":  ""
                             },
                             {
                                 "Name":  "__DERIVATION",
                                 "Value":  "",
                                 "Type":  8,
                                 "IsLocal":  true,
                                 "IsArray":  true,
                                 "Origin":  "___SYSTEM",
                                 "Qualifiers":  ""
                             },
                             {
                                 "Name":  "__SERVER",
                                 "Value":  "DAEDALUS",
                                 "Type":  8,
                                 "IsLocal":  true,
                                 "IsArray":  false,
                                 "Origin":  "___SYSTEM",
                                 "Qualifiers":  ""
                             },
                             {
                                 "Name":  "__NAMESPACE",
                                 "Value":  "ROOT\\cimv2",
                                 "Type":  8,
                                 "IsLocal":  true,
                                 "IsArray":  false,
                                 "Origin":  "___SYSTEM",
                                 "Qualifiers":  ""
                             },
                             {
                                 "Name":  "__PATH",
                                 "Value":  "\\\\DAEDALUS\\ROOT\\cimv2:Win32_UserProfile",
                                 "Type":  8,
                                 "IsLocal":  true,
                                 "IsArray":  false,
                                 "Origin":  "___SYSTEM",
                                 "Qualifiers":  ""
                             }
                         ],
    "Qualifiers":  [
                       {
                           "Name":  "dynamic",
                           "Value":  true,
                           "IsAmended":  false,
                           "IsLocal":  true,
                           "PropagatesToInstance":  true,
                           "PropagatesToSubclass":  false,
                           "IsOverridable":  true
                       },
                       {
                           "Name":  "provider",
                           "Value":  "UserProfileProvider",
                           "IsAmended":  false,
                           "IsLocal":  true,
                           "PropagatesToInstance":  false,
                           "PropagatesToSubclass":  false,
                           "IsOverridable":  true
                       }
                   ],
    "Site":  null,
    "Container":  null,
    "PSComputerName":  "DAEDALUS",
    "Name":  "Win32_UserProfile",
    "__GENUS":  1,
    "__CLASS":  "Win32_UserProfile",
    "__SUPERCLASS":  null,
    "__DYNASTY":  "Win32_UserProfile",
    "__RELPATH":  "Win32_UserProfile",
    "__PROPERTY_COUNT":  29,
    "__DERIVATION":  [

                     ],
    "__SERVER":  "DAEDALUS",
    "__NAMESPACE":  "ROOT\\cimv2",
    "__PATH":  "\\\\DAEDALUS\\ROOT\\cimv2:Win32_UserProfile"
}
