{
    "Path":  {
                 "Path":  "\\\\DAEDALUS\\ROOT\\cimv2:Win32_CodecFile",
                 "RelativePath":  "Win32_CodecFile",
                 "Server":  "DAEDALUS",
                 "NamespacePath":  "ROOT\\cimv2",
                 "ClassName":  "Win32_CodecFile",
                 "IsClass":  true,
                 "IsInstance":  false,
                 "IsSingleton":  false
             },
    "Derivation":  [
                       "CIM_DataFile",
                       "CIM_LogicalFile",
                       "CIM_LogicalElement",
                       "CIM_ManagedSystemElement"
                   ],
    "Methods":  [
                    {
                        "Name":  "TakeOwnerShip",
                        "InParameters":  null,
                        "OutParameters":  "System.Management.ManagementBaseObject",
                        "Origin":  "CIM_LogicalFile",
                        "Qualifiers":  "System.Management.QualifierData"
                    },
                    {
                        "Name":  "ChangeSecurityPermissions",
                        "InParameters":  "System.Management.ManagementBaseObject",
                        "OutParameters":  "System.Management.ManagementBaseObject",
                        "Origin":  "CIM_LogicalFile",
                        "Qualifiers":  "System.Management.QualifierData"
                    },
                    {
                        "Name":  "Copy",
                        "InParameters":  "System.Management.ManagementBaseObject",
                        "OutParameters":  "System.Management.ManagementBaseObject",
                        "Origin":  "CIM_LogicalFile",
                        "Qualifiers":  "System.Management.QualifierData"
                    },
                    {
                        "Name":  "Rename",
                        "InParameters":  "System.Management.ManagementBaseObject",
                        "OutParameters":  "System.Management.ManagementBaseObject",
                        "Origin":  "CIM_LogicalFile",
                        "Qualifiers":  "System.Management.QualifierData"
                    },
                    {
                        "Name":  "Delete",
                        "InParameters":  null,
                        "OutParameters":  "System.Management.ManagementBaseObject",
                        "Origin":  "CIM_LogicalFile",
                        "Qualifiers":  "System.Management.QualifierData"
                    },
                    {
                        "Name":  "Compress",
                        "InParameters":  null,
                        "OutParameters":  "System.Management.ManagementBaseObject",
                        "Origin":  "CIM_LogicalFile",
                        "Qualifiers":  "System.Management.QualifierData"
                    },
                    {
                        "Name":  "Uncompress",
                        "InParameters":  null,
                        "OutParameters":  "System.Management.ManagementBaseObject",
                        "Origin":  "CIM_LogicalFile",
                        "Qualifiers":  "System.Management.QualifierData"
                    },
                    {
                        "Name":  "TakeOwnerShipEx",
                        "InParameters":  "System.Management.ManagementBaseObject",
                        "OutParameters":  "System.Management.ManagementBaseObject",
                        "Origin":  "CIM_LogicalFile",
                        "Qualifiers":  "System.Management.QualifierData"
                    },
                    {
                        "Name":  "ChangeSecurityPermissionsEx",
                        "InParameters":  "System.Management.ManagementBaseObject",
                        "OutParameters":  "System.Management.ManagementBaseObject",
                        "Origin":  "CIM_LogicalFile",
                        "Qualifiers":  "System.Management.QualifierData"
                    },
                    {
                        "Name":  "CopyEx",
                        "InParameters":  "System.Management.ManagementBaseObject",
                        "OutParameters":  "System.Management.ManagementBaseObject",
                        "Origin":  "CIM_LogicalFile",
                        "Qualifiers":  "System.Management.QualifierData"
                    },
                    {
                        "Name":  "DeleteEx",
                        "InParameters":  "System.Management.ManagementBaseObject",
                        "OutParameters":  "System.Management.ManagementBaseObject",
                        "Origin":  "CIM_LogicalFile",
                        "Qualifiers":  "System.Management.QualifierData"
                    },
                    {
                        "Name":  "CompressEx",
                        "InParameters":  "System.Management.ManagementBaseObject",
                        "OutParameters":  "System.Management.ManagementBaseObject",
                        "Origin":  "CIM_LogicalFile",
                        "Qualifiers":  "System.Management.QualifierData"
                    },
                    {
                        "Name":  "UncompressEx",
                        "InParameters":  "System.Management.ManagementBaseObject",
                        "OutParameters":  "System.Management.ManagementBaseObject",
                        "Origin":  "CIM_LogicalFile",
                        "Qualifiers":  "System.Management.QualifierData"
                    },
                    {
                        "Name":  "GetEffectivePermission",
                        "InParameters":  "System.Management.ManagementBaseObject",
                        "OutParameters":  "System.Management.ManagementBaseObject",
                        "Origin":  "CIM_LogicalFile",
                        "Qualifiers":  "System.Management.QualifierData"
                    }
                ],
    "Scope":  {
                  "IsConnected":  true,
                  "Options":  {
                                  "Locale":  "",
                                  "Username":  null,
                                  "Authority":  "",
                                  "Impersonation":  3,
                                  "Authentication":  6,
                                  "EnablePrivileges":  false,
                                  "Context":  "",
                                  "Timeout":  "10675199.02:48:05.4775807"
                              },
                  "Path":  {
                               "Path":  "\\\\localhost\\root\\cimv2",
                               "RelativePath":  "",
                               "Server":  "localhost",
                               "NamespacePath":  "root\\cimv2",
                               "ClassName":  "",
                               "IsClass":  false,
                               "IsInstance":  false,
                               "IsSingleton":  false
                           }
              },
    "Options":  {
                    "UseAmendedQualifiers":  false,
                    "Context":  [

                                ],
                    "Timeout":  {
                                    "Ticks":  9223372036854775807,
                                    "Days":  10675199,
                                    "Hours":  2,
                                    "Milliseconds":  477,
                                    "Minutes":  48,
                                    "Seconds":  5,
                                    "TotalDays":  10675199.116730064,
                                    "TotalHours":  256204778.80152154,
                                    "TotalMilliseconds":  922337203685477,
                                    "TotalMinutes":  15372286728.091293,
                                    "TotalSeconds":  922337203685.47754
                                }
                },
    "ClassPath":  {
                      "Path":  "\\\\DAEDALUS\\ROOT\\cimv2:Win32_CodecFile",
                      "RelativePath":  "Win32_CodecFile",
                      "Server":  "DAEDALUS",
                      "NamespacePath":  "ROOT\\cimv2",
                      "ClassName":  "Win32_CodecFile",
                      "IsClass":  true,
                      "IsInstance":  false,
                      "IsSingleton":  false
                  },
    "Properties":  [
                       {
                           "Name":  "AccessMask",
                           "Value":  null,
                           "Type":  19,
                           "IsLocal":  false,
                           "IsArray":  false,
                           "Origin":  "CIM_LogicalFile",
                           "Qualifiers":  "System.Management.QualifierData System.Management.QualifierData System.Management.QualifierData"
                       },
                       {
                           "Name":  "Archive",
                           "Value":  null,
                           "Type":  11,
                           "IsLocal":  false,
                           "IsArray":  false,
                           "Origin":  "CIM_LogicalFile",
                           "Qualifiers":  "System.Management.QualifierData System.Management.QualifierData"
                       },
                       {
                           "Name":  "Caption",
                           "Value":  null,
                           "Type":  8,
                           "IsLocal":  false,
                           "IsArray":  false,
                           "Origin":  "CIM_ManagedSystemElement",
                           "Qualifiers":  "System.Management.QualifierData System.Management.QualifierData System.Management.QualifierData"
                       },
                       {
                           "Name":  "Compressed",
                           "Value":  null,
                           "Type":  11,
                           "IsLocal":  false,
                           "IsArray":  false,
                           "Origin":  "CIM_LogicalFile",
                           "Qualifiers":  "System.Management.QualifierData System.Management.QualifierData"
                       },
                       {
                           "Name":  "CompressionMethod",
                           "Value":  null,
                           "Type":  8,
                           "IsLocal":  false,
                           "IsArray":  false,
                           "Origin":  "CIM_LogicalFile",
                           "Qualifiers":  "System.Management.QualifierData System.Management.QualifierData"
                       },
                       {
                           "Name":  "CreationClassName",
                           "Value":  null,
                           "Type":  8,
                           "IsLocal":  false,
                           "IsArray":  false,
                           "Origin":  "CIM_LogicalFile",
                           "Qualifiers":  "System.Management.QualifierData System.Management.QualifierData System.Management.QualifierData"
                       },
                       {
                           "Name":  "CreationDate",
                           "Value":  null,
                           "Type":  101,
                           "IsLocal":  false,
                           "IsArray":  false,
                           "Origin":  "CIM_LogicalFile",
                           "Qualifiers":  "System.Management.QualifierData System.Management.QualifierData"
                       },
                       {
                           "Name":  "CSCreationClassName",
                           "Value":  null,
                           "Type":  8,
                           "IsLocal":  false,
                           "IsArray":  false,
                           "Origin":  "CIM_LogicalFile",
                           "Qualifiers":  "System.Management.QualifierData System.Management.QualifierData System.Management.QualifierData System.Management.QualifierData"
                       },
                       {
                           "Name":  "CSName",
                           "Value":  null,
                           "Type":  8,
                           "IsLocal":  false,
                           "IsArray":  false,
                           "Origin":  "CIM_LogicalFile",
                           "Qualifiers":  "System.Management.QualifierData System.Management.QualifierData System.Management.QualifierData System.Management.QualifierData"
                       },
                       {
                           "Name":  "Description",
                           "Value":  null,
                           "Type":  8,
                           "IsLocal":  false,
                           "IsArray":  false,
                           "Origin":  "CIM_ManagedSystemElement",
                           "Qualifiers":  "System.Management.QualifierData System.Management.QualifierData System.Management.QualifierData"
                       },
                       {
                           "Name":  "Drive",
                           "Value":  null,
                           "Type":  8,
                           "IsLocal":  false,
                           "IsArray":  false,
                           "Origin":  "CIM_LogicalFile",
                           "Qualifiers":  "System.Management.QualifierData System.Management.QualifierData System.Management.QualifierData"
                       },
                       {
                           "Name":  "EightDotThreeFileName",
                           "Value":  null,
                           "Type":  8,
                           "IsLocal":  false,
                           "IsArray":  false,
                           "Origin":  "CIM_LogicalFile",
                           "Qualifiers":  "System.Management.QualifierData System.Management.QualifierData"
                       },
                       {
                           "Name":  "Encrypted",
                           "Value":  null,
                           "Type":  11,
                           "IsLocal":  false,
                           "IsArray":  false,
                           "Origin":  "CIM_LogicalFile",
                           "Qualifiers":  "System.Management.QualifierData System.Management.QualifierData"
                       },
                       {
                           "Name":  "EncryptionMethod",
                           "Value":  null,
                           "Type":  8,
                           "IsLocal":  false,
                           "IsArray":  false,
                           "Origin":  "CIM_LogicalFile",
                           "Qualifiers":  "System.Management.QualifierData System.Management.QualifierData"
                       },
                       {
                           "Name":  "Extension",
                           "Value":  null,
                           "Type":  8,
                           "IsLocal":  false,
                           "IsArray":  false,
                           "Origin":  "CIM_LogicalFile",
                           "Qualifiers":  "System.Management.QualifierData System.Management.QualifierData System.Management.QualifierData"
                       },
                       {
                           "Name":  "FileName",
                           "Value":  null,
                           "Type":  8,
                           "IsLocal":  false,
                           "IsArray":  false,
                           "Origin":  "CIM_LogicalFile",
                           "Qualifiers":  "System.Management.QualifierData System.Management.QualifierData System.Management.QualifierData"
                       },
                       {
                           "Name":  "FileSize",
                           "Value":  null,
                           "Type":  21,
                           "IsLocal":  false,
                           "IsArray":  false,
                           "Origin":  "CIM_LogicalFile",
                           "Qualifiers":  "System.Management.QualifierData System.Management.QualifierData"
                       },
                       {
                           "Name":  "FileType",
                           "Value":  null,
                           "Type":  8,
                           "IsLocal":  false,
                           "IsArray":  false,
                           "Origin":  "CIM_LogicalFile",
                           "Qualifiers":  "System.Management.QualifierData System.Management.QualifierData"
                       },
                       {
                           "Name":  "FSCreationClassName",
                           "Value":  null,
                           "Type":  8,
                           "IsLocal":  false,
                           "IsArray":  false,
                           "Origin":  "CIM_LogicalFile",
                           "Qualifiers":  "System.Management.QualifierData System.Management.QualifierData System.Management.QualifierData System.Management.QualifierData"
                       },
                       {
                           "Name":  "FSName",
                           "Value":  null,
                           "Type":  8,
                           "IsLocal":  false,
                           "IsArray":  false,
                           "Origin":  "CIM_LogicalFile",
                           "Qualifiers":  "System.Management.QualifierData System.Management.QualifierData System.Management.QualifierData System.Management.QualifierData"
                       },
                       {
                           "Name":  "Group",
                           "Value":  null,
                           "Type":  8,
                           "IsLocal":  true,
                           "IsArray":  false,
                           "Origin":  "Win32_CodecFile",
                           "Qualifiers":  "System.Management.QualifierData System.Management.QualifierData System.Management.QualifierData"
                       },
                       {
                           "Name":  "Hidden",
                           "Value":  null,
                           "Type":  11,
                           "IsLocal":  false,
                           "IsArray":  false,
                           "Origin":  "CIM_LogicalFile",
                           "Qualifiers":  "System.Management.QualifierData System.Management.QualifierData"
                       },
                       {
                           "Name":  "InstallDate",
                           "Value":  null,
                           "Type":  101,
                           "IsLocal":  false,
                           "IsArray":  false,
                           "Origin":  "CIM_ManagedSystemElement",
                           "Qualifiers":  "System.Management.QualifierData System.Management.QualifierData System.Management.QualifierData"
                       },
                       {
                           "Name":  "InUseCount",
                           "Value":  null,
                           "Type":  21,
                           "IsLocal":  false,
                           "IsArray":  false,
                           "Origin":  "CIM_LogicalFile",
                           "Qualifiers":  "System.Management.QualifierData System.Management.QualifierData"
                       },
                       {
                           "Name":  "LastAccessed",
                           "Value":  null,
                           "Type":  101,
                           "IsLocal":  false,
                           "IsArray":  false,
                           "Origin":  "CIM_LogicalFile",
                           "Qualifiers":  "System.Management.QualifierData System.Management.QualifierData"
                       },
                       {
                           "Name":  "LastModified",
                           "Value":  null,
                           "Type":  101,
                           "IsLocal":  false,
                           "IsArray":  false,
                           "Origin":  "CIM_LogicalFile",
                           "Qualifiers":  "System.Management.QualifierData System.Management.QualifierData"
                       },
                       {
                           "Name":  "Manufacturer",
                           "Value":  null,
                           "Type":  8,
                           "IsLocal":  false,
                           "IsArray":  false,
                           "Origin":  "CIM_DataFile",
                           "Qualifiers":  "System.Management.QualifierData System.Management.QualifierData"
                       },
                       {
                           "Name":  "Name",
                           "Value":  null,
                           "Type":  8,
                           "IsLocal":  false,
                           "IsArray":  false,
                           "Origin":  "CIM_ManagedSystemElement",
                           "Qualifiers":  "System.Management.QualifierData System.Management.QualifierData System.Management.QualifierData"
                       },
                       {
                           "Name":  "Path",
                           "Value":  null,
                           "Type":  8,
                           "IsLocal":  false,
                           "IsArray":  false,
                           "Origin":  "CIM_LogicalFile",
                           "Qualifiers":  "System.Management.QualifierData System.Management.QualifierData System.Management.QualifierData"
                       },
                       {
                           "Name":  "Readable",
                           "Value":  null,
                           "Type":  11,
                           "IsLocal":  false,
                           "IsArray":  false,
                           "Origin":  "CIM_LogicalFile",
                           "Qualifiers":  "System.Management.QualifierData System.Management.QualifierData"
                       },
                       {
                           "Name":  "Status",
                           "Value":  null,
                           "Type":  8,
                           "IsLocal":  false,
                           "IsArray":  false,
                           "Origin":  "CIM_ManagedSystemElement",
                           "Qualifiers":  "System.Management.QualifierData System.Management.QualifierData System.Management.QualifierData System.Management.QualifierData"
                       },
                       {
                           "Name":  "System",
                           "Value":  null,
                           "Type":  11,
                           "IsLocal":  false,
                           "IsArray":  false,
                           "Origin":  "CIM_LogicalFile",
                           "Qualifiers":  "System.Management.QualifierData System.Management.QualifierData"
                       },
                       {
                           "Name":  "Version",
                           "Value":  null,
                           "Type":  8,
                           "IsLocal":  false,
                           "IsArray":  false,
                           "Origin":  "CIM_DataFile",
                           "Qualifiers":  "System.Management.QualifierData System.Management.QualifierData"
                       },
                       {
                           "Name":  "Writeable",
                           "Value":  null,
                           "Type":  11,
                           "IsLocal":  false,
                           "IsArray":  false,
                           "Origin":  "CIM_LogicalFile",
                           "Qualifiers":  "System.Management.QualifierData System.Management.QualifierData"
                       }
                   ],
    "SystemProperties":  [
                             {
                                 "Name":  "__GENUS",
                                 "Value":  1,
                                 "Type":  3,
                                 "IsLocal":  true,
                                 "IsArray":  false,
                                 "Origin":  "___SYSTEM",
                                 "Qualifiers":  ""
                             },
                             {
                                 "Name":  "__CLASS",
                                 "Value":  "Win32_CodecFile",
                                 "Type":  8,
                                 "IsLocal":  true,
                                 "IsArray":  false,
                                 "Origin":  "___SYSTEM",
                                 "Qualifiers":  ""
                             },
                             {
                                 "Name":  "__SUPERCLASS",
                                 "Value":  "CIM_DataFile",
                                 "Type":  8,
                                 "IsLocal":  true,
                                 "IsArray":  false,
                                 "Origin":  "___SYSTEM",
                                 "Qualifiers":  ""
                             },
                             {
                                 "Name":  "__DYNASTY",
                                 "Value":  "CIM_ManagedSystemElement",
                                 "Type":  8,
                                 "IsLocal":  true,
                                 "IsArray":  false,
                                 "Origin":  "___SYSTEM",
                                 "Qualifiers":  ""
                             },
                             {
                                 "Name":  "__RELPATH",
                                 "Value":  "Win32_CodecFile",
                                 "Type":  8,
                                 "IsLocal":  true,
                                 "IsArray":  false,
                                 "Origin":  "___SYSTEM",
                                 "Qualifiers":  ""
                             },
                             {
                                 "Name":  "__PROPERTY_COUNT",
                                 "Value":  34,
                                 "Type":  3,
                                 "IsLocal":  true,
                                 "IsArray":  false,
                                 "Origin":  "___SYSTEM",
                                 "Qualifiers":  ""
                             },
                             {
                                 "Name":  "__DERIVATION",
                                 "Value":  "CIM_DataFile CIM_LogicalFile CIM_LogicalElement CIM_ManagedSystemElement",
                                 "Type":  8,
                                 "IsLocal":  true,
                                 "IsArray":  true,
                                 "Origin":  "___SYSTEM",
                                 "Qualifiers":  ""
                             },
                             {
                                 "Name":  "__SERVER",
                                 "Value":  "DAEDALUS",
                                 "Type":  8,
                                 "IsLocal":  true,
                                 "IsArray":  false,
                                 "Origin":  "___SYSTEM",
                                 "Qualifiers":  ""
                             },
                             {
                                 "Name":  "__NAMESPACE",
                                 "Value":  "ROOT\\cimv2",
                                 "Type":  8,
                                 "IsLocal":  true,
                                 "IsArray":  false,
                                 "Origin":  "___SYSTEM",
                                 "Qualifiers":  ""
                             },
                             {
                                 "Name":  "__PATH",
                                 "Value":  "\\\\DAEDALUS\\ROOT\\cimv2:Win32_CodecFile",
                                 "Type":  8,
                                 "IsLocal":  true,
                                 "IsArray":  false,
                                 "Origin":  "___SYSTEM",
                                 "Qualifiers":  ""
                             }
                         ],
    "Qualifiers":  [
                       {
                           "Name":  "dynamic",
                           "Value":  true,
                           "IsAmended":  false,
                           "IsLocal":  true,
                           "PropagatesToInstance":  true,
                           "PropagatesToSubclass":  false,
                           "IsOverridable":  true
                       },
                       {
                           "Name":  "Locale",
                           "Value":  1033,
                           "IsAmended":  false,
                           "IsLocal":  true,
                           "PropagatesToInstance":  true,
                           "PropagatesToSubclass":  false,
                           "IsOverridable":  true
                       },
                       {
                           "Name":  "provider",
                           "Value":  "CIMWin32",
                           "IsAmended":  false,
                           "IsLocal":  true,
                           "PropagatesToInstance":  true,
                           "PropagatesToSubclass":  false,
                           "IsOverridable":  true
                       },
                       {
                           "Name":  "UUID",
                           "Value":  "{8502C4C3-5FBB-11D2-AAC1-006008C78BC7}",
                           "IsAmended":  false,
                           "IsLocal":  true,
                           "PropagatesToInstance":  true,
                           "PropagatesToSubclass":  false,
                           "IsOverridable":  true
                       }
                   ],
    "Site":  null,
    "Container":  null,
    "PSComputerName":  "DAEDALUS",
    "Name":  "Win32_CodecFile",
    "__GENUS":  1,
    "__CLASS":  "Win32_CodecFile",
    "__SUPERCLASS":  "CIM_DataFile",
    "__DYNASTY":  "CIM_ManagedSystemElement",
    "__RELPATH":  "Win32_CodecFile",
    "__PROPERTY_COUNT":  34,
    "__DERIVATION":  [
                         "CIM_DataFile",
                         "CIM_LogicalFile",
                         "CIM_LogicalElement",
                         "CIM_ManagedSystemElement"
                     ],
    "__SERVER":  "DAEDALUS",
    "__NAMESPACE":  "ROOT\\cimv2",
    "__PATH":  "\\\\DAEDALUS\\ROOT\\cimv2:Win32_CodecFile"
}
