{
    "Path":  {
                 "Path":  "\\\\DAEDALUS\\ROOT\\cimv2:Win32_BIOS",
                 "RelativePath":  "Win32_BIOS",
                 "Server":  "DAEDALUS",
                 "NamespacePath":  "ROOT\\cimv2",
                 "ClassName":  "Win32_BIOS",
                 "IsClass":  true,
                 "IsInstance":  false,
                 "IsSingleton":  false
             },
    "Derivation":  [
                       "CIM_BIOSElement",
                       "CIM_SoftwareElement",
                       "CIM_LogicalElement",
                       "CIM_ManagedSystemElement"
                   ],
    "Methods":  [

                ],
    "Scope":  {
                  "IsConnected":  true,
                  "Options":  {
                                  "Locale":  "",
                                  "Username":  null,
                                  "Authority":  "",
                                  "Impersonation":  3,
                                  "Authentication":  6,
                                  "EnablePrivileges":  false,
                                  "Context":  "",
                                  "Timeout":  "10675199.02:48:05.4775807"
                              },
                  "Path":  {
                               "Path":  "\\\\localhost\\root\\cimv2",
                               "RelativePath":  "",
                               "Server":  "localhost",
                               "NamespacePath":  "root\\cimv2",
                               "ClassName":  "",
                               "IsClass":  false,
                               "IsInstance":  false,
                               "IsSingleton":  false
                           }
              },
    "Options":  {
                    "UseAmendedQualifiers":  false,
                    "Context":  [

                                ],
                    "Timeout":  {
                                    "Ticks":  9223372036854775807,
                                    "Days":  10675199,
                                    "Hours":  2,
                                    "Milliseconds":  477,
                                    "Minutes":  48,
                                    "Seconds":  5,
                                    "TotalDays":  10675199.116730064,
                                    "TotalHours":  256204778.80152154,
                                    "TotalMilliseconds":  922337203685477,
                                    "TotalMinutes":  15372286728.091293,
                                    "TotalSeconds":  922337203685.47754
                                }
                },
    "ClassPath":  {
                      "Path":  "\\\\DAEDALUS\\ROOT\\cimv2:Win32_BIOS",
                      "RelativePath":  "Win32_BIOS",
                      "Server":  "DAEDALUS",
                      "NamespacePath":  "ROOT\\cimv2",
                      "ClassName":  "Win32_BIOS",
                      "IsClass":  true,
                      "IsInstance":  false,
                      "IsSingleton":  false
                  },
    "Properties":  [
                       {
                           "Name":  "BiosCharacteristics",
                           "Value":  null,
                           "Type":  18,
                           "IsLocal":  true,
                           "IsArray":  true,
                           "Origin":  "Win32_BIOS",
                           "Qualifiers":  "System.Management.QualifierData System.Management.QualifierData System.Management.QualifierData"
                       },
                       {
                           "Name":  "BIOSVersion",
                           "Value":  null,
                           "Type":  8,
                           "IsLocal":  true,
                           "IsArray":  true,
                           "Origin":  "Win32_BIOS",
                           "Qualifiers":  "System.Management.QualifierData System.Management.QualifierData"
                       },
                       {
                           "Name":  "BuildNumber",
                           "Value":  null,
                           "Type":  8,
                           "IsLocal":  false,
                           "IsArray":  false,
                           "Origin":  "CIM_SoftwareElement",
                           "Qualifiers":  "System.Management.QualifierData System.Management.QualifierData System.Management.QualifierData System.Management.QualifierData"
                       },
                       {
                           "Name":  "Caption",
                           "Value":  null,
                           "Type":  8,
                           "IsLocal":  false,
                           "IsArray":  false,
                           "Origin":  "CIM_ManagedSystemElement",
                           "Qualifiers":  "System.Management.QualifierData System.Management.QualifierData System.Management.QualifierData"
                       },
                       {
                           "Name":  "CodeSet",
                           "Value":  null,
                           "Type":  8,
                           "IsLocal":  false,
                           "IsArray":  false,
                           "Origin":  "CIM_SoftwareElement",
                           "Qualifiers":  "System.Management.QualifierData System.Management.QualifierData System.Management.QualifierData"
                       },
                       {
                           "Name":  "CurrentLanguage",
                           "Value":  null,
                           "Type":  8,
                           "IsLocal":  true,
                           "IsArray":  false,
                           "Origin":  "Win32_BIOS",
                           "Qualifiers":  "System.Management.QualifierData System.Management.QualifierData System.Management.QualifierData"
                       },
                       {
                           "Name":  "Description",
                           "Value":  null,
                           "Type":  8,
                           "IsLocal":  false,
                           "IsArray":  false,
                           "Origin":  "CIM_ManagedSystemElement",
                           "Qualifiers":  "System.Management.QualifierData System.Management.QualifierData"
                       },
                       {
                           "Name":  "EmbeddedControllerMajorVersion",
                           "Value":  null,
                           "Type":  17,
                           "IsLocal":  true,
                           "IsArray":  false,
                           "Origin":  "Win32_BIOS",
                           "Qualifiers":  "System.Management.QualifierData System.Management.QualifierData System.Management.QualifierData"
                       },
                       {
                           "Name":  "EmbeddedControllerMinorVersion",
                           "Value":  null,
                           "Type":  17,
                           "IsLocal":  true,
                           "IsArray":  false,
                           "Origin":  "Win32_BIOS",
                           "Qualifiers":  "System.Management.QualifierData System.Management.QualifierData System.Management.QualifierData"
                       },
                       {
                           "Name":  "IdentificationCode",
                           "Value":  null,
                           "Type":  8,
                           "IsLocal":  false,
                           "IsArray":  false,
                           "Origin":  "CIM_SoftwareElement",
                           "Qualifiers":  "System.Management.QualifierData System.Management.QualifierData System.Management.QualifierData System.Management.QualifierData"
                       },
                       {
                           "Name":  "InstallableLanguages",
                           "Value":  null,
                           "Type":  18,
                           "IsLocal":  true,
                           "IsArray":  false,
                           "Origin":  "Win32_BIOS",
                           "Qualifiers":  "System.Management.QualifierData System.Management.QualifierData System.Management.QualifierData"
                       },
                       {
                           "Name":  "InstallDate",
                           "Value":  null,
                           "Type":  101,
                           "IsLocal":  false,
                           "IsArray":  false,
                           "Origin":  "CIM_ManagedSystemElement",
                           "Qualifiers":  "System.Management.QualifierData System.Management.QualifierData System.Management.QualifierData"
                       },
                       {
                           "Name":  "LanguageEdition",
                           "Value":  null,
                           "Type":  8,
                           "IsLocal":  false,
                           "IsArray":  false,
                           "Origin":  "CIM_SoftwareElement",
                           "Qualifiers":  "System.Management.QualifierData System.Management.QualifierData System.Management.QualifierData System.Management.QualifierData"
                       },
                       {
                           "Name":  "ListOfLanguages",
                           "Value":  null,
                           "Type":  8,
                           "IsLocal":  true,
                           "IsArray":  true,
                           "Origin":  "Win32_BIOS",
                           "Qualifiers":  "System.Management.QualifierData System.Management.QualifierData System.Management.QualifierData"
                       },
                       {
                           "Name":  "Manufacturer",
                           "Value":  null,
                           "Type":  8,
                           "IsLocal":  false,
                           "IsArray":  false,
                           "Origin":  "CIM_SoftwareElement",
                           "Qualifiers":  "System.Management.QualifierData System.Management.QualifierData System.Management.QualifierData System.Management.QualifierData"
                       },
                       {
                           "Name":  "Name",
                           "Value":  null,
                           "Type":  8,
                           "IsLocal":  false,
                           "IsArray":  false,
                           "Origin":  "CIM_ManagedSystemElement",
                           "Qualifiers":  "System.Management.QualifierData System.Management.QualifierData System.Management.QualifierData System.Management.QualifierData"
                       },
                       {
                           "Name":  "OtherTargetOS",
                           "Value":  null,
                           "Type":  8,
                           "IsLocal":  false,
                           "IsArray":  false,
                           "Origin":  "CIM_SoftwareElement",
                           "Qualifiers":  "System.Management.QualifierData System.Management.QualifierData System.Management.QualifierData System.Management.QualifierData"
                       },
                       {
                           "Name":  "PrimaryBIOS",
                           "Value":  null,
                           "Type":  11,
                           "IsLocal":  false,
                           "IsArray":  false,
                           "Origin":  "CIM_BIOSElement",
                           "Qualifiers":  "System.Management.QualifierData System.Management.QualifierData System.Management.QualifierData"
                       },
                       {
                           "Name":  "ReleaseDate",
                           "Value":  null,
                           "Type":  101,
                           "IsLocal":  true,
                           "IsArray":  false,
                           "Origin":  "Win32_BIOS",
                           "Qualifiers":  "System.Management.QualifierData System.Management.QualifierData"
                       },
                       {
                           "Name":  "SerialNumber",
                           "Value":  null,
                           "Type":  8,
                           "IsLocal":  false,
                           "IsArray":  false,
                           "Origin":  "CIM_SoftwareElement",
                           "Qualifiers":  "System.Management.QualifierData System.Management.QualifierData System.Management.QualifierData System.Management.QualifierData"
                       },
                       {
                           "Name":  "SMBIOSBIOSVersion",
                           "Value":  null,
                           "Type":  8,
                           "IsLocal":  true,
                           "IsArray":  false,
                           "Origin":  "Win32_BIOS",
                           "Qualifiers":  "System.Management.QualifierData System.Management.QualifierData System.Management.QualifierData"
                       },
                       {
                           "Name":  "SMBIOSMajorVersion",
                           "Value":  null,
                           "Type":  18,
                           "IsLocal":  true,
                           "IsArray":  false,
                           "Origin":  "Win32_BIOS",
                           "Qualifiers":  "System.Management.QualifierData System.Management.QualifierData System.Management.QualifierData"
                       },
                       {
                           "Name":  "SMBIOSMinorVersion",
                           "Value":  null,
                           "Type":  18,
                           "IsLocal":  true,
                           "IsArray":  false,
                           "Origin":  "Win32_BIOS",
                           "Qualifiers":  "System.Management.QualifierData System.Management.QualifierData System.Management.QualifierData"
                       },
                       {
                           "Name":  "SMBIOSPresent",
                           "Value":  null,
                           "Type":  11,
                           "IsLocal":  true,
                           "IsArray":  false,
                           "Origin":  "Win32_BIOS",
                           "Qualifiers":  "System.Management.QualifierData System.Management.QualifierData System.Management.QualifierData"
                       },
                       {
                           "Name":  "SoftwareElementID",
                           "Value":  null,
                           "Type":  8,
                           "IsLocal":  false,
                           "IsArray":  false,
                           "Origin":  "CIM_SoftwareElement",
                           "Qualifiers":  "System.Management.QualifierData System.Management.QualifierData System.Management.QualifierData System.Management.QualifierData"
                       },
                       {
                           "Name":  "SoftwareElementState",
                           "Value":  null,
                           "Type":  18,
                           "IsLocal":  false,
                           "IsArray":  false,
                           "Origin":  "CIM_SoftwareElement",
                           "Qualifiers":  "System.Management.QualifierData System.Management.QualifierData System.Management.QualifierData"
                       },
                       {
                           "Name":  "Status",
                           "Value":  null,
                           "Type":  8,
                           "IsLocal":  false,
                           "IsArray":  false,
                           "Origin":  "CIM_ManagedSystemElement",
                           "Qualifiers":  "System.Management.QualifierData System.Management.QualifierData System.Management.QualifierData System.Management.QualifierData"
                       },
                       {
                           "Name":  "SystemBiosMajorVersion",
                           "Value":  null,
                           "Type":  17,
                           "IsLocal":  true,
                           "IsArray":  false,
                           "Origin":  "Win32_BIOS",
                           "Qualifiers":  "System.Management.QualifierData System.Management.QualifierData System.Management.QualifierData"
                       },
                       {
                           "Name":  "SystemBiosMinorVersion",
                           "Value":  null,
                           "Type":  17,
                           "IsLocal":  true,
                           "IsArray":  false,
                           "Origin":  "Win32_BIOS",
                           "Qualifiers":  "System.Management.QualifierData System.Management.QualifierData System.Management.QualifierData"
                       },
                       {
                           "Name":  "TargetOperatingSystem",
                           "Value":  null,
                           "Type":  18,
                           "IsLocal":  false,
                           "IsArray":  false,
                           "Origin":  "CIM_SoftwareElement",
                           "Qualifiers":  "System.Management.QualifierData System.Management.QualifierData System.Management.QualifierData System.Management.QualifierData System.Management.QualifierData"
                       },
                       {
                           "Name":  "Version",
                           "Value":  null,
                           "Type":  8,
                           "IsLocal":  false,
                           "IsArray":  false,
                           "Origin":  "CIM_SoftwareElement",
                           "Qualifiers":  "System.Management.QualifierData System.Management.QualifierData System.Management.QualifierData System.Management.QualifierData System.Management.QualifierData System.Management.QualifierData"
                       }
                   ],
    "SystemProperties":  [
                             {
                                 "Name":  "__GENUS",
                                 "Value":  1,
                                 "Type":  3,
                                 "IsLocal":  true,
                                 "IsArray":  false,
                                 "Origin":  "___SYSTEM",
                                 "Qualifiers":  ""
                             },
                             {
                                 "Name":  "__CLASS",
                                 "Value":  "Win32_BIOS",
                                 "Type":  8,
                                 "IsLocal":  true,
                                 "IsArray":  false,
                                 "Origin":  "___SYSTEM",
                                 "Qualifiers":  ""
                             },
                             {
                                 "Name":  "__SUPERCLASS",
                                 "Value":  "CIM_BIOSElement",
                                 "Type":  8,
                                 "IsLocal":  true,
                                 "IsArray":  false,
                                 "Origin":  "___SYSTEM",
                                 "Qualifiers":  ""
                             },
                             {
                                 "Name":  "__DYNASTY",
                                 "Value":  "CIM_ManagedSystemElement",
                                 "Type":  8,
                                 "IsLocal":  true,
                                 "IsArray":  false,
                                 "Origin":  "___SYSTEM",
                                 "Qualifiers":  ""
                             },
                             {
                                 "Name":  "__RELPATH",
                                 "Value":  "Win32_BIOS",
                                 "Type":  8,
                                 "IsLocal":  true,
                                 "IsArray":  false,
                                 "Origin":  "___SYSTEM",
                                 "Qualifiers":  ""
                             },
                             {
                                 "Name":  "__PROPERTY_COUNT",
                                 "Value":  31,
                                 "Type":  3,
                                 "IsLocal":  true,
                                 "IsArray":  false,
                                 "Origin":  "___SYSTEM",
                                 "Qualifiers":  ""
                             },
                             {
                                 "Name":  "__DERIVATION",
                                 "Value":  "CIM_BIOSElement CIM_SoftwareElement CIM_LogicalElement CIM_ManagedSystemElement",
                                 "Type":  8,
                                 "IsLocal":  true,
                                 "IsArray":  true,
                                 "Origin":  "___SYSTEM",
                                 "Qualifiers":  ""
                             },
                             {
                                 "Name":  "__SERVER",
                                 "Value":  "DAEDALUS",
                                 "Type":  8,
                                 "IsLocal":  true,
                                 "IsArray":  false,
                                 "Origin":  "___SYSTEM",
                                 "Qualifiers":  ""
                             },
                             {
                                 "Name":  "__NAMESPACE",
                                 "Value":  "ROOT\\cimv2",
                                 "Type":  8,
                                 "IsLocal":  true,
                                 "IsArray":  false,
                                 "Origin":  "___SYSTEM",
                                 "Qualifiers":  ""
                             },
                             {
                                 "Name":  "__PATH",
                                 "Value":  "\\\\DAEDALUS\\ROOT\\cimv2:Win32_BIOS",
                                 "Type":  8,
                                 "IsLocal":  true,
                                 "IsArray":  false,
                                 "Origin":  "___SYSTEM",
                                 "Qualifiers":  ""
                             }
                         ],
    "Qualifiers":  [
                       {
                           "Name":  "dynamic",
                           "Value":  true,
                           "IsAmended":  false,
                           "IsLocal":  true,
                           "PropagatesToInstance":  true,
                           "PropagatesToSubclass":  false,
                           "IsOverridable":  true
                       },
                       {
                           "Name":  "Locale",
                           "Value":  1033,
                           "IsAmended":  false,
                           "IsLocal":  true,
                           "PropagatesToInstance":  true,
                           "PropagatesToSubclass":  false,
                           "IsOverridable":  true
                       },
                       {
                           "Name":  "provider",
                           "Value":  "CIMWin32",
                           "IsAmended":  false,
                           "IsLocal":  true,
                           "PropagatesToInstance":  true,
                           "PropagatesToSubclass":  false,
                           "IsOverridable":  true
                       },
                       {
                           "Name":  "UUID",
                           "Value":  "{8502C4E1-5FBB-11D2-AAC1-006008C78BC7}",
                           "IsAmended":  false,
                           "IsLocal":  true,
                           "PropagatesToInstance":  true,
                           "PropagatesToSubclass":  false,
                           "IsOverridable":  true
                       }
                   ],
    "Site":  null,
    "Container":  null,
    "PSComputerName":  "DAEDALUS",
    "Name":  "Win32_BIOS",
    "__GENUS":  1,
    "__CLASS":  "Win32_BIOS",
    "__SUPERCLASS":  "CIM_BIOSElement",
    "__DYNASTY":  "CIM_ManagedSystemElement",
    "__RELPATH":  "Win32_BIOS",
    "__PROPERTY_COUNT":  31,
    "__DERIVATION":  [
                         "CIM_BIOSElement",
                         "CIM_SoftwareElement",
                         "CIM_LogicalElement",
                         "CIM_ManagedSystemElement"
                     ],
    "__SERVER":  "DAEDALUS",
    "__NAMESPACE":  "ROOT\\cimv2",
    "__PATH":  "\\\\DAEDALUS\\ROOT\\cimv2:Win32_BIOS"
}
