{
    "Path":  {
                 "Path":  "\\\\DAEDALUS\\ROOT\\cimv2:Win32_SecuritySettingOfLogicalFile",
                 "RelativePath":  "Win32_SecuritySettingOfLogicalFile",
                 "Server":  "DAEDALUS",
                 "NamespacePath":  "ROOT\\cimv2",
                 "ClassName":  "Win32_SecuritySettingOfLogicalFile",
                 "IsClass":  true,
                 "IsInstance":  false,
                 "IsSingleton":  false
             },
    "Derivation":  [
                       "Win32_SecuritySettingOfObject",
                       "CIM_ElementSetting"
                   ],
    "Methods":  [

                ],
    "Scope":  {
                  "IsConnected":  true,
                  "Options":  {
                                  "Locale":  "",
                                  "Username":  null,
                                  "Authority":  "",
                                  "Impersonation":  3,
                                  "Authentication":  6,
                                  "EnablePrivileges":  false,
                                  "Context":  "",
                                  "Timeout":  "10675199.02:48:05.4775807"
                              },
                  "Path":  {
                               "Path":  "\\\\localhost\\root\\cimv2",
                               "RelativePath":  "",
                               "Server":  "localhost",
                               "NamespacePath":  "root\\cimv2",
                               "ClassName":  "",
                               "IsClass":  false,
                               "IsInstance":  false,
                               "IsSingleton":  false
                           }
              },
    "Options":  {
                    "UseAmendedQualifiers":  false,
                    "Context":  [

                                ],
                    "Timeout":  {
                                    "Ticks":  9223372036854775807,
                                    "Days":  10675199,
                                    "Hours":  2,
                                    "Milliseconds":  477,
                                    "Minutes":  48,
                                    "Seconds":  5,
                                    "TotalDays":  10675199.116730064,
                                    "TotalHours":  256204778.80152154,
                                    "TotalMilliseconds":  922337203685477,
                                    "TotalMinutes":  15372286728.091293,
                                    "TotalSeconds":  922337203685.47754
                                }
                },
    "ClassPath":  {
                      "Path":  "\\\\DAEDALUS\\ROOT\\cimv2:Win32_SecuritySettingOfLogicalFile",
                      "RelativePath":  "Win32_SecuritySettingOfLogicalFile",
                      "Server":  "DAEDALUS",
                      "NamespacePath":  "ROOT\\cimv2",
                      "ClassName":  "Win32_SecuritySettingOfLogicalFile",
                      "IsClass":  true,
                      "IsInstance":  false,
                      "IsSingleton":  false
                  },
    "Properties":  [
                       {
                           "Name":  "Element",
                           "Value":  null,
                           "Type":  102,
                           "IsLocal":  false,
                           "IsArray":  false,
                           "Origin":  "CIM_ElementSetting",
                           "Qualifiers":  "System.Management.QualifierData System.Management.QualifierData System.Management.QualifierData System.Management.QualifierData"
                       },
                       {
                           "Name":  "Setting",
                           "Value":  null,
                           "Type":  102,
                           "IsLocal":  false,
                           "IsArray":  false,
                           "Origin":  "CIM_ElementSetting",
                           "Qualifiers":  "System.Management.QualifierData System.Management.QualifierData System.Management.QualifierData System.Management.QualifierData"
                       }
                   ],
    "SystemProperties":  [
                             {
                                 "Name":  "__GENUS",
                                 "Value":  1,
                                 "Type":  3,
                                 "IsLocal":  true,
                                 "IsArray":  false,
                                 "Origin":  "___SYSTEM",
                                 "Qualifiers":  ""
                             },
                             {
                                 "Name":  "__CLASS",
                                 "Value":  "Win32_SecuritySettingOfLogicalFile",
                                 "Type":  8,
                                 "IsLocal":  true,
                                 "IsArray":  false,
                                 "Origin":  "___SYSTEM",
                                 "Qualifiers":  ""
                             },
                             {
                                 "Name":  "__SUPERCLASS",
                                 "Value":  "Win32_SecuritySettingOfObject",
                                 "Type":  8,
                                 "IsLocal":  true,
                                 "IsArray":  false,
                                 "Origin":  "___SYSTEM",
                                 "Qualifiers":  ""
                             },
                             {
                                 "Name":  "__DYNASTY",
                                 "Value":  "CIM_ElementSetting",
                                 "Type":  8,
                                 "IsLocal":  true,
                                 "IsArray":  false,
                                 "Origin":  "___SYSTEM",
                                 "Qualifiers":  ""
                             },
                             {
                                 "Name":  "__RELPATH",
                                 "Value":  "Win32_SecuritySettingOfLogicalFile",
                                 "Type":  8,
                                 "IsLocal":  true,
                                 "IsArray":  false,
                                 "Origin":  "___SYSTEM",
                                 "Qualifiers":  ""
                             },
                             {
                                 "Name":  "__PROPERTY_COUNT",
                                 "Value":  2,
                                 "Type":  3,
                                 "IsLocal":  true,
                                 "IsArray":  false,
                                 "Origin":  "___SYSTEM",
                                 "Qualifiers":  ""
                             },
                             {
                                 "Name":  "__DERIVATION",
                                 "Value":  "Win32_SecuritySettingOfObject CIM_ElementSetting",
                                 "Type":  8,
                                 "IsLocal":  true,
                                 "IsArray":  true,
                                 "Origin":  "___SYSTEM",
                                 "Qualifiers":  ""
                             },
                             {
                                 "Name":  "__SERVER",
                                 "Value":  "DAEDALUS",
                                 "Type":  8,
                                 "IsLocal":  true,
                                 "IsArray":  false,
                                 "Origin":  "___SYSTEM",
                                 "Qualifiers":  ""
                             },
                             {
                                 "Name":  "__NAMESPACE",
                                 "Value":  "ROOT\\cimv2",
                                 "Type":  8,
                                 "IsLocal":  true,
                                 "IsArray":  false,
                                 "Origin":  "___SYSTEM",
                                 "Qualifiers":  ""
                             },
                             {
                                 "Name":  "__PATH",
                                 "Value":  "\\\\DAEDALUS\\ROOT\\cimv2:Win32_SecuritySettingOfLogicalFile",
                                 "Type":  8,
                                 "IsLocal":  true,
                                 "IsArray":  false,
                                 "Origin":  "___SYSTEM",
                                 "Qualifiers":  ""
                             }
                         ],
    "Qualifiers":  [
                       {
                           "Name":  "Association",
                           "Value":  true,
                           "IsAmended":  false,
                           "IsLocal":  false,
                           "PropagatesToInstance":  true,
                           "PropagatesToSubclass":  true,
                           "IsOverridable":  false
                       },
                       {
                           "Name":  "dynamic",
                           "Value":  true,
                           "IsAmended":  false,
                           "IsLocal":  true,
                           "PropagatesToInstance":  true,
                           "PropagatesToSubclass":  false,
                           "IsOverridable":  true
                       },
                       {
                           "Name":  "Locale",
                           "Value":  1033,
                           "IsAmended":  false,
                           "IsLocal":  true,
                           "PropagatesToInstance":  true,
                           "PropagatesToSubclass":  false,
                           "IsOverridable":  true
                       },
                       {
                           "Name":  "provider",
                           "Value":  "SECRCW32",
                           "IsAmended":  false,
                           "IsLocal":  true,
                           "PropagatesToInstance":  true,
                           "PropagatesToSubclass":  false,
                           "IsOverridable":  true
                       },
                       {
                           "Name":  "UUID",
                           "Value":  "{8502C58D-5FBB-11D2-AAC1-006008C78BC7}",
                           "IsAmended":  false,
                           "IsLocal":  true,
                           "PropagatesToInstance":  true,
                           "PropagatesToSubclass":  false,
                           "IsOverridable":  true
                       }
                   ],
    "Site":  null,
    "Container":  null,
    "PSComputerName":  "DAEDALUS",
    "Name":  "Win32_SecuritySettingOfLogicalFile",
    "__GENUS":  1,
    "__CLASS":  "Win32_SecuritySettingOfLogicalFile",
    "__SUPERCLASS":  "Win32_SecuritySettingOfObject",
    "__DYNASTY":  "CIM_ElementSetting",
    "__RELPATH":  "Win32_SecuritySettingOfLogicalFile",
    "__PROPERTY_COUNT":  2,
    "__DERIVATION":  [
                         "Win32_SecuritySettingOfObject",
                         "CIM_ElementSetting"
                     ],
    "__SERVER":  "DAEDALUS",
    "__NAMESPACE":  "ROOT\\cimv2",
    "__PATH":  "\\\\DAEDALUS\\ROOT\\cimv2:Win32_SecuritySettingOfLogicalFile"
}
