{
    "Path":  {
                 "Path":  "\\\\DAEDALUS\\root\\cimv2:Win32_PerfRawData_Counters_WFPClassify",
                 "RelativePath":  "Win32_PerfRawData_Counters_WFPClassify",
                 "Server":  "DAEDALUS",
                 "NamespacePath":  "root\\cimv2",
                 "ClassName":  "Win32_PerfRawData_Counters_WFPClassify",
                 "IsClass":  true,
                 "IsInstance":  false,
                 "IsSingleton":  false
             },
    "Derivation":  [
                       "Win32_PerfRawData",
                       "Win32_Perf",
                       "CIM_StatisticalInformation"
                   ],
    "Methods":  [

                ],
    "Scope":  {
                  "IsConnected":  true,
                  "Options":  {
                                  "Locale":  "",
                                  "Username":  null,
                                  "Authority":  "",
                                  "Impersonation":  3,
                                  "Authentication":  6,
                                  "EnablePrivileges":  false,
                                  "Context":  "",
                                  "Timeout":  "10675199.02:48:05.4775807"
                              },
                  "Path":  {
                               "Path":  "\\\\localhost\\root\\cimv2",
                               "RelativePath":  "",
                               "Server":  "localhost",
                               "NamespacePath":  "root\\cimv2",
                               "ClassName":  "",
                               "IsClass":  false,
                               "IsInstance":  false,
                               "IsSingleton":  false
                           }
              },
    "Options":  {
                    "UseAmendedQualifiers":  false,
                    "Context":  [

                                ],
                    "Timeout":  {
                                    "Ticks":  9223372036854775807,
                                    "Days":  10675199,
                                    "Hours":  2,
                                    "Milliseconds":  477,
                                    "Minutes":  48,
                                    "Seconds":  5,
                                    "TotalDays":  10675199.116730064,
                                    "TotalHours":  256204778.80152154,
                                    "TotalMilliseconds":  922337203685477,
                                    "TotalMinutes":  15372286728.091293,
                                    "TotalSeconds":  922337203685.47754
                                }
                },
    "ClassPath":  {
                      "Path":  "\\\\DAEDALUS\\root\\cimv2:Win32_PerfRawData_Counters_WFPClassify",
                      "RelativePath":  "Win32_PerfRawData_Counters_WFPClassify",
                      "Server":  "DAEDALUS",
                      "NamespacePath":  "root\\cimv2",
                      "ClassName":  "Win32_PerfRawData_Counters_WFPClassify",
                      "IsClass":  true,
                      "IsInstance":  false,
                      "IsSingleton":  false
                  },
    "Properties":  [
                       {
                           "Name":  "Caption",
                           "Value":  null,
                           "Type":  8,
                           "IsLocal":  false,
                           "IsArray":  false,
                           "Origin":  "CIM_StatisticalInformation",
                           "Qualifiers":  "System.Management.QualifierData System.Management.QualifierData System.Management.QualifierData"
                       },
                       {
                           "Name":  "Description",
                           "Value":  null,
                           "Type":  8,
                           "IsLocal":  false,
                           "IsArray":  false,
                           "Origin":  "CIM_StatisticalInformation",
                           "Qualifiers":  "System.Management.QualifierData System.Management.QualifierData"
                       },
                       {
                           "Name":  "Frequency_Object",
                           "Value":  null,
                           "Type":  21,
                           "IsLocal":  false,
                           "IsArray":  false,
                           "Origin":  "Win32_Perf",
                           "Qualifiers":  "System.Management.QualifierData"
                       },
                       {
                           "Name":  "Frequency_PerfTime",
                           "Value":  null,
                           "Type":  21,
                           "IsLocal":  false,
                           "IsArray":  false,
                           "Origin":  "Win32_Perf",
                           "Qualifiers":  "System.Management.QualifierData"
                       },
                       {
                           "Name":  "Frequency_Sys100NS",
                           "Value":  null,
                           "Type":  21,
                           "IsLocal":  false,
                           "IsArray":  false,
                           "Origin":  "Win32_Perf",
                           "Qualifiers":  "System.Management.QualifierData"
                       },
                       {
                           "Name":  "FWPMLAYERALEAUTHCONNECTV4",
                           "Value":  null,
                           "Type":  21,
                           "IsLocal":  true,
                           "IsArray":  false,
                           "Origin":  "Win32_PerfRawData_Counters_WFPClassify",
                           "Qualifiers":  "System.Management.QualifierData System.Management.QualifierData System.Management.QualifierData System.Management.QualifierData System.Management.QualifierData System.Management.QualifierData System.Management.QualifierData System.Management.QualifierData"
                       },
                       {
                           "Name":  "FWPMLAYERALEAUTHCONNECTV4DISCARD",
                           "Value":  null,
                           "Type":  21,
                           "IsLocal":  true,
                           "IsArray":  false,
                           "Origin":  "Win32_PerfRawData_Counters_WFPClassify",
                           "Qualifiers":  "System.Management.QualifierData System.Management.QualifierData System.Management.QualifierData System.Management.QualifierData System.Management.QualifierData System.Management.QualifierData System.Management.QualifierData System.Management.QualifierData"
                       },
                       {
                           "Name":  "FWPMLAYERALEAUTHCONNECTV6",
                           "Value":  null,
                           "Type":  21,
                           "IsLocal":  true,
                           "IsArray":  false,
                           "Origin":  "Win32_PerfRawData_Counters_WFPClassify",
                           "Qualifiers":  "System.Management.QualifierData System.Management.QualifierData System.Management.QualifierData System.Management.QualifierData System.Management.QualifierData System.Management.QualifierData System.Management.QualifierData System.Management.QualifierData"
                       },
                       {
                           "Name":  "FWPMLAYERALEAUTHCONNECTV6DISCARD",
                           "Value":  null,
                           "Type":  21,
                           "IsLocal":  true,
                           "IsArray":  false,
                           "Origin":  "Win32_PerfRawData_Counters_WFPClassify",
                           "Qualifiers":  "System.Management.QualifierData System.Management.QualifierData System.Management.QualifierData System.Management.QualifierData System.Management.QualifierData System.Management.QualifierData System.Management.QualifierData System.Management.QualifierData"
                       },
                       {
                           "Name":  "FWPMLAYERALEAUTHLISTENV4",
                           "Value":  null,
                           "Type":  21,
                           "IsLocal":  true,
                           "IsArray":  false,
                           "Origin":  "Win32_PerfRawData_Counters_WFPClassify",
                           "Qualifiers":  "System.Management.QualifierData System.Management.QualifierData System.Management.QualifierData System.Management.QualifierData System.Management.QualifierData System.Management.QualifierData System.Management.QualifierData System.Management.QualifierData"
                       },
                       {
                           "Name":  "FWPMLAYERALEAUTHLISTENV4DISCARD",
                           "Value":  null,
                           "Type":  21,
                           "IsLocal":  true,
                           "IsArray":  false,
                           "Origin":  "Win32_PerfRawData_Counters_WFPClassify",
                           "Qualifiers":  "System.Management.QualifierData System.Management.QualifierData System.Management.QualifierData System.Management.QualifierData System.Management.QualifierData System.Management.QualifierData System.Management.QualifierData System.Management.QualifierData"
                       },
                       {
                           "Name":  "FWPMLAYERALEAUTHLISTENV6",
                           "Value":  null,
                           "Type":  21,
                           "IsLocal":  true,
                           "IsArray":  false,
                           "Origin":  "Win32_PerfRawData_Counters_WFPClassify",
                           "Qualifiers":  "System.Management.QualifierData System.Management.QualifierData System.Management.QualifierData System.Management.QualifierData System.Management.QualifierData System.Management.QualifierData System.Management.QualifierData System.Management.QualifierData"
                       },
                       {
                           "Name":  "FWPMLAYERALEAUTHLISTENV6DISCARD",
                           "Value":  null,
                           "Type":  21,
                           "IsLocal":  true,
                           "IsArray":  false,
                           "Origin":  "Win32_PerfRawData_Counters_WFPClassify",
                           "Qualifiers":  "System.Management.QualifierData System.Management.QualifierData System.Management.QualifierData System.Management.QualifierData System.Management.QualifierData System.Management.QualifierData System.Management.QualifierData System.Management.QualifierData"
                       },
                       {
                           "Name":  "FWPMLAYERALEAUTHRECVACCEPTV4",
                           "Value":  null,
                           "Type":  21,
                           "IsLocal":  true,
                           "IsArray":  false,
                           "Origin":  "Win32_PerfRawData_Counters_WFPClassify",
                           "Qualifiers":  "System.Management.QualifierData System.Management.QualifierData System.Management.QualifierData System.Management.QualifierData System.Management.QualifierData System.Management.QualifierData System.Management.QualifierData System.Management.QualifierData"
                       },
                       {
                           "Name":  "FWPMLAYERALEAUTHRECVACCEPTV4DISCARD",
                           "Value":  null,
                           "Type":  21,
                           "IsLocal":  true,
                           "IsArray":  false,
                           "Origin":  "Win32_PerfRawData_Counters_WFPClassify",
                           "Qualifiers":  "System.Management.QualifierData System.Management.QualifierData System.Management.QualifierData System.Management.QualifierData System.Management.QualifierData System.Management.QualifierData System.Management.QualifierData System.Management.QualifierData"
                       },
                       {
                           "Name":  "FWPMLAYERALEAUTHRECVACCEPTV6",
                           "Value":  null,
                           "Type":  21,
                           "IsLocal":  true,
                           "IsArray":  false,
                           "Origin":  "Win32_PerfRawData_Counters_WFPClassify",
                           "Qualifiers":  "System.Management.QualifierData System.Management.QualifierData System.Management.QualifierData System.Management.QualifierData System.Management.QualifierData System.Management.QualifierData System.Management.QualifierData System.Management.QualifierData"
                       },
                       {
                           "Name":  "FWPMLAYERALEAUTHRECVACCEPTV6DISCARD",
                           "Value":  null,
                           "Type":  21,
                           "IsLocal":  true,
                           "IsArray":  false,
                           "Origin":  "Win32_PerfRawData_Counters_WFPClassify",
                           "Qualifiers":  "System.Management.QualifierData System.Management.QualifierData System.Management.QualifierData System.Management.QualifierData System.Management.QualifierData System.Management.QualifierData System.Management.QualifierData System.Management.QualifierData"
                       },
                       {
                           "Name":  "FWPMLAYERALEBINDREDIRECTV4",
                           "Value":  null,
                           "Type":  21,
                           "IsLocal":  true,
                           "IsArray":  false,
                           "Origin":  "Win32_PerfRawData_Counters_WFPClassify",
                           "Qualifiers":  "System.Management.QualifierData System.Management.QualifierData System.Management.QualifierData System.Management.QualifierData System.Management.QualifierData System.Management.QualifierData System.Management.QualifierData System.Management.QualifierData"
                       },
                       {
                           "Name":  "FWPMLAYERALEBINDREDIRECTV6",
                           "Value":  null,
                           "Type":  21,
                           "IsLocal":  true,
                           "IsArray":  false,
                           "Origin":  "Win32_PerfRawData_Counters_WFPClassify",
                           "Qualifiers":  "System.Management.QualifierData System.Management.QualifierData System.Management.QualifierData System.Management.QualifierData System.Management.QualifierData System.Management.QualifierData System.Management.QualifierData System.Management.QualifierData"
                       },
                       {
                           "Name":  "FWPMLAYERALECONNECTREDIRECTV4",
                           "Value":  null,
                           "Type":  21,
                           "IsLocal":  true,
                           "IsArray":  false,
                           "Origin":  "Win32_PerfRawData_Counters_WFPClassify",
                           "Qualifiers":  "System.Management.QualifierData System.Management.QualifierData System.Management.QualifierData System.Management.QualifierData System.Management.QualifierData System.Management.QualifierData System.Management.QualifierData System.Management.QualifierData"
                       },
                       {
                           "Name":  "FWPMLAYERALECONNECTREDIRECTV6",
                           "Value":  null,
                           "Type":  21,
                           "IsLocal":  true,
                           "IsArray":  false,
                           "Origin":  "Win32_PerfRawData_Counters_WFPClassify",
                           "Qualifiers":  "System.Management.QualifierData System.Management.QualifierData System.Management.QualifierData System.Management.QualifierData System.Management.QualifierData System.Management.QualifierData System.Management.QualifierData System.Management.QualifierData"
                       },
                       {
                           "Name":  "FWPMLAYERALEENDPOINTCLOSUREV4",
                           "Value":  null,
                           "Type":  21,
                           "IsLocal":  true,
                           "IsArray":  false,
                           "Origin":  "Win32_PerfRawData_Counters_WFPClassify",
                           "Qualifiers":  "System.Management.QualifierData System.Management.QualifierData System.Management.QualifierData System.Management.QualifierData System.Management.QualifierData System.Management.QualifierData System.Management.QualifierData System.Management.QualifierData"
                       },
                       {
                           "Name":  "FWPMLAYERALEENDPOINTCLOSUREV6",
                           "Value":  null,
                           "Type":  21,
                           "IsLocal":  true,
                           "IsArray":  false,
                           "Origin":  "Win32_PerfRawData_Counters_WFPClassify",
                           "Qualifiers":  "System.Management.QualifierData System.Management.QualifierData System.Management.QualifierData System.Management.QualifierData System.Management.QualifierData System.Management.QualifierData System.Management.QualifierData System.Management.QualifierData"
                       },
                       {
                           "Name":  "FWPMLAYERALEFLOWESTABLISHEDV4",
                           "Value":  null,
                           "Type":  21,
                           "IsLocal":  true,
                           "IsArray":  false,
                           "Origin":  "Win32_PerfRawData_Counters_WFPClassify",
                           "Qualifiers":  "System.Management.QualifierData System.Management.QualifierData System.Management.QualifierData System.Management.QualifierData System.Management.QualifierData System.Management.QualifierData System.Management.QualifierData System.Management.QualifierData"
                       },
                       {
                           "Name":  "FWPMLAYERALEFLOWESTABLISHEDV4DISCARD",
                           "Value":  null,
                           "Type":  21,
                           "IsLocal":  true,
                           "IsArray":  false,
                           "Origin":  "Win32_PerfRawData_Counters_WFPClassify",
                           "Qualifiers":  "System.Management.QualifierData System.Management.QualifierData System.Management.QualifierData System.Management.QualifierData System.Management.QualifierData System.Management.QualifierData System.Management.QualifierData System.Management.QualifierData"
                       },
                       {
                           "Name":  "FWPMLAYERALEFLOWESTABLISHEDV6",
                           "Value":  null,
                           "Type":  21,
                           "IsLocal":  true,
                           "IsArray":  false,
                           "Origin":  "Win32_PerfRawData_Counters_WFPClassify",
                           "Qualifiers":  "System.Management.QualifierData System.Management.QualifierData System.Management.QualifierData System.Management.QualifierData System.Management.QualifierData System.Management.QualifierData System.Management.QualifierData System.Management.QualifierData"
                       },
                       {
                           "Name":  "FWPMLAYERALEFLOWESTABLISHEDV6DISCARD",
                           "Value":  null,
                           "Type":  21,
                           "IsLocal":  true,
                           "IsArray":  false,
                           "Origin":  "Win32_PerfRawData_Counters_WFPClassify",
                           "Qualifiers":  "System.Management.QualifierData System.Management.QualifierData System.Management.QualifierData System.Management.QualifierData System.Management.QualifierData System.Management.QualifierData System.Management.QualifierData System.Management.QualifierData"
                       },
                       {
                           "Name":  "FWPMLAYERALEPRECLASSIFYIPLOCALADDRESSV4",
                           "Value":  null,
                           "Type":  21,
                           "IsLocal":  true,
                           "IsArray":  false,
                           "Origin":  "Win32_PerfRawData_Counters_WFPClassify",
                           "Qualifiers":  "System.Management.QualifierData System.Management.QualifierData System.Management.QualifierData System.Management.QualifierData System.Management.QualifierData System.Management.QualifierData System.Management.QualifierData System.Management.QualifierData"
                       },
                       {
                           "Name":  "FWPMLAYERALEPRECLASSIFYIPLOCALADDRESSV6",
                           "Value":  null,
                           "Type":  21,
                           "IsLocal":  true,
                           "IsArray":  false,
                           "Origin":  "Win32_PerfRawData_Counters_WFPClassify",
                           "Qualifiers":  "System.Management.QualifierData System.Management.QualifierData System.Management.QualifierData System.Management.QualifierData System.Management.QualifierData System.Management.QualifierData System.Management.QualifierData System.Management.QualifierData"
                       },
                       {
                           "Name":  "FWPMLAYERALEPRECLASSIFYIPLOCALPORTV4",
                           "Value":  null,
                           "Type":  21,
                           "IsLocal":  true,
                           "IsArray":  false,
                           "Origin":  "Win32_PerfRawData_Counters_WFPClassify",
                           "Qualifiers":  "System.Management.QualifierData System.Management.QualifierData System.Management.QualifierData System.Management.QualifierData System.Management.QualifierData System.Management.QualifierData System.Management.QualifierData System.Management.QualifierData"
                       },
                       {
                           "Name":  "FWPMLAYERALEPRECLASSIFYIPLOCALPORTV6",
                           "Value":  null,
                           "Type":  21,
                           "IsLocal":  true,
                           "IsArray":  false,
                           "Origin":  "Win32_PerfRawData_Counters_WFPClassify",
                           "Qualifiers":  "System.Management.QualifierData System.Management.QualifierData System.Management.QualifierData System.Management.QualifierData System.Management.QualifierData System.Management.QualifierData System.Management.QualifierData System.Management.QualifierData"
                       },
                       {
                           "Name":  "FWPMLAYERALEPRECLASSIFYIPREMOTEADDRESSV4",
                           "Value":  null,
                           "Type":  21,
                           "IsLocal":  true,
                           "IsArray":  false,
                           "Origin":  "Win32_PerfRawData_Counters_WFPClassify",
                           "Qualifiers":  "System.Management.QualifierData System.Management.QualifierData System.Management.QualifierData System.Management.QualifierData System.Management.QualifierData System.Management.QualifierData System.Management.QualifierData System.Management.QualifierData"
                       },
                       {
                           "Name":  "FWPMLAYERALEPRECLASSIFYIPREMOTEADDRESSV6",
                           "Value":  null,
                           "Type":  21,
                           "IsLocal":  true,
                           "IsArray":  false,
                           "Origin":  "Win32_PerfRawData_Counters_WFPClassify",
                           "Qualifiers":  "System.Management.QualifierData System.Management.QualifierData System.Management.QualifierData System.Management.QualifierData System.Management.QualifierData System.Management.QualifierData System.Management.QualifierData System.Management.QualifierData"
                       },
                       {
                           "Name":  "FWPMLAYERALEPRECLASSIFYIPREMOTEPORTV4",
                           "Value":  null,
                           "Type":  21,
                           "IsLocal":  true,
                           "IsArray":  false,
                           "Origin":  "Win32_PerfRawData_Counters_WFPClassify",
                           "Qualifiers":  "System.Management.QualifierData System.Management.QualifierData System.Management.QualifierData System.Management.QualifierData System.Management.QualifierData System.Management.QualifierData System.Management.QualifierData System.Management.QualifierData"
                       },
                       {
                           "Name":  "FWPMLAYERALEPRECLASSIFYIPREMOTEPORTV6",
                           "Value":  null,
                           "Type":  21,
                           "IsLocal":  true,
                           "IsArray":  false,
                           "Origin":  "Win32_PerfRawData_Counters_WFPClassify",
                           "Qualifiers":  "System.Management.QualifierData System.Management.QualifierData System.Management.QualifierData System.Management.QualifierData System.Management.QualifierData System.Management.QualifierData System.Management.QualifierData System.Management.QualifierData"
                       },
                       {
                           "Name":  "FWPMLAYERALERESOURCEASSIGNMENTV4",
                           "Value":  null,
                           "Type":  21,
                           "IsLocal":  true,
                           "IsArray":  false,
                           "Origin":  "Win32_PerfRawData_Counters_WFPClassify",
                           "Qualifiers":  "System.Management.QualifierData System.Management.QualifierData System.Management.QualifierData System.Management.QualifierData System.Management.QualifierData System.Management.QualifierData System.Management.QualifierData System.Management.QualifierData"
                       },
                       {
                           "Name":  "FWPMLAYERALERESOURCEASSIGNMENTV4DISCARD",
                           "Value":  null,
                           "Type":  21,
                           "IsLocal":  true,
                           "IsArray":  false,
                           "Origin":  "Win32_PerfRawData_Counters_WFPClassify",
                           "Qualifiers":  "System.Management.QualifierData System.Management.QualifierData System.Management.QualifierData System.Management.QualifierData System.Management.QualifierData System.Management.QualifierData System.Management.QualifierData System.Management.QualifierData"
                       },
                       {
                           "Name":  "FWPMLAYERALERESOURCEASSIGNMENTV6",
                           "Value":  null,
                           "Type":  21,
                           "IsLocal":  true,
                           "IsArray":  false,
                           "Origin":  "Win32_PerfRawData_Counters_WFPClassify",
                           "Qualifiers":  "System.Management.QualifierData System.Management.QualifierData System.Management.QualifierData System.Management.QualifierData System.Management.QualifierData System.Management.QualifierData System.Management.QualifierData System.Management.QualifierData"
                       },
                       {
                           "Name":  "FWPMLAYERALERESOURCEASSIGNMENTV6DISCARD",
                           "Value":  null,
                           "Type":  21,
                           "IsLocal":  true,
                           "IsArray":  false,
                           "Origin":  "Win32_PerfRawData_Counters_WFPClassify",
                           "Qualifiers":  "System.Management.QualifierData System.Management.QualifierData System.Management.QualifierData System.Management.QualifierData System.Management.QualifierData System.Management.QualifierData System.Management.QualifierData System.Management.QualifierData"
                       },
                       {
                           "Name":  "FWPMLAYERALERESOURCERELEASEV4",
                           "Value":  null,
                           "Type":  21,
                           "IsLocal":  true,
                           "IsArray":  false,
                           "Origin":  "Win32_PerfRawData_Counters_WFPClassify",
                           "Qualifiers":  "System.Management.QualifierData System.Management.QualifierData System.Management.QualifierData System.Management.QualifierData System.Management.QualifierData System.Management.QualifierData System.Management.QualifierData System.Management.QualifierData"
                       },
                       {
                           "Name":  "FWPMLAYERALERESOURCERELEASEV6",
                           "Value":  null,
                           "Type":  21,
                           "IsLocal":  true,
                           "IsArray":  false,
                           "Origin":  "Win32_PerfRawData_Counters_WFPClassify",
                           "Qualifiers":  "System.Management.QualifierData System.Management.QualifierData System.Management.QualifierData System.Management.QualifierData System.Management.QualifierData System.Management.QualifierData System.Management.QualifierData System.Management.QualifierData"
                       },
                       {
                           "Name":  "FWPMLAYERDATAGRAMDATAV4",
                           "Value":  null,
                           "Type":  21,
                           "IsLocal":  true,
                           "IsArray":  false,
                           "Origin":  "Win32_PerfRawData_Counters_WFPClassify",
                           "Qualifiers":  "System.Management.QualifierData System.Management.QualifierData System.Management.QualifierData System.Management.QualifierData System.Management.QualifierData System.Management.QualifierData System.Management.QualifierData System.Management.QualifierData"
                       },
                       {
                           "Name":  "FWPMLAYERDATAGRAMDATAV4DISCARD",
                           "Value":  null,
                           "Type":  21,
                           "IsLocal":  true,
                           "IsArray":  false,
                           "Origin":  "Win32_PerfRawData_Counters_WFPClassify",
                           "Qualifiers":  "System.Management.QualifierData System.Management.QualifierData System.Management.QualifierData System.Management.QualifierData System.Management.QualifierData System.Management.QualifierData System.Management.QualifierData System.Management.QualifierData"
                       },
                       {
                           "Name":  "FWPMLAYERDATAGRAMDATAV6",
                           "Value":  null,
                           "Type":  21,
                           "IsLocal":  true,
                           "IsArray":  false,
                           "Origin":  "Win32_PerfRawData_Counters_WFPClassify",
                           "Qualifiers":  "System.Management.QualifierData System.Management.QualifierData System.Management.QualifierData System.Management.QualifierData System.Management.QualifierData System.Management.QualifierData System.Management.QualifierData System.Management.QualifierData"
                       },
                       {
                           "Name":  "FWPMLAYERDATAGRAMDATAV6DISCARD",
                           "Value":  null,
                           "Type":  21,
                           "IsLocal":  true,
                           "IsArray":  false,
                           "Origin":  "Win32_PerfRawData_Counters_WFPClassify",
                           "Qualifiers":  "System.Management.QualifierData System.Management.QualifierData System.Management.QualifierData System.Management.QualifierData System.Management.QualifierData System.Management.QualifierData System.Management.QualifierData System.Management.QualifierData"
                       },
                       {
                           "Name":  "FWPMLAYEREGRESSVSWITCHETHERNET",
                           "Value":  null,
                           "Type":  21,
                           "IsLocal":  true,
                           "IsArray":  false,
                           "Origin":  "Win32_PerfRawData_Counters_WFPClassify",
                           "Qualifiers":  "System.Management.QualifierData System.Management.QualifierData System.Management.QualifierData System.Management.QualifierData System.Management.QualifierData System.Management.QualifierData System.Management.QualifierData System.Management.QualifierData"
                       },
                       {
                           "Name":  "FWPMLAYEREGRESSVSWITCHTRANSPORTV4",
                           "Value":  null,
                           "Type":  21,
                           "IsLocal":  true,
                           "IsArray":  false,
                           "Origin":  "Win32_PerfRawData_Counters_WFPClassify",
                           "Qualifiers":  "System.Management.QualifierData System.Management.QualifierData System.Management.QualifierData System.Management.QualifierData System.Management.QualifierData System.Management.QualifierData System.Management.QualifierData System.Management.QualifierData"
                       },
                       {
                           "Name":  "FWPMLAYEREGRESSVSWITCHTRANSPORTV6",
                           "Value":  null,
                           "Type":  21,
                           "IsLocal":  true,
                           "IsArray":  false,
                           "Origin":  "Win32_PerfRawData_Counters_WFPClassify",
                           "Qualifiers":  "System.Management.QualifierData System.Management.QualifierData System.Management.QualifierData System.Management.QualifierData System.Management.QualifierData System.Management.QualifierData System.Management.QualifierData System.Management.QualifierData"
                       },
                       {
                           "Name":  "FWPMLAYERIKEEXTV4",
                           "Value":  null,
                           "Type":  21,
                           "IsLocal":  true,
                           "IsArray":  false,
                           "Origin":  "Win32_PerfRawData_Counters_WFPClassify",
                           "Qualifiers":  "System.Management.QualifierData System.Management.QualifierData System.Management.QualifierData System.Management.QualifierData System.Management.QualifierData System.Management.QualifierData System.Management.QualifierData System.Management.QualifierData"
                       },
                       {
                           "Name":  "FWPMLAYERIKEEXTV6",
                           "Value":  null,
                           "Type":  21,
                           "IsLocal":  true,
                           "IsArray":  false,
                           "Origin":  "Win32_PerfRawData_Counters_WFPClassify",
                           "Qualifiers":  "System.Management.QualifierData System.Management.QualifierData System.Management.QualifierData System.Management.QualifierData System.Management.QualifierData System.Management.QualifierData System.Management.QualifierData System.Management.QualifierData"
                       },
                       {
                           "Name":  "FWPMLAYERINBOUNDICMPERRORV4",
                           "Value":  null,
                           "Type":  21,
                           "IsLocal":  true,
                           "IsArray":  false,
                           "Origin":  "Win32_PerfRawData_Counters_WFPClassify",
                           "Qualifiers":  "System.Management.QualifierData System.Management.QualifierData System.Management.QualifierData System.Management.QualifierData System.Management.QualifierData System.Management.QualifierData System.Management.QualifierData System.Management.QualifierData"
                       },
                       {
                           "Name":  "FWPMLAYERINBOUNDICMPERRORV4DISCARD",
                           "Value":  null,
                           "Type":  21,
                           "IsLocal":  true,
                           "IsArray":  false,
                           "Origin":  "Win32_PerfRawData_Counters_WFPClassify",
                           "Qualifiers":  "System.Management.QualifierData System.Management.QualifierData System.Management.QualifierData System.Management.QualifierData System.Management.QualifierData System.Management.QualifierData System.Management.QualifierData System.Management.QualifierData"
                       },
                       {
                           "Name":  "FWPMLAYERINBOUNDICMPERRORV6",
                           "Value":  null,
                           "Type":  21,
                           "IsLocal":  true,
                           "IsArray":  false,
                           "Origin":  "Win32_PerfRawData_Counters_WFPClassify",
                           "Qualifiers":  "System.Management.QualifierData System.Management.QualifierData System.Management.QualifierData System.Management.QualifierData System.Management.QualifierData System.Management.QualifierData System.Management.QualifierData System.Management.QualifierData"
                       },
                       {
                           "Name":  "FWPMLAYERINBOUNDICMPERRORV6DISCARD",
                           "Value":  null,
                           "Type":  21,
                           "IsLocal":  true,
                           "IsArray":  false,
                           "Origin":  "Win32_PerfRawData_Counters_WFPClassify",
                           "Qualifiers":  "System.Management.QualifierData System.Management.QualifierData System.Management.QualifierData System.Management.QualifierData System.Management.QualifierData System.Management.QualifierData System.Management.QualifierData System.Management.QualifierData"
                       },
                       {
                           "Name":  "FWPMLAYERINBOUNDIPPACKETV4",
                           "Value":  null,
                           "Type":  21,
                           "IsLocal":  true,
                           "IsArray":  false,
                           "Origin":  "Win32_PerfRawData_Counters_WFPClassify",
                           "Qualifiers":  "System.Management.QualifierData System.Management.QualifierData System.Management.QualifierData System.Management.QualifierData System.Management.QualifierData System.Management.QualifierData System.Management.QualifierData System.Management.QualifierData"
                       },
                       {
                           "Name":  "FWPMLAYERINBOUNDIPPACKETV4DISCARD",
                           "Value":  null,
                           "Type":  21,
                           "IsLocal":  true,
                           "IsArray":  false,
                           "Origin":  "Win32_PerfRawData_Counters_WFPClassify",
                           "Qualifiers":  "System.Management.QualifierData System.Management.QualifierData System.Management.QualifierData System.Management.QualifierData System.Management.QualifierData System.Management.QualifierData System.Management.QualifierData System.Management.QualifierData"
                       },
                       {
                           "Name":  "FWPMLAYERINBOUNDIPPACKETV6",
                           "Value":  null,
                           "Type":  21,
                           "IsLocal":  true,
                           "IsArray":  false,
                           "Origin":  "Win32_PerfRawData_Counters_WFPClassify",
                           "Qualifiers":  "System.Management.QualifierData System.Management.QualifierData System.Management.QualifierData System.Management.QualifierData System.Management.QualifierData System.Management.QualifierData System.Management.QualifierData System.Management.QualifierData"
                       },
                       {
                           "Name":  "FWPMLAYERINBOUNDIPPACKETV6DISCARD",
                           "Value":  null,
                           "Type":  21,
                           "IsLocal":  true,
                           "IsArray":  false,
                           "Origin":  "Win32_PerfRawData_Counters_WFPClassify",
                           "Qualifiers":  "System.Management.QualifierData System.Management.QualifierData System.Management.QualifierData System.Management.QualifierData System.Management.QualifierData System.Management.QualifierData System.Management.QualifierData System.Management.QualifierData"
                       },
                       {
                           "Name":  "FWPMLAYERINBOUNDMACFRAMEETHERNET",
                           "Value":  null,
                           "Type":  21,
                           "IsLocal":  true,
                           "IsArray":  false,
                           "Origin":  "Win32_PerfRawData_Counters_WFPClassify",
                           "Qualifiers":  "System.Management.QualifierData System.Management.QualifierData System.Management.QualifierData System.Management.QualifierData System.Management.QualifierData System.Management.QualifierData System.Management.QualifierData System.Management.QualifierData"
                       },
                       {
                           "Name":  "FWPMLAYERINBOUNDMACFRAMENATIVE",
                           "Value":  null,
                           "Type":  21,
                           "IsLocal":  true,
                           "IsArray":  false,
                           "Origin":  "Win32_PerfRawData_Counters_WFPClassify",
                           "Qualifiers":  "System.Management.QualifierData System.Management.QualifierData System.Management.QualifierData System.Management.QualifierData System.Management.QualifierData System.Management.QualifierData System.Management.QualifierData System.Management.QualifierData"
                       },
                       {
                           "Name":  "FWPMLAYERINBOUNDMACFRAMENATIVEFAST",
                           "Value":  null,
                           "Type":  21,
                           "IsLocal":  true,
                           "IsArray":  false,
                           "Origin":  "Win32_PerfRawData_Counters_WFPClassify",
                           "Qualifiers":  "System.Management.QualifierData System.Management.QualifierData System.Management.QualifierData System.Management.QualifierData System.Management.QualifierData System.Management.QualifierData System.Management.QualifierData System.Management.QualifierData"
                       },
                       {
                           "Name":  "FWPMLAYERINBOUNDSSLTHROTTLING",
                           "Value":  null,
                           "Type":  21,
                           "IsLocal":  true,
                           "IsArray":  false,
                           "Origin":  "Win32_PerfRawData_Counters_WFPClassify",
                           "Qualifiers":  "System.Management.QualifierData System.Management.QualifierData System.Management.QualifierData System.Management.QualifierData System.Management.QualifierData System.Management.QualifierData System.Management.QualifierData System.Management.QualifierData"
                       },
                       {
                           "Name":  "FWPMLAYERINBOUNDTRANSPORTFAST",
                           "Value":  null,
                           "Type":  21,
                           "IsLocal":  true,
                           "IsArray":  false,
                           "Origin":  "Win32_PerfRawData_Counters_WFPClassify",
                           "Qualifiers":  "System.Management.QualifierData System.Management.QualifierData System.Management.QualifierData System.Management.QualifierData System.Management.QualifierData System.Management.QualifierData System.Management.QualifierData System.Management.QualifierData"
                       },
                       {
                           "Name":  "FWPMLAYERINBOUNDTRANSPORTV4",
                           "Value":  null,
                           "Type":  21,
                           "IsLocal":  true,
                           "IsArray":  false,
                           "Origin":  "Win32_PerfRawData_Counters_WFPClassify",
                           "Qualifiers":  "System.Management.QualifierData System.Management.QualifierData System.Management.QualifierData System.Management.QualifierData System.Management.QualifierData System.Management.QualifierData System.Management.QualifierData System.Management.QualifierData"
                       },
                       {
                           "Name":  "FWPMLAYERINBOUNDTRANSPORTV4DISCARD",
                           "Value":  null,
                           "Type":  21,
                           "IsLocal":  true,
                           "IsArray":  false,
                           "Origin":  "Win32_PerfRawData_Counters_WFPClassify",
                           "Qualifiers":  "System.Management.QualifierData System.Management.QualifierData System.Management.QualifierData System.Management.QualifierData System.Management.QualifierData System.Management.QualifierData System.Management.QualifierData System.Management.QualifierData"
                       },
                       {
                           "Name":  "FWPMLAYERINBOUNDTRANSPORTV6",
                           "Value":  null,
                           "Type":  21,
                           "IsLocal":  true,
                           "IsArray":  false,
                           "Origin":  "Win32_PerfRawData_Counters_WFPClassify",
                           "Qualifiers":  "System.Management.QualifierData System.Management.QualifierData System.Management.QualifierData System.Management.QualifierData System.Management.QualifierData System.Management.QualifierData System.Management.QualifierData System.Management.QualifierData"
                       },
                       {
                           "Name":  "FWPMLAYERINBOUNDTRANSPORTV6DISCARD",
                           "Value":  null,
                           "Type":  21,
                           "IsLocal":  true,
                           "IsArray":  false,
                           "Origin":  "Win32_PerfRawData_Counters_WFPClassify",
                           "Qualifiers":  "System.Management.QualifierData System.Management.QualifierData System.Management.QualifierData System.Management.QualifierData System.Management.QualifierData System.Management.QualifierData System.Management.QualifierData System.Management.QualifierData"
                       },
                       {
                           "Name":  "FWPMLAYERINGRESSVSWITCHETHERNET",
                           "Value":  null,
                           "Type":  21,
                           "IsLocal":  true,
                           "IsArray":  false,
                           "Origin":  "Win32_PerfRawData_Counters_WFPClassify",
                           "Qualifiers":  "System.Management.QualifierData System.Management.QualifierData System.Management.QualifierData System.Management.QualifierData System.Management.QualifierData System.Management.QualifierData System.Management.QualifierData System.Management.QualifierData"
                       },
                       {
                           "Name":  "FWPMLAYERINGRESSVSWITCHTRANSPORTV4",
                           "Value":  null,
                           "Type":  21,
                           "IsLocal":  true,
                           "IsArray":  false,
                           "Origin":  "Win32_PerfRawData_Counters_WFPClassify",
                           "Qualifiers":  "System.Management.QualifierData System.Management.QualifierData System.Management.QualifierData System.Management.QualifierData System.Management.QualifierData System.Management.QualifierData System.Management.QualifierData System.Management.QualifierData"
                       },
                       {
                           "Name":  "FWPMLAYERINGRESSVSWITCHTRANSPORTV6",
                           "Value":  null,
                           "Type":  21,
                           "IsLocal":  true,
                           "IsArray":  false,
                           "Origin":  "Win32_PerfRawData_Counters_WFPClassify",
                           "Qualifiers":  "System.Management.QualifierData System.Management.QualifierData System.Management.QualifierData System.Management.QualifierData System.Management.QualifierData System.Management.QualifierData System.Management.QualifierData System.Management.QualifierData"
                       },
                       {
                           "Name":  "FWPMLAYERIPFORWARDV4",
                           "Value":  null,
                           "Type":  21,
                           "IsLocal":  true,
                           "IsArray":  false,
                           "Origin":  "Win32_PerfRawData_Counters_WFPClassify",
                           "Qualifiers":  "System.Management.QualifierData System.Management.QualifierData System.Management.QualifierData System.Management.QualifierData System.Management.QualifierData System.Management.QualifierData System.Management.QualifierData System.Management.QualifierData"
                       },
                       {
                           "Name":  "FWPMLAYERIPFORWARDV4DISCARD",
                           "Value":  null,
                           "Type":  21,
                           "IsLocal":  true,
                           "IsArray":  false,
                           "Origin":  "Win32_PerfRawData_Counters_WFPClassify",
                           "Qualifiers":  "System.Management.QualifierData System.Management.QualifierData System.Management.QualifierData System.Management.QualifierData System.Management.QualifierData System.Management.QualifierData System.Management.QualifierData System.Management.QualifierData"
                       },
                       {
                           "Name":  "FWPMLAYERIPFORWARDV6",
                           "Value":  null,
                           "Type":  21,
                           "IsLocal":  true,
                           "IsArray":  false,
                           "Origin":  "Win32_PerfRawData_Counters_WFPClassify",
                           "Qualifiers":  "System.Management.QualifierData System.Management.QualifierData System.Management.QualifierData System.Management.QualifierData System.Management.QualifierData System.Management.QualifierData System.Management.QualifierData System.Management.QualifierData"
                       },
                       {
                           "Name":  "FWPMLAYERIPFORWARDV6DISCARD",
                           "Value":  null,
                           "Type":  21,
                           "IsLocal":  true,
                           "IsArray":  false,
                           "Origin":  "Win32_PerfRawData_Counters_WFPClassify",
                           "Qualifiers":  "System.Management.QualifierData System.Management.QualifierData System.Management.QualifierData System.Management.QualifierData System.Management.QualifierData System.Management.QualifierData System.Management.QualifierData System.Management.QualifierData"
                       },
                       {
                           "Name":  "FWPMLAYERIPSECKMDEMUXV4",
                           "Value":  null,
                           "Type":  21,
                           "IsLocal":  true,
                           "IsArray":  false,
                           "Origin":  "Win32_PerfRawData_Counters_WFPClassify",
                           "Qualifiers":  "System.Management.QualifierData System.Management.QualifierData System.Management.QualifierData System.Management.QualifierData System.Management.QualifierData System.Management.QualifierData System.Management.QualifierData System.Management.QualifierData"
                       },
                       {
                           "Name":  "FWPMLAYERIPSECKMDEMUXV6",
                           "Value":  null,
                           "Type":  21,
                           "IsLocal":  true,
                           "IsArray":  false,
                           "Origin":  "Win32_PerfRawData_Counters_WFPClassify",
                           "Qualifiers":  "System.Management.QualifierData System.Management.QualifierData System.Management.QualifierData System.Management.QualifierData System.Management.QualifierData System.Management.QualifierData System.Management.QualifierData System.Management.QualifierData"
                       },
                       {
                           "Name":  "FWPMLAYERIPSECV4",
                           "Value":  null,
                           "Type":  21,
                           "IsLocal":  true,
                           "IsArray":  false,
                           "Origin":  "Win32_PerfRawData_Counters_WFPClassify",
                           "Qualifiers":  "System.Management.QualifierData System.Management.QualifierData System.Management.QualifierData System.Management.QualifierData System.Management.QualifierData System.Management.QualifierData System.Management.QualifierData System.Management.QualifierData"
                       },
                       {
                           "Name":  "FWPMLAYERIPSECV6",
                           "Value":  null,
                           "Type":  21,
                           "IsLocal":  true,
                           "IsArray":  false,
                           "Origin":  "Win32_PerfRawData_Counters_WFPClassify",
                           "Qualifiers":  "System.Management.QualifierData System.Management.QualifierData System.Management.QualifierData System.Management.QualifierData System.Management.QualifierData System.Management.QualifierData System.Management.QualifierData System.Management.QualifierData"
                       },
                       {
                           "Name":  "FWPMLAYERKMAUTHORIZATION",
                           "Value":  null,
                           "Type":  21,
                           "IsLocal":  true,
                           "IsArray":  false,
                           "Origin":  "Win32_PerfRawData_Counters_WFPClassify",
                           "Qualifiers":  "System.Management.QualifierData System.Management.QualifierData System.Management.QualifierData System.Management.QualifierData System.Management.QualifierData System.Management.QualifierData System.Management.QualifierData System.Management.QualifierData"
                       },
                       {
                           "Name":  "FWPMLAYERNAMERESOLUTIONCACHEV4",
                           "Value":  null,
                           "Type":  21,
                           "IsLocal":  true,
                           "IsArray":  false,
                           "Origin":  "Win32_PerfRawData_Counters_WFPClassify",
                           "Qualifiers":  "System.Management.QualifierData System.Management.QualifierData System.Management.QualifierData System.Management.QualifierData System.Management.QualifierData System.Management.QualifierData System.Management.QualifierData System.Management.QualifierData"
                       },
                       {
                           "Name":  "FWPMLAYERNAMERESOLUTIONCACHEV6",
                           "Value":  null,
                           "Type":  21,
                           "IsLocal":  true,
                           "IsArray":  false,
                           "Origin":  "Win32_PerfRawData_Counters_WFPClassify",
                           "Qualifiers":  "System.Management.QualifierData System.Management.QualifierData System.Management.QualifierData System.Management.QualifierData System.Management.QualifierData System.Management.QualifierData System.Management.QualifierData System.Management.QualifierData"
                       },
                       {
                           "Name":  "FWPMLAYEROUTBOUNDICMPERRORV4",
                           "Value":  null,
                           "Type":  21,
                           "IsLocal":  true,
                           "IsArray":  false,
                           "Origin":  "Win32_PerfRawData_Counters_WFPClassify",
                           "Qualifiers":  "System.Management.QualifierData System.Management.QualifierData System.Management.QualifierData System.Management.QualifierData System.Management.QualifierData System.Management.QualifierData System.Management.QualifierData System.Management.QualifierData"
                       },
                       {
                           "Name":  "FWPMLAYEROUTBOUNDICMPERRORV4DISCARD",
                           "Value":  null,
                           "Type":  21,
                           "IsLocal":  true,
                           "IsArray":  false,
                           "Origin":  "Win32_PerfRawData_Counters_WFPClassify",
                           "Qualifiers":  "System.Management.QualifierData System.Management.QualifierData System.Management.QualifierData System.Management.QualifierData System.Management.QualifierData System.Management.QualifierData System.Management.QualifierData System.Management.QualifierData"
                       },
                       {
                           "Name":  "FWPMLAYEROUTBOUNDICMPERRORV6",
                           "Value":  null,
                           "Type":  21,
                           "IsLocal":  true,
                           "IsArray":  false,
                           "Origin":  "Win32_PerfRawData_Counters_WFPClassify",
                           "Qualifiers":  "System.Management.QualifierData System.Management.QualifierData System.Management.QualifierData System.Management.QualifierData System.Management.QualifierData System.Management.QualifierData System.Management.QualifierData System.Management.QualifierData"
                       },
                       {
                           "Name":  "FWPMLAYEROUTBOUNDICMPERRORV6DISCARD",
                           "Value":  null,
                           "Type":  21,
                           "IsLocal":  true,
                           "IsArray":  false,
                           "Origin":  "Win32_PerfRawData_Counters_WFPClassify",
                           "Qualifiers":  "System.Management.QualifierData System.Management.QualifierData System.Management.QualifierData System.Management.QualifierData System.Management.QualifierData System.Management.QualifierData System.Management.QualifierData System.Management.QualifierData"
                       },
                       {
                           "Name":  "FWPMLAYEROUTBOUNDIPPACKETV4",
                           "Value":  null,
                           "Type":  21,
                           "IsLocal":  true,
                           "IsArray":  false,
                           "Origin":  "Win32_PerfRawData_Counters_WFPClassify",
                           "Qualifiers":  "System.Management.QualifierData System.Management.QualifierData System.Management.QualifierData System.Management.QualifierData System.Management.QualifierData System.Management.QualifierData System.Management.QualifierData System.Management.QualifierData"
                       },
                       {
                           "Name":  "FWPMLAYEROUTBOUNDIPPACKETV4DISCARD",
                           "Value":  null,
                           "Type":  21,
                           "IsLocal":  true,
                           "IsArray":  false,
                           "Origin":  "Win32_PerfRawData_Counters_WFPClassify",
                           "Qualifiers":  "System.Management.QualifierData System.Management.QualifierData System.Management.QualifierData System.Management.QualifierData System.Management.QualifierData System.Management.QualifierData System.Management.QualifierData System.Management.QualifierData"
                       },
                       {
                           "Name":  "FWPMLAYEROUTBOUNDIPPACKETV6",
                           "Value":  null,
                           "Type":  21,
                           "IsLocal":  true,
                           "IsArray":  false,
                           "Origin":  "Win32_PerfRawData_Counters_WFPClassify",
                           "Qualifiers":  "System.Management.QualifierData System.Management.QualifierData System.Management.QualifierData System.Management.QualifierData System.Management.QualifierData System.Management.QualifierData System.Management.QualifierData System.Management.QualifierData"
                       },
                       {
                           "Name":  "FWPMLAYEROUTBOUNDIPPACKETV6DISCARD",
                           "Value":  null,
                           "Type":  21,
                           "IsLocal":  true,
                           "IsArray":  false,
                           "Origin":  "Win32_PerfRawData_Counters_WFPClassify",
                           "Qualifiers":  "System.Management.QualifierData System.Management.QualifierData System.Management.QualifierData System.Management.QualifierData System.Management.QualifierData System.Management.QualifierData System.Management.QualifierData System.Management.QualifierData"
                       },
                       {
                           "Name":  "FWPMLAYEROUTBOUNDMACFRAMEETHERNET",
                           "Value":  null,
                           "Type":  21,
                           "IsLocal":  true,
                           "IsArray":  false,
                           "Origin":  "Win32_PerfRawData_Counters_WFPClassify",
                           "Qualifiers":  "System.Management.QualifierData System.Management.QualifierData System.Management.QualifierData System.Management.QualifierData System.Management.QualifierData System.Management.QualifierData System.Management.QualifierData System.Management.QualifierData"
                       },
                       {
                           "Name":  "FWPMLAYEROUTBOUNDMACFRAMENATIVE",
                           "Value":  null,
                           "Type":  21,
                           "IsLocal":  true,
                           "IsArray":  false,
                           "Origin":  "Win32_PerfRawData_Counters_WFPClassify",
                           "Qualifiers":  "System.Management.QualifierData System.Management.QualifierData System.Management.QualifierData System.Management.QualifierData System.Management.QualifierData System.Management.QualifierData System.Management.QualifierData System.Management.QualifierData"
                       },
                       {
                           "Name":  "FWPMLAYEROUTBOUNDMACFRAMENATIVEFAST",
                           "Value":  null,
                           "Type":  21,
                           "IsLocal":  true,
                           "IsArray":  false,
                           "Origin":  "Win32_PerfRawData_Counters_WFPClassify",
                           "Qualifiers":  "System.Management.QualifierData System.Management.QualifierData System.Management.QualifierData System.Management.QualifierData System.Management.QualifierData System.Management.QualifierData System.Management.QualifierData System.Management.QualifierData"
                       },
                       {
                           "Name":  "FWPMLAYEROUTBOUNDTRANSPORTFAST",
                           "Value":  null,
                           "Type":  21,
                           "IsLocal":  true,
                           "IsArray":  false,
                           "Origin":  "Win32_PerfRawData_Counters_WFPClassify",
                           "Qualifiers":  "System.Management.QualifierData System.Management.QualifierData System.Management.QualifierData System.Management.QualifierData System.Management.QualifierData System.Management.QualifierData System.Management.QualifierData System.Management.QualifierData"
                       },
                       {
                           "Name":  "FWPMLAYEROUTBOUNDTRANSPORTV4",
                           "Value":  null,
                           "Type":  21,
                           "IsLocal":  true,
                           "IsArray":  false,
                           "Origin":  "Win32_PerfRawData_Counters_WFPClassify",
                           "Qualifiers":  "System.Management.QualifierData System.Management.QualifierData System.Management.QualifierData System.Management.QualifierData System.Management.QualifierData System.Management.QualifierData System.Management.QualifierData System.Management.QualifierData"
                       },
                       {
                           "Name":  "FWPMLAYEROUTBOUNDTRANSPORTV4DISCARD",
                           "Value":  null,
                           "Type":  21,
                           "IsLocal":  true,
                           "IsArray":  false,
                           "Origin":  "Win32_PerfRawData_Counters_WFPClassify",
                           "Qualifiers":  "System.Management.QualifierData System.Management.QualifierData System.Management.QualifierData System.Management.QualifierData System.Management.QualifierData System.Management.QualifierData System.Management.QualifierData System.Management.QualifierData"
                       },
                       {
                           "Name":  "FWPMLAYEROUTBOUNDTRANSPORTV6",
                           "Value":  null,
                           "Type":  21,
                           "IsLocal":  true,
                           "IsArray":  false,
                           "Origin":  "Win32_PerfRawData_Counters_WFPClassify",
                           "Qualifiers":  "System.Management.QualifierData System.Management.QualifierData System.Management.QualifierData System.Management.QualifierData System.Management.QualifierData System.Management.QualifierData System.Management.QualifierData System.Management.QualifierData"
                       },
                       {
                           "Name":  "FWPMLAYEROUTBOUNDTRANSPORTV6DISCARD",
                           "Value":  null,
                           "Type":  21,
                           "IsLocal":  true,
                           "IsArray":  false,
                           "Origin":  "Win32_PerfRawData_Counters_WFPClassify",
                           "Qualifiers":  "System.Management.QualifierData System.Management.QualifierData System.Management.QualifierData System.Management.QualifierData System.Management.QualifierData System.Management.QualifierData System.Management.QualifierData System.Management.QualifierData"
                       },
                       {
                           "Name":  "FWPMLAYERRPCEPADD",
                           "Value":  null,
                           "Type":  21,
                           "IsLocal":  true,
                           "IsArray":  false,
                           "Origin":  "Win32_PerfRawData_Counters_WFPClassify",
                           "Qualifiers":  "System.Management.QualifierData System.Management.QualifierData System.Management.QualifierData System.Management.QualifierData System.Management.QualifierData System.Management.QualifierData System.Management.QualifierData System.Management.QualifierData"
                       },
                       {
                           "Name":  "FWPMLAYERRPCEPMAP",
                           "Value":  null,
                           "Type":  21,
                           "IsLocal":  true,
                           "IsArray":  false,
                           "Origin":  "Win32_PerfRawData_Counters_WFPClassify",
                           "Qualifiers":  "System.Management.QualifierData System.Management.QualifierData System.Management.QualifierData System.Management.QualifierData System.Management.QualifierData System.Management.QualifierData System.Management.QualifierData System.Management.QualifierData"
                       },
                       {
                           "Name":  "FWPMLAYERRPCPROXYCONN",
                           "Value":  null,
                           "Type":  21,
                           "IsLocal":  true,
                           "IsArray":  false,
                           "Origin":  "Win32_PerfRawData_Counters_WFPClassify",
                           "Qualifiers":  "System.Management.QualifierData System.Management.QualifierData System.Management.QualifierData System.Management.QualifierData System.Management.QualifierData System.Management.QualifierData System.Management.QualifierData System.Management.QualifierData"
                       },
                       {
                           "Name":  "FWPMLAYERRPCPROXYIF",
                           "Value":  null,
                           "Type":  21,
                           "IsLocal":  true,
                           "IsArray":  false,
                           "Origin":  "Win32_PerfRawData_Counters_WFPClassify",
                           "Qualifiers":  "System.Management.QualifierData System.Management.QualifierData System.Management.QualifierData System.Management.QualifierData System.Management.QualifierData System.Management.QualifierData System.Management.QualifierData System.Management.QualifierData"
                       },
                       {
                           "Name":  "FWPMLAYERRPCUM",
                           "Value":  null,
                           "Type":  21,
                           "IsLocal":  true,
                           "IsArray":  false,
                           "Origin":  "Win32_PerfRawData_Counters_WFPClassify",
                           "Qualifiers":  "System.Management.QualifierData System.Management.QualifierData System.Management.QualifierData System.Management.QualifierData System.Management.QualifierData System.Management.QualifierData System.Management.QualifierData System.Management.QualifierData"
                       },
                       {
                           "Name":  "FWPMLAYERSTREAMPACKETV4",
                           "Value":  null,
                           "Type":  21,
                           "IsLocal":  true,
                           "IsArray":  false,
                           "Origin":  "Win32_PerfRawData_Counters_WFPClassify",
                           "Qualifiers":  "System.Management.QualifierData System.Management.QualifierData System.Management.QualifierData System.Management.QualifierData System.Management.QualifierData System.Management.QualifierData System.Management.QualifierData System.Management.QualifierData"
                       },
                       {
                           "Name":  "FWPMLAYERSTREAMPACKETV6",
                           "Value":  null,
                           "Type":  21,
                           "IsLocal":  true,
                           "IsArray":  false,
                           "Origin":  "Win32_PerfRawData_Counters_WFPClassify",
                           "Qualifiers":  "System.Management.QualifierData System.Management.QualifierData System.Management.QualifierData System.Management.QualifierData System.Management.QualifierData System.Management.QualifierData System.Management.QualifierData System.Management.QualifierData"
                       },
                       {
                           "Name":  "FWPMLAYERSTREAMV4",
                           "Value":  null,
                           "Type":  21,
                           "IsLocal":  true,
                           "IsArray":  false,
                           "Origin":  "Win32_PerfRawData_Counters_WFPClassify",
                           "Qualifiers":  "System.Management.QualifierData System.Management.QualifierData System.Management.QualifierData System.Management.QualifierData System.Management.QualifierData System.Management.QualifierData System.Management.QualifierData System.Management.QualifierData"
                       },
                       {
                           "Name":  "FWPMLAYERSTREAMV4DISCARD",
                           "Value":  null,
                           "Type":  21,
                           "IsLocal":  true,
                           "IsArray":  false,
                           "Origin":  "Win32_PerfRawData_Counters_WFPClassify",
                           "Qualifiers":  "System.Management.QualifierData System.Management.QualifierData System.Management.QualifierData System.Management.QualifierData System.Management.QualifierData System.Management.QualifierData System.Management.QualifierData System.Management.QualifierData"
                       },
                       {
                           "Name":  "FWPMLAYERSTREAMV6",
                           "Value":  null,
                           "Type":  21,
                           "IsLocal":  true,
                           "IsArray":  false,
                           "Origin":  "Win32_PerfRawData_Counters_WFPClassify",
                           "Qualifiers":  "System.Management.QualifierData System.Management.QualifierData System.Management.QualifierData System.Management.QualifierData System.Management.QualifierData System.Management.QualifierData System.Management.QualifierData System.Management.QualifierData"
                       },
                       {
                           "Name":  "FWPMLAYERSTREAMV6DISCARD",
                           "Value":  null,
                           "Type":  21,
                           "IsLocal":  true,
                           "IsArray":  false,
                           "Origin":  "Win32_PerfRawData_Counters_WFPClassify",
                           "Qualifiers":  "System.Management.QualifierData System.Management.QualifierData System.Management.QualifierData System.Management.QualifierData System.Management.QualifierData System.Management.QualifierData System.Management.QualifierData System.Management.QualifierData"
                       },
                       {
                           "Name":  "Name",
                           "Value":  null,
                           "Type":  8,
                           "IsLocal":  false,
                           "IsArray":  false,
                           "Origin":  "CIM_StatisticalInformation",
                           "Qualifiers":  "System.Management.QualifierData System.Management.QualifierData System.Management.QualifierData"
                       },
                       {
                           "Name":  "Timestamp_Object",
                           "Value":  null,
                           "Type":  21,
                           "IsLocal":  false,
                           "IsArray":  false,
                           "Origin":  "Win32_Perf",
                           "Qualifiers":  "System.Management.QualifierData"
                       },
                       {
                           "Name":  "Timestamp_PerfTime",
                           "Value":  null,
                           "Type":  21,
                           "IsLocal":  false,
                           "IsArray":  false,
                           "Origin":  "Win32_Perf",
                           "Qualifiers":  "System.Management.QualifierData"
                       },
                       {
                           "Name":  "Timestamp_Sys100NS",
                           "Value":  null,
                           "Type":  21,
                           "IsLocal":  false,
                           "IsArray":  false,
                           "Origin":  "Win32_Perf",
                           "Qualifiers":  "System.Management.QualifierData"
                       },
                       {
                           "Name":  "Total",
                           "Value":  null,
                           "Type":  21,
                           "IsLocal":  true,
                           "IsArray":  false,
                           "Origin":  "Win32_PerfRawData_Counters_WFPClassify",
                           "Qualifiers":  "System.Management.QualifierData System.Management.QualifierData System.Management.QualifierData System.Management.QualifierData System.Management.QualifierData System.Management.QualifierData System.Management.QualifierData System.Management.QualifierData System.Management.QualifierData"
                       }
                   ],
    "SystemProperties":  [
                             {
                                 "Name":  "__GENUS",
                                 "Value":  1,
                                 "Type":  3,
                                 "IsLocal":  true,
                                 "IsArray":  false,
                                 "Origin":  "___SYSTEM",
                                 "Qualifiers":  ""
                             },
                             {
                                 "Name":  "__CLASS",
                                 "Value":  "Win32_PerfRawData_Counters_WFPClassify",
                                 "Type":  8,
                                 "IsLocal":  true,
                                 "IsArray":  false,
                                 "Origin":  "___SYSTEM",
                                 "Qualifiers":  ""
                             },
                             {
                                 "Name":  "__SUPERCLASS",
                                 "Value":  "Win32_PerfRawData",
                                 "Type":  8,
                                 "IsLocal":  true,
                                 "IsArray":  false,
                                 "Origin":  "___SYSTEM",
                                 "Qualifiers":  ""
                             },
                             {
                                 "Name":  "__DYNASTY",
                                 "Value":  "CIM_StatisticalInformation",
                                 "Type":  8,
                                 "IsLocal":  true,
                                 "IsArray":  false,
                                 "Origin":  "___SYSTEM",
                                 "Qualifiers":  ""
                             },
                             {
                                 "Name":  "__RELPATH",
                                 "Value":  "Win32_PerfRawData_Counters_WFPClassify",
                                 "Type":  8,
                                 "IsLocal":  true,
                                 "IsArray":  false,
                                 "Origin":  "___SYSTEM",
                                 "Qualifiers":  ""
                             },
                             {
                                 "Name":  "__PROPERTY_COUNT",
                                 "Value":  113,
                                 "Type":  3,
                                 "IsLocal":  true,
                                 "IsArray":  false,
                                 "Origin":  "___SYSTEM",
                                 "Qualifiers":  ""
                             },
                             {
                                 "Name":  "__DERIVATION",
                                 "Value":  "Win32_PerfRawData Win32_Perf CIM_StatisticalInformation",
                                 "Type":  8,
                                 "IsLocal":  true,
                                 "IsArray":  true,
                                 "Origin":  "___SYSTEM",
                                 "Qualifiers":  ""
                             },
                             {
                                 "Name":  "__SERVER",
                                 "Value":  "DAEDALUS",
                                 "Type":  8,
                                 "IsLocal":  true,
                                 "IsArray":  false,
                                 "Origin":  "___SYSTEM",
                                 "Qualifiers":  ""
                             },
                             {
                                 "Name":  "__NAMESPACE",
                                 "Value":  "root\\cimv2",
                                 "Type":  8,
                                 "IsLocal":  true,
                                 "IsArray":  false,
                                 "Origin":  "___SYSTEM",
                                 "Qualifiers":  ""
                             },
                             {
                                 "Name":  "__PATH",
                                 "Value":  "\\\\DAEDALUS\\root\\cimv2:Win32_PerfRawData_Counters_WFPClassify",
                                 "Type":  8,
                                 "IsLocal":  true,
                                 "IsArray":  false,
                                 "Origin":  "___SYSTEM",
                                 "Qualifiers":  ""
                             }
                         ],
    "Qualifiers":  [
                       {
                           "Name":  "DetailLevel",
                           "Value":  100,
                           "IsAmended":  false,
                           "IsLocal":  true,
                           "PropagatesToInstance":  true,
                           "PropagatesToSubclass":  false,
                           "IsOverridable":  true
                       },
                       {
                           "Name":  "DisplayName",
                           "Value":  "WFP Classify",
                           "IsAmended":  false,
                           "IsLocal":  true,
                           "PropagatesToInstance":  true,
                           "PropagatesToSubclass":  false,
                           "IsOverridable":  true
                       },
                       {
                           "Name":  "DisplayName009",
                           "Value":  "WFP Classify",
                           "IsAmended":  false,
                           "IsLocal":  true,
                           "PropagatesToInstance":  true,
                           "PropagatesToSubclass":  false,
                           "IsOverridable":  true
                       },
                       {
                           "Name":  "dynamic",
                           "Value":  true,
                           "IsAmended":  false,
                           "IsLocal":  true,
                           "PropagatesToInstance":  true,
                           "PropagatesToSubclass":  false,
                           "IsOverridable":  true
                       },
                       {
                           "Name":  "GenericPerfCtr",
                           "Value":  true,
                           "IsAmended":  false,
                           "IsLocal":  true,
                           "PropagatesToInstance":  true,
                           "PropagatesToSubclass":  false,
                           "IsOverridable":  true
                       },
                       {
                           "Name":  "HelpIndex",
                           "Value":  0,
                           "IsAmended":  false,
                           "IsLocal":  true,
                           "PropagatesToInstance":  true,
                           "PropagatesToSubclass":  false,
                           "IsOverridable":  true
                       },
                       {
                           "Name":  "HiPerf",
                           "Value":  true,
                           "IsAmended":  false,
                           "IsLocal":  true,
                           "PropagatesToInstance":  true,
                           "PropagatesToSubclass":  false,
                           "IsOverridable":  true
                       },
                       {
                           "Name":  "Locale",
                           "Value":  1033,
                           "IsAmended":  false,
                           "IsLocal":  true,
                           "PropagatesToInstance":  true,
                           "PropagatesToSubclass":  false,
                           "IsOverridable":  true
                       },
                       {
                           "Name":  "PerfIndex",
                           "Value":  0,
                           "IsAmended":  false,
                           "IsLocal":  true,
                           "PropagatesToInstance":  true,
                           "PropagatesToSubclass":  false,
                           "IsOverridable":  true
                       },
                       {
                           "Name":  "provider",
                           "Value":  "WmiPerfInst",
                           "IsAmended":  false,
                           "IsLocal":  true,
                           "PropagatesToInstance":  false,
                           "PropagatesToSubclass":  false,
                           "IsOverridable":  true
                       },
                       {
                           "Name":  "RegistryKey",
                           "Value":  "{ef63b92d-c5a6-4314-ac9f-cc6b1c56fb9c}",
                           "IsAmended":  false,
                           "IsLocal":  true,
                           "PropagatesToInstance":  true,
                           "PropagatesToSubclass":  false,
                           "IsOverridable":  true
                       },
                       {
                           "Name":  "Singleton",
                           "Value":  true,
                           "IsAmended":  false,
                           "IsLocal":  true,
                           "PropagatesToInstance":  true,
                           "PropagatesToSubclass":  true,
                           "IsOverridable":  false
                       }
                   ],
    "Site":  null,
    "Container":  null,
    "PSComputerName":  "DAEDALUS",
    "Name":  "Win32_PerfRawData_Counters_WFPClassify",
    "__GENUS":  1,
    "__CLASS":  "Win32_PerfRawData_Counters_WFPClassify",
    "__SUPERCLASS":  "Win32_PerfRawData",
    "__DYNASTY":  "CIM_StatisticalInformation",
    "__RELPATH":  "Win32_PerfRawData_Counters_WFPClassify",
    "__PROPERTY_COUNT":  113,
    "__DERIVATION":  [
                         "Win32_PerfRawData",
                         "Win32_Perf",
                         "CIM_StatisticalInformation"
                     ],
    "__SERVER":  "DAEDALUS",
    "__NAMESPACE":  "root\\cimv2",
    "__PATH":  "\\\\DAEDALUS\\root\\cimv2:Win32_PerfRawData_Counters_WFPClassify"
}
